{
    "PEGAEKCDCPP": "",
    "GNKDILIOOFF": "",
    "group": [
        [
            {
                "$type": "ConfigCutsceneInterAction",
                "type": "CUTSCENE",
                "cutsceneCfg": {
                    "$type": "ConfigTimeline",
                    "type": "TIME_LINE_PREFAB",
                    "luaDataPath": "",
                    "resPath": "ART/Cutscene/Cs_LYIQ21005_RacingGameOpening",
                    "castListPath": "",
                    "entityBan": "",
                    "needYEuler": true,
                    "fadeInDuration": 0.0
                }
            }
        ]
    ]
}