{
    "GuideTestSaveCharacter": {
        "name": "",
        "onGuide": [
            {
                "$type": "ConfigGuideUIMaskAction",
                "widgetList": [
                    {
                        "path": "GrpCharacter/GrpTab/Menu/Content/BtnTalent",
                        "contextName": "CharacterPage",
                        "hintInfo": "",
                        "widghtInfo": "UI_ACTIVITY_BARTENDER_BLUE_NUM3",
                        "warningInfo": "",
                        "widghtInfoPos": "L",
                        "type": "Blink",
                        "valueStr": ""
                    },
                    {
                        "path": "GrpCharacter/GrpTab/Menu/Content/BtnWeapon",
                        "contextName": "CharacterPage",
                        "hintInfo": "",
                        "widghtInfo": "UI_ACTIVITY_BARTENDER_BLUE_NUM3",
                        "warningInfo": "",
                        "widghtInfoPos": "L",
                        "type": "Blink",
                        "valueStr": "",
                        "LHOFEEOHJOF": 1
                    },
                    {
                        "path": "GrpCharacter/GrpTab/Tab_Mobile",
                        "contextName": "CharacterPage",
                        "hintInfo": "",
                        "widghtInfo": "",
                        "warningInfo": "",
                        "maskType": "Black",
                        "type": "Blink",
                        "special": "TabItem",
                        "value": 1.0,
                        "valueStr": "",
                        "LHOFEEOHJOF": 2
                    },
                    {
                        "path": "GrpCharacter/GrpTab/Menu/Content/BtnRelic",
                        "contextName": "CharacterPage",
                        "hintInfo": "",
                        "widghtInfo": "UI_ACTIVITY_BARTENDER_BLUE_NUM3",
                        "warningInfo": "",
                        "widghtInfoPos": "L",
                        "type": "Blink",
                        "valueStr": "",
                        "LHOFEEOHJOF": 3
                    }
                ],
                "topInfo": "",
                "preUICompatibily": true,
                "AJAKPHIDEPB": "InLevelMainPage"
            }
        ],
        "finishCondition": [
            [
                {
                    "$type": "ConfigGuideButtonClickCondition",
                    "buttonPath": "GrpCharacter/GrpTab/Menu/Content/BtnTalent",
                    "contextName": "CharacterPage",
                    "GGMOECIJCJG": true
                }
            ]
        ]
    },
    "GuideTestSaveMap": {
        "name": "",
        "onGuide": [
            {
                "$type": "ConfigGuideUIMaskAction",
                "widgetList": [
                    {
                        "path": "GrpMap/Top/TopPersistant/Dungeon_Tower/BtnTips/Content",
                        "contextName": "InLevelMapPage",
                        "hintInfo": "",
                        "widghtInfo": "UI_ACTIVITY_BARTENDER_BLUE_NUM3",
                        "warningInfo": "",
                        "widghtInfoPos": "L",
                        "type": "Blink",
                        "valueStr": ""
                    },
                    {
                        "path": "GrpMap/MapTipsContainer/MapSwitch/ScrollView",
                        "contextName": "InLevelMapPage",
                        "hintInfo": "",
                        "widghtInfo": "UI_ACTIVITY_BARTENDER_BLUE_NUM3",
                        "warningInfo": "",
                        "widghtInfoPos": "L",
                        "type": "Blink",
                        "special": "GridScroller",
                        "value": 1.0,
                        "valueStr": "",
                        "LHOFEEOHJOF": 1
                    },
                    {
                        "path": "GrpMap/ExploratoryDegree/GrpText",
                        "contextName": "InLevelMapPage",
                        "hintInfo": "",
                        "widghtInfo": "UI_ACTIVITY_BARTENDER_BLUE_NUM3",
                        "warningInfo": "",
                        "widghtInfoPos": "L",
                        "type": "Blink",
                        "valueStr": "",
                        "LHOFEEOHJOF": 2
                    },
                    {
                        "path": "GrpMap/Top/TopPersistant/Dungeon_Reward/BtnAdd/Content",
                        "contextName": "InLevelMapPage",
                        "hintInfo": "",
                        "widghtInfo": "UI_ACTIVITY_BARTENDER_BLUE_NUM3",
                        "warningInfo": "",
                        "widghtInfoPos": "L",
                        "type": "Blink",
                        "valueStr": "",
                        "LHOFEEOHJOF": 3
                    }
                ],
                "topInfo": "",
                "preUICompatibily": true,
                "AJAKPHIDEPB": "InLevelMainPage"
            }
        ],
        "finishCondition": [
            [
                {
                    "$type": "ConfigGuideButtonClickCondition",
                    "buttonPath": "GrpMap/Top/TopPersistant/Dungeon_Tower/BtnTips/Content",
                    "contextName": "InLevelMapPage",
                    "GGMOECIJCJG": true
                }
            ]
        ]
    },
    "GuideTestGeneralResin": {
        "name": "",
        "onGuide": [
            {
                "$type": "ConfigGuideUIMaskAction",
                "widgetList": [
                    {
                        "path": "Dialog/Content/ActionButton/BtnRight/Content",
                        "contextName": "OpenRewardDialog",
                        "hintInfo": "",
                        "widghtInfo": "UI_ACTIVITY_BARTENDER_BLUE_NUM3",
                        "warningInfo": "",
                        "widghtInfoPos": "L",
                        "type": "Blink",
                        "valueStr": "",
                        "virtualDialAction": "RewardAddResin",
                        "value": true
                    }
                ],
                "topInfo": "",
                "AJAKPHIDEPB": "InLevelMainPage"
            }
        ],
        "finishCondition": [
            [
                {
                    "$type": "ConfigGuideButtonClickCondition",
                    "virtualDialAction": "RewardAddResin",
                    "value": true,
                    "buttonPath": "Dialog/Content/ActionButton/BtnRight/Content",
                    "contextName": "OpenRewardDialog"
                }
            ]
        ]
    },
    "GuideTestSaveDebug": {
        "name": "",
        "onGuide": [
            {
                "$type": "ConfigGuideUIMaskAction",
                "widgetList": [
                    {
                        "path": "Stamina",
                        "contextName": "InLevelDebugDevDialog",
                        "hintInfo": "",
                        "widghtInfo": "UI_ACTIVITY_BARTENDER_BLUE_NUM3",
                        "warningInfo": "",
                        "widghtInfoPos": "L",
                        "type": "Blink",
                        "valueStr": ""
                    },
                    {
                        "path": "SkillNoCD",
                        "contextName": "InLevelDebugDevDialog",
                        "hintInfo": "",
                        "widghtInfo": "UI_ACTIVITY_BARTENDER_BLUE_NUM3",
                        "warningInfo": "",
                        "widghtInfoPos": "L",
                        "type": "Blink",
                        "valueStr": "",
                        "LHOFEEOHJOF": 1
                    },
                    {
                        "path": "LogSwitch",
                        "contextName": "InLevelDebugDevDialog",
                        "hintInfo": "",
                        "widghtInfo": "UI_ACTIVITY_BARTENDER_BLUE_NUM3",
                        "warningInfo": "",
                        "widghtInfoPos": "L",
                        "type": "Blink",
                        "valueStr": "",
                        "LHOFEEOHJOF": 2
                    }
                ],
                "topInfo": "",
                "preUICompatibily": true,
                "AJAKPHIDEPB": "InLevelMainPage"
            }
        ],
        "finishCondition": [
            [
                {
                    "$type": "ConfigGuideButtonClickCondition",
                    "buttonPath": "Stamina",
                    "contextName": "InLevelDebugDevDialog",
                    "GGMOECIJCJG": true
                }
            ]
        ]
    }
}