{
    "sceneId": 50091,
    "monsters": [
        {
            "groupId": 250091001,
            "mapInstId": 1001,
            "aiGroupID": 250091001,
            "aiNeuronSetting": "DefaultSetting",
            "aiSensingTemplate": "DefaultTemplate",
            "DNENBFNCCHD": "",
            "AFJKALOGMGG": ""
        }
    ]
}