{
    "IMNIDFJJJIP": {
        "Eff_Gcg_Avatar_Kayea_Spine_Loop_Disc": {
            "DIKPAPLPBLO": true,
            "AIBAIBAJHEC": "Gcg_CardFace_Char_Avatar_Kaeya_Spine",
            "AAAEEDOMFKA": "EffectRoot_BG",
            "NAJLKNEDDNJ": true
        }
    },
    "ICMFLBOOIDK": {
        "Eff_Gcg_Avatar_Kaeya_Spine_Loop": {
            "DIKPAPLPBLO": true,
            "AIBAIBAJHEC": "Gcg_CardFace_Char_Avatar_Kaeya_Spine",
            "AAAEEDOMFKA": "EffectRoot_Coin",
            "ENFLEHOOKLG": "Gcg_CardFace_Char_Avatar_Kaeya_Spine",
            "HFEJGLDMMPP": "Base Layer",
            "LKDAMKOJOBH": "Kaeya_Spine_Idle",
            "normalizedTime": 0.11249999701976776
        }
    }
}