{
    "IMNIDFJJJIP": {
        "Eff_Gcg_Avatar_Barbara_Spine_Loop": {
            "AIBAIBAJHEC": "",
            "AAAEEDOMFKA": "",
            "BCMLBGLFPGC": true,
            "ADJENNPPACJ": 0.75
        }
    }
}