{
    "name": "Char_Skill_33024_Ex_2",
    "MFDJLKBDGKB": {
        "-1197212178": {
            "$type": "GCGDeclaredValueEffectAmount",
            "type": "EffectNum",
            "value": 3
        },
        "-2067715720": {
            "$type": "GCGDeclaredValueEffectAmount",
            "type": "EffectNum",
            "value": 1
        }
    }
}