{
    "PFLCGELMMLK": [
        {
            "parentIndex": -1,
            "AIDEDCFPDJN": 10002,
            "ODDOLIJEJDC": "FrontScene"
        },
        {
            "parentIndex": -1,
            "AIDEDCFPDJN": 10006,
            "ODDOLIJEJDC": "BehindScene"
        },
        {
            "AIDEDCFPDJN": 10021,
            "ODDOLIJEJDC": "VitalFlower1"
        },
        {
            "AIDEDCFPDJN": 10018,
            "ODDOLIJEJDC": "VitalFlower2"
        },
        {
            "AIDEDCFPDJN": 10026,
            "ODDOLIJEJDC": "VitalFlower3"
        },
        {
            "AIDEDCFPDJN": 10025,
            "ODDOLIJEJDC": "VitalFlower4"
        },
        {
            "AIDEDCFPDJN": 10024,
            "ODDOLIJEJDC": "VitalFlower5"
        },
        {
            "AIDEDCFPDJN": 10025,
            "ODDOLIJEJDC": "VitalFlower6"
        }
    ]
}