{
    "id": 158,
    "stageMatureEvents": [
        "Play_Amb_Dungeon_XuMi_WQ01"
    ],
    "stageExitEvents": [
        "Stop_Amb_Dungeon_XuMi_WQ01",
        "State_Music_NonCombat"
    ],
    "stateValue": "State_Dungeon_XM_WQ",
    "MGPFCAPMBPF": {
        "text": "Play_Music_Dungeon"
    },
    "BHCLCBAJBPL": {
        "text": "Stop_Music_Dungeon"
    }
}