{
    "id": 116,
    "stageMatureEvents": [
        "Play_Amb_Dungeon_Prison"
    ],
    "stageExitEvents": [
        "Stop_Amb_Dungeon_Prison",
        "State_Music_NonCombat"
    ],
    "stateValue": "State_HFDungeon02",
    "MGPFCAPMBPF": {
        "text": "Play_Music_Dungeon"
    },
    "BHCLCBAJBPL": {
        "text": "Stop_Music_Dungeon"
    }
}