{
    "JJKFKAPKIIJ": [
        {
            "name": "Monster_Fatuus_Q_Golden",
            "ICOELPGMFCF": [
                {
                    "LJLEBFDEBMB": 1.2000000476837158,
                    "actionGroups": [
                        {
                            "actions": [
                                {
                                    "$type": "GcgBehaviourSwitchGoldenLoopEffect",
                                    "JIAJMJKCNLK": {
                                        "target": "Actor"
                                    }
                                },
                                {
                                    "$type": "GcgBehaviourSwitchOnCardLoopEffect",
                                    "JIAJMJKCNLK": {
                                        "target": "Actor"
                                    }
                                },
                                {
                                    "$type": "GcgBehaviourTriggerSpineAttack",
                                    "JIAJMJKCNLK": {
                                        "target": "Actor"
                                    }
                                },
                                {
                                    "$type": "GcgBehaviourFireEffect",
                                    "JIAJMJKCNLK": {
                                        "target": "Actor"
                                    },
                                    "effectName": "Eff_Gcg_Monster_Fatuus_ElementalBurst_Spine_Eye",
                                    "NMKDFBNKHKD": true,
                                    "DIKPAPLPBLO": true,
                                    "AIBAIBAJHEC": "Gcg_CardFace_Char_Monster_Fatuus_Spine",
                                    "AAAEEDOMFKA": "EffectRoot_eye",
                                    "NKACDLBOINI": {
                                        "$type": "GcgBornRotationFollow"
                                    }
                                }
                            ]
                        }
                    ]
                },
                {
                    "LJLEBFDEBMB": 0.07000000029802322,
                    "actionGroups": [
                        {
                            "actions": [
                                {
                                    "$type": "GcgBehaviourFireEffect",
                                    "JIAJMJKCNLK": {
                                        "target": "Actor"
                                    },
                                    "effectName": "Eff_Gcg_Monster_Fatuus_ElementalBurst_Spine",
                                    "NMKDFBNKHKD": true,
                                    "AIBAIBAJHEC": "",
                                    "AAAEEDOMFKA": "",
                                    "NKACDLBOINI": {
                                        "$type": "GcgBornRotationFollow"
                                    }
                                }
                            ]
                        }
                    ]
                },
                {
                    "LJLEBFDEBMB": 1.440000057220459,
                    "actionGroups": [
                        {
                            "actions": [
                                {
                                    "$type": "GcgBehaviourFireEffect",
                                    "JIAJMJKCNLK": {
                                        "target": "MainTarget"
                                    },
                                    "effectName": "Eff_Gcg_Monster_Fatuus_ElementalBurst_Hit",
                                    "FACBNHPNPKC": {
                                        "y": 0.5
                                    },
                                    "AIBAIBAJHEC": "",
                                    "AAAEEDOMFKA": "",
                                    "NKACDLBOINI": {
                                        "$type": "GcgBornRotationFollow"
                                    }
                                }
                            ]
                        }
                    ]
                },
                {
                    "LJLEBFDEBMB": 1.2200000286102295,
                    "actionGroups": [
                        {
                            "actions": [
                                {
                                    "$type": "GcgBehaviourTriggerAttack",
                                    "JIAJMJKCNLK": {
                                        "target": "MainTarget"
                                    }
                                },
                                {
                                    "$type": "GcgBehaviourShakeScreen",
                                    "JIAJMJKCNLK": {
                                        "target": "MainTarget"
                                    },
                                    "BBFAGKKJAIP": "Common_ShakeScreen_Test_Q"
                                },
                                {
                                    "$type": "GcgBehaviourRunMoveScript",
                                    "BDHMBGJGMDE": "GcgMotion_Hit04_04",
                                    "NJOGAEHPENB": "",
                                    "IGOINFNGJOD": {
                                        "target": "MainTarget"
                                    },
                                    "JIAJMJKCNLK": {
                                        "target": "Actor"
                                    },
                                    "GMGMKMOOLDK": true
                                }
                            ]
                        }
                    ]
                },
                {
                    "LJLEBFDEBMB": 0.029999999329447746,
                    "actionGroups": [
                        {
                            "actions": [
                                {
                                    "$type": "GcgBehaviourFireEffect",
                                    "JIAJMJKCNLK": {
                                        "target": "Actor"
                                    },
                                    "effectName": "Eff_Gcg_Common_Spine_ReturnToLoop",
                                    "NMKDFBNKHKD": true,
                                    "AIBAIBAJHEC": "",
                                    "AAAEEDOMFKA": "",
                                    "NKACDLBOINI": {
                                        "$type": "GcgBornRotationFollow"
                                    }
                                }
                            ]
                        }
                    ]
                },
                {
                    "actionGroups": [
                        {
                            "actions": [
                                {
                                    "$type": "GcgBehaviourSwitchGoldenLoopEffect",
                                    "JIAJMJKCNLK": {
                                        "target": "Actor"
                                    },
                                    "FCCFCBLDECD": true
                                },
                                {
                                    "$type": "GcgBehaviourSwitchOnCardLoopEffect",
                                    "JIAJMJKCNLK": {
                                        "target": "Actor"
                                    },
                                    "FCCFCBLDECD": true
                                }
                            ]
                        }
                    ]
                }
            ]
        }
    ]
}