{
    "name": "Char_Skill_33033_Ex_1_COPY",
    "MFDJLKBDGKB": {
        "-1197212178": {
            "$type": "GCGDeclaredValueEffectAmount",
            "type": "EffectNum",
            "value": 1
        }
    }
}