{
    "JJKFKAPKIIJ": [
        {
            "name": "Character_Yoimiya_Q_Normal",
            "ICOELPGMFCF": [
                {
                    "LJLEBFDEBMB": 0.44999998807907104,
                    "actionGroups": [
                        {
                            "actions": [
                                {
                                    "$type": "GcgBehaviourSwitchOnCardLoopEffect",
                                    "JIAJMJKCNLK": {
                                        "target": "Actor"
                                    }
                                },
                                {
                                    "$type": "GcgBehaviourFireEffect",
                                    "JIAJMJKCNLK": {
                                        "target": "Actor"
                                    },
                                    "effectName": "Eff_Gcg_Common_ElementalBurst_NormalCharge",
                                    "AIBAIBAJHEC": "",
                                    "AAAEEDOMFKA": "",
                                    "NKACDLBOINI": {
                                        "$type": "GcgBornRotationFollow"
                                    }
                                }
                            ]
                        }
                    ]
                },
                {
                    "LJLEBFDEBMB": 0.10000000149011612,
                    "actionGroups": [
                        {
                            "actions": [
                                {
                                    "$type": "GcgBehaviourFireEffectBullet",
                                    "effectName": "Eff_Gcg_Avatar_Yoimiya_ElementalBurst",
                                    "KAPPKKCHBFE": true,
                                    "LLLKCHPGKMO": true,
                                    "HLDGINGCKFM": {
                                        "target": "Actor"
                                    },
                                    "CDLANHMKKFI": {
                                        "target": "MainTarget"
                                    },
                                    "NKACDLBOINI": {
                                        "$type": "GcgBornRotationLookAtTarget",
                                        "JIAJMJKCNLK": {
                                            "target": "MainTarget"
                                        }
                                    },
                                    "BDHMBGJGMDE": "Eff_Gcg_Motion_Avatar_Yoimiya_ElementBurst",
                                    "NJOGAEHPENB": "",
                                    "KNCANJADEHH": [
                                        {
                                            "$type": "GcgBehaviourEventDestroy",
                                            "BLJEOLJGCJM": "OnHit"
                                        }
                                    ]
                                }
                            ]
                        }
                    ]
                },
                {
                    "LJLEBFDEBMB": 2.049999952316284,
                    "actionGroups": [
                        {
                            "actions": [
                                {
                                    "$type": "GcgBehaviourFireEffect",
                                    "JIAJMJKCNLK": {
                                        "target": "Actor"
                                    },
                                    "effectName": "Eff_Gcg_Avatar_Yoimiya_ElementalBurst_BS",
                                    "AIBAIBAJHEC": "",
                                    "AAAEEDOMFKA": "",
                                    "NKACDLBOINI": {
                                        "$type": "GcgBornRotationFollow"
                                    }
                                }
                            ]
                        }
                    ]
                }
            ],
            "MCCBMOIBOKD": [
                {
                    "LJLEBFDEBMB": 0.5,
                    "actionGroups": [
                        {
                            "actions": [
                                {
                                    "$type": "GcgBehaviourFireEffect",
                                    "JIAJMJKCNLK": {
                                        "target": "MainTarget"
                                    },
                                    "effectName": "Eff_Gcg_Avatar_Yoimiya_ElementalBurst_Hit",
                                    "AIBAIBAJHEC": "",
                                    "AAAEEDOMFKA": "",
                                    "NKACDLBOINI": {
                                        "$type": "GcgBornRotationLookAtTarget",
                                        "JIAJMJKCNLK": {
                                            "target": "Actor"
                                        }
                                    }
                                },
                                {
                                    "$type": "GcgBehaviourShakeScreen",
                                    "JIAJMJKCNLK": {
                                        "target": "ContextTarget"
                                    },
                                    "BBFAGKKJAIP": "Common_ShakeScreen_Test_Q"
                                },
                                {
                                    "$type": "GcgBehaviourRunMoveScript",
                                    "BDHMBGJGMDE": "GcgMotion_Hit04_05",
                                    "NJOGAEHPENB": "",
                                    "IGOINFNGJOD": {
                                        "target": "ContextTarget"
                                    },
                                    "JIAJMJKCNLK": {
                                        "target": "Actor"
                                    },
                                    "GMGMKMOOLDK": true
                                }
                            ]
                        }
                    ]
                },
                {
                    "actionGroups": [
                        {
                            "actions": [
                                {
                                    "$type": "GcgBehaviourSwitchOnCardLoopEffect",
                                    "JIAJMJKCNLK": {
                                        "target": "Actor"
                                    },
                                    "FCCFCBLDECD": true
                                }
                            ]
                        }
                    ]
                }
            ]
        },
        {
            "name": "Character_Yoimiya_Huoguang",
            "ICOELPGMFCF": [
                {
                    "LJLEBFDEBMB": 0.05000000074505806
                },
                {
                    "actionGroups": [
                        {
                            "actions": [
                                {
                                    "$type": "GcgBehaviourTriggerAttack",
                                    "JIAJMJKCNLK": {
                                        "target": "MainTarget"
                                    }
                                }
                            ]
                        }
                    ]
                }
            ],
            "MCCBMOIBOKD": [
                {
                    "actionGroups": [
                        {
                            "actions": [
                                {
                                    "$type": "GcgBehaviourFireEffect",
                                    "JIAJMJKCNLK": {
                                        "target": "ContextTarget"
                                    },
                                    "effectName": "Eff_Gcg_Avatar_Yoimiya_ElementalBurst_Hit_Buff",
                                    "AIBAIBAJHEC": "",
                                    "AAAEEDOMFKA": "",
                                    "NKACDLBOINI": {
                                        "$type": "GcgBornRotationFollow"
                                    }
                                }
                            ]
                        }
                    ]
                },
                {
                    "NEILGHFHFJA": {
                        "$type": "GcgPredictByAnd",
                        "MPPBPEDKGBB": [
                            {
                                "$type": "GcgPredictByAttackSkill",
                                "JNAJAAGFIOP": [
                                    101,
                                    102,
                                    103,
                                    104,
                                    105,
                                    106,
                                    107,
                                    108,
                                    109,
                                    110,
                                    111,
                                    112,
                                    113,
                                    114,
                                    115,
                                    116,
                                    117
                                ]
                            },
                            {
                                "$type": "GcgPredictByTarget",
                                "JIAJMJKCNLK": {
                                    "target": "MainTarget",
                                    "OELLEMICEDF": "ActorOppoCamp"
                                }
                            }
                        ]
                    },
                    "actionGroups": [
                        {
                            "NEILGHFHFJA": {
                                "$type": "GcgPredictByAttackSkill",
                                "JNAJAAGFIOP": [
                                    101
                                ]
                            },
                            "actions": [
                                {
                                    "$type": "GcgBehaviourFireEffect",
                                    "JIAJMJKCNLK": {
                                        "target": "ContextTarget"
                                    },
                                    "effectName": "Eff_Gcg_Common_Reaction_Melt",
                                    "AIBAIBAJHEC": "",
                                    "AAAEEDOMFKA": "",
                                    "NKACDLBOINI": {
                                        "$type": "GcgBornRotationFollow"
                                    }
                                }
                            ]
                        },
                        {
                            "NEILGHFHFJA": {
                                "$type": "GcgPredictByAttackSkill",
                                "JNAJAAGFIOP": [
                                    102
                                ]
                            },
                            "actions": [
                                {
                                    "$type": "GcgBehaviourFireEffect",
                                    "JIAJMJKCNLK": {
                                        "target": "ContextTarget"
                                    },
                                    "effectName": "Eff_Gcg_Common_Reaction_Steam",
                                    "AIBAIBAJHEC": "",
                                    "AAAEEDOMFKA": "",
                                    "NKACDLBOINI": {
                                        "$type": "GcgBornRotationFollow"
                                    }
                                }
                            ]
                        },
                        {
                            "NEILGHFHFJA": {
                                "$type": "GcgPredictByAttackSkill",
                                "JNAJAAGFIOP": [
                                    103
                                ]
                            },
                            "actions": [
                                {
                                    "$type": "GcgBehaviourFireEffect",
                                    "JIAJMJKCNLK": {
                                        "target": "ContextTarget"
                                    },
                                    "effectName": "Eff_Gcg_Common_Reaction_Overload",
                                    "AIBAIBAJHEC": "",
                                    "AAAEEDOMFKA": "",
                                    "NKACDLBOINI": {
                                        "$type": "GcgBornRotationFollow"
                                    }
                                }
                            ]
                        },
                        {
                            "NEILGHFHFJA": {
                                "$type": "GcgPredictByAttackSkill",
                                "JNAJAAGFIOP": [
                                    104
                                ]
                            },
                            "actions": [
                                {
                                    "$type": "GcgBehaviourFireEffect",
                                    "JIAJMJKCNLK": {
                                        "target": "ContextTarget"
                                    },
                                    "effectName": "Eff_Gcg_Common_Reaction_Superconductor",
                                    "AIBAIBAJHEC": "",
                                    "AAAEEDOMFKA": "",
                                    "NKACDLBOINI": {
                                        "$type": "GcgBornRotationFollow"
                                    }
                                }
                            ]
                        },
                        {
                            "NEILGHFHFJA": {
                                "$type": "GcgPredictByAttackSkill",
                                "JNAJAAGFIOP": [
                                    105
                                ]
                            },
                            "actions": [
                                {
                                    "$type": "GcgBehaviourFireEffect",
                                    "JIAJMJKCNLK": {
                                        "target": "ContextTarget"
                                    },
                                    "effectName": "Eff_Gcg_Common_Reaction_StickElectric",
                                    "AIBAIBAJHEC": "",
                                    "AAAEEDOMFKA": "",
                                    "NKACDLBOINI": {
                                        "$type": "GcgBornRotationFollow"
                                    }
                                }
                            ]
                        },
                        {
                            "NEILGHFHFJA": {
                                "$type": "GcgPredictByAttackSkill",
                                "JNAJAAGFIOP": [
                                    1061
                                ]
                            },
                            "actions": [
                                {
                                    "$type": "GcgBehaviourFireEffect",
                                    "JIAJMJKCNLK": {
                                        "target": "ContextTarget"
                                    },
                                    "effectName": "Eff_Gcg_Common_Reaction_BreakIce",
                                    "AIBAIBAJHEC": "",
                                    "AAAEEDOMFKA": "",
                                    "NKACDLBOINI": {
                                        "$type": "GcgBornRotationFollow"
                                    }
                                }
                            ]
                        },
                        {
                            "NEILGHFHFJA": {
                                "$type": "GcgPredictByAttackSkill",
                                "JNAJAAGFIOP": [
                                    108
                                ]
                            },
                            "actions": [
                                {
                                    "$type": "GcgBehaviourFireEffect",
                                    "JIAJMJKCNLK": {
                                        "target": "ContextTarget"
                                    },
                                    "effectName": "Eff_Gcg_Common_Reaction_Swirl_Water",
                                    "AIBAIBAJHEC": "",
                                    "AAAEEDOMFKA": "",
                                    "NKACDLBOINI": {
                                        "$type": "GcgBornRotationFollow"
                                    }
                                }
                            ]
                        },
                        {
                            "NEILGHFHFJA": {
                                "$type": "GcgPredictByAttackSkill",
                                "JNAJAAGFIOP": [
                                    107
                                ]
                            },
                            "actions": [
                                {
                                    "$type": "GcgBehaviourFireEffect",
                                    "JIAJMJKCNLK": {
                                        "target": "ContextTarget"
                                    },
                                    "effectName": "Eff_Gcg_Common_Reaction_Swirl_Ice",
                                    "AIBAIBAJHEC": "",
                                    "AAAEEDOMFKA": "",
                                    "NKACDLBOINI": {
                                        "$type": "GcgBornRotationFollow"
                                    }
                                }
                            ]
                        },
                        {
                            "NEILGHFHFJA": {
                                "$type": "GcgPredictByAttackSkill",
                                "JNAJAAGFIOP": [
                                    109
                                ]
                            },
                            "actions": [
                                {
                                    "$type": "GcgBehaviourFireEffect",
                                    "JIAJMJKCNLK": {
                                        "target": "ContextTarget"
                                    },
                                    "effectName": "Eff_Gcg_Common_Reaction_Swirl_Fire",
                                    "AIBAIBAJHEC": "",
                                    "AAAEEDOMFKA": "",
                                    "NKACDLBOINI": {
                                        "$type": "GcgBornRotationFollow"
                                    }
                                }
                            ]
                        },
                        {
                            "NEILGHFHFJA": {
                                "$type": "GcgPredictByAttackSkill",
                                "JNAJAAGFIOP": [
                                    110
                                ]
                            },
                            "actions": [
                                {
                                    "$type": "GcgBehaviourFireEffect",
                                    "JIAJMJKCNLK": {
                                        "target": "ContextTarget"
                                    },
                                    "effectName": "Eff_Gcg_Common_Reaction_Swirl_Electric",
                                    "AIBAIBAJHEC": "",
                                    "AAAEEDOMFKA": "",
                                    "NKACDLBOINI": {
                                        "$type": "GcgBornRotationFollow"
                                    }
                                }
                            ]
                        },
                        {
                            "NEILGHFHFJA": {
                                "$type": "GcgPredictByAttackSkill",
                                "JNAJAAGFIOP": [
                                    111,
                                    112,
                                    113,
                                    114
                                ]
                            },
                            "actions": [
                                {
                                    "$type": "GcgBehaviourFireEffect",
                                    "JIAJMJKCNLK": {
                                        "target": "ContextTarget"
                                    },
                                    "effectName": "Eff_Gcg_Common_Reaction_Crystal",
                                    "AIBAIBAJHEC": "",
                                    "AAAEEDOMFKA": "",
                                    "NKACDLBOINI": {
                                        "$type": "GcgBornRotationFollow"
                                    }
                                }
                            ]
                        },
                        {
                            "NEILGHFHFJA": {
                                "$type": "GcgPredictByAttackSkill",
                                "JNAJAAGFIOP": [
                                    115
                                ]
                            },
                            "actions": [
                                {
                                    "$type": "GcgBehaviourFireEffect",
                                    "JIAJMJKCNLK": {
                                        "target": "ContextTarget"
                                    },
                                    "effectName": "Eff_Gcg_Common_Reaction_Burning_Grass",
                                    "AIBAIBAJHEC": "",
                                    "AAAEEDOMFKA": "",
                                    "NKACDLBOINI": {
                                        "$type": "GcgBornRotationFollow"
                                    }
                                }
                            ]
                        },
                        {
                            "NEILGHFHFJA": {
                                "$type": "GcgPredictByAttackSkill",
                                "JNAJAAGFIOP": [
                                    116
                                ]
                            },
                            "actions": [
                                {
                                    "$type": "GcgBehaviourFireEffect",
                                    "JIAJMJKCNLK": {
                                        "target": "ContextTarget"
                                    },
                                    "effectName": "Eff_Gcg_Common_Reaction_Overgrow",
                                    "AIBAIBAJHEC": "",
                                    "AAAEEDOMFKA": "",
                                    "NKACDLBOINI": {
                                        "$type": "GcgBornRotationFollow"
                                    }
                                }
                            ]
                        },
                        {
                            "NEILGHFHFJA": {
                                "$type": "GcgPredictByAttackSkill",
                                "JNAJAAGFIOP": [
                                    117
                                ]
                            },
                            "actions": [
                                {
                                    "$type": "GcgBehaviourFireEffect",
                                    "JIAJMJKCNLK": {
                                        "target": "ContextTarget"
                                    },
                                    "effectName": "Eff_Gcg_Common_Reaction_Overdose",
                                    "AIBAIBAJHEC": "",
                                    "AAAEEDOMFKA": "",
                                    "NKACDLBOINI": {
                                        "$type": "GcgBornRotationFollow"
                                    }
                                }
                            ]
                        }
                    ]
                }
            ]
        }
    ]
}