{
    "gadgetId": 0,
    "areaId": 0,
    "pos": {
        "z": 131073.03125
    },
    "GHPFBOKCALF": [
        {
            "x": -2437.367431640625,
            "y": 22.53756332397461,
            "z": 5416.5498046875
        },
        {
            "x": -2439.8623046875,
            "y": 22.710552215576172,
            "z": 5498.93994140625
        },
        {
            "x": -2333.195068359375,
            "y": -47.84886932373047,
            "z": 5502.0537109375
        },
        {
            "x": -2325.931884765625,
            "y": -41.96966552734375,
            "z": 5417.75830078125
        },
        {
            "x": -2430.65185546875,
            "y": 68.28820037841797,
            "z": 5416.5498046875
        }
    ]
}