{
    "PFLCGELMMLK": [
        {
            "parentIndex": -1,
            "AIDEDCFPDJN": 10003,
            "ODDOLIJEJDC": "FrontScene"
        },
        {
            "parentIndex": -1,
            "AIDEDCFPDJN": 10007,
            "ODDOLIJEJDC": "BehindScene"
        },
        {
            "AIDEDCFPDJN": 10032,
            "ODDOLIJEJDC": "VitalFlower1"
        },
        {
            "AIDEDCFPDJN": 10028,
            "ODDOLIJEJDC": "VitalFlower2"
        },
        {
            "AIDEDCFPDJN": 10032,
            "ODDOLIJEJDC": "VitalFlower3"
        },
        {
            "AIDEDCFPDJN": 10034,
            "ODDOLIJEJDC": "VitalFlower4"
        },
        {
            "AIDEDCFPDJN": 10027,
            "ODDOLIJEJDC": "VitalFlower5"
        },
        {
            "AIDEDCFPDJN": 10031,
            "ODDOLIJEJDC": "VitalFlower6"
        }
    ]
}