{
    "freeStyleStateMap": {
        "10100": [],
        "10101": [],
        "10201": [],
        "10301": [],
        "10401": [],
        "10501": [],
        "10601": [],
        "10701": [],
        "10801": [],
        "1231": [
            "Ani_Avatar_NPC_AkimboHand01BS_0",
            "Ani_Avatar_NPC_AkimboHand01BS_Sync_0",
            "Ani_Avatar_NPC_AkimboHand01Loop_0",
            "Ani_Avatar_NPC_AkimboHand01Loop_Sync_0",
            "Ani_Avatar_NPC_AkimboHand01AS_0",
            "Ani_Avatar_NPC_AkimboHand01AS_Sync_0",
            "Ani_Avatar_NPC_Akimbo01Loop_0",
            "Ani_Avatar_NPC_Akimbo01Loop_Sync_0",
            "Ani_Avatar_NPC_Akimbo01AS_0",
            "Ani_Avatar_NPC_Akimbo01AS_Sync_0"
        ],
        "1121": [
            "Ani_Avatar_NPC_HoldArmHand01BS_0",
            "Ani_Avatar_NPC_HoldArmHand01BS_Sync_0",
            "Ani_Avatar_NPC_HoldArmHand01Loop_0",
            "Ani_Avatar_NPC_HoldArmHand01Loop_Sync_0",
            "Ani_Avatar_NPC_HoldArmHand01AS_0",
            "Ani_Avatar_NPC_HoldArmHand01AS_Sync_0",
            "Ani_Avatar_NPC_HoldArm01Loop_0",
            "Ani_Avatar_NPC_HoldArm01Loop_Sync_0",
            "Ani_Avatar_NPC_HoldArm01AS_0",
            "Ani_Avatar_NPC_HoldArm01AS_Sync_0"
        ],
        "1191": [
            "Ani_Avatar_NPC_ThinkHand01BS_0",
            "Ani_Avatar_NPC_ThinkHand01Loop_0",
            "Ani_Avatar_NPC_ThinkHand01AS_0",
            "Ani_Avatar_NPC_Think01Loop_0",
            "Ani_Avatar_NPC_Think01Loop_Sync_0",
            "Ani_Avatar_NPC_Think01AS_0",
            "Ani_Avatar_NPC_Think01AS_Sync_0"
        ],
        "1221": [
            "Ani_Avatar_NPC_AkimboHand02BS_0",
            "Ani_Avatar_NPC_AkimboHand02BS_Sync_0",
            "Ani_Avatar_NPC_AkimboHand02Loop_0",
            "Ani_Avatar_NPC_AkimboHand02Loop_Sync_0",
            "Ani_Avatar_NPC_AkimboHand02AS_0",
            "Ani_Avatar_NPC_AkimboHand02AS_Sync_0",
            "Ani_Avatar_NPC_Akimbo02Loop_0",
            "Ani_Avatar_NPC_Akimbo02Loop_Sync_0",
            "Ani_Avatar_NPC_Akimbo02AS_0",
            "Ani_Avatar_NPC_Akimbo02AS_Sync_0"
        ],
        "8062": [
            "Ani_Avatar_NPC_SitWrite01BS_0",
            "Ani_Avatar_NPC_SitWrite01Loop_0",
            "Ani_Avatar_NPC_SitWrite01AS_0"
        ],
        "8040": [
            "Ani_Avatar_NPC_SitHoldArm01BS_0",
            "Ani_Avatar_NPC_SitHoldArm01BS_Sync_0",
            "Ani_Avatar_NPC_SitHoldArm01Loop_0",
            "Ani_Avatar_NPC_SitHoldArm01Loop_Sync_0",
            "Ani_Avatar_NPC_SitHoldArm01AS_0",
            "Ani_Avatar_NPC_SitHoldArm01AS_Sync_0"
        ],
        "8012": [
            "Ani_Avatar_NPC_SitShrug01BS_0",
            "Ani_Avatar_NPC_SitShrug01Loop_0",
            "Ani_Avatar_NPC_SitShrug01AS_0"
        ],
        "8013": [
            "Ani_Avatar_NPC_SitThink01BS_0",
            "Ani_Avatar_NPC_SitThink01BS_Sync_0",
            "Ani_Avatar_NPC_SitThink01Loop_0",
            "Ani_Avatar_NPC_SitThink01Loop_Sync_0",
            "Ani_Avatar_NPC_SitThink01AS_0",
            "Ani_Avatar_NPC_SitThink01AS_Sync_0"
        ],
        "8011": [
            "Ani_Avatar_NPC_SitChat01BS_0",
            "Ani_Avatar_NPC_SitChat01BS_Sync_0",
            "Ani_Avatar_NPC_SitChat01Loop_0",
            "Ani_Avatar_NPC_SitChat01Loop_Sync_0",
            "Ani_Avatar_NPC_SitChat01AS_0",
            "Ani_Avatar_NPC_SitChat01AS_Sync_0"
        ],
        "8060": [
            "Ani_Avatar_NPC_SitPutArm01BS_0",
            "Ani_Avatar_NPC_SitPutArm01Loop_0",
            "Ani_Avatar_NPC_SitPutArm01AS_0"
        ],
        "8061": [
            "Ani_Avatar_NPC_SitCrouch01BS_0",
            "Ani_Avatar_NPC_SitCrouch01Loop_0",
            "Ani_Avatar_NPC_SitCrouch01AS_0",
            "Ani_Avatar_NPC_SitWrite01Loop_0",
            "Ani_Avatar_NPC_SitWrite01AS_0"
        ],
        "8041": [
            "Ani_Avatar_NPC_SitHoldArmHand01BS_0",
            "Ani_Avatar_NPC_SitHoldArmHand01BS_Sync_0",
            "Ani_Avatar_NPC_SitHoldArmHand01Loop_0",
            "Ani_Avatar_NPC_SitHoldArmHand01Loop_Sync_0",
            "Ani_Avatar_NPC_SitHoldArmHand01AS_0",
            "Ani_Avatar_NPC_SitHoldArmHand01AS_Sync_0",
            "Ani_Avatar_NPC_SitHoldArm01Loop_0",
            "Ani_Avatar_NPC_SitHoldArm01Loop_Sync_0",
            "Ani_Avatar_NPC_SitHoldArm01AS_0",
            "Ani_Avatar_NPC_SitHoldArm01AS_Sync_0"
        ],
        "1230": [
            "Ani_Avatar_NPC_Akimbo01BS_0",
            "Ani_Avatar_NPC_Akimbo01BS_Sync_0",
            "Ani_Avatar_NPC_Akimbo01Loop_0",
            "Ani_Avatar_NPC_Akimbo01Loop_Sync_0",
            "Ani_Avatar_NPC_Akimbo01AS_0",
            "Ani_Avatar_NPC_Akimbo01AS_Sync_0"
        ],
        "1040": [
            "Ani_Avatar_NPC_Backrake01BS_0",
            "Ani_Avatar_NPC_Backrake01BS_Sync_0",
            "Ani_Avatar_NPC_Backrake01Loop_0",
            "Ani_Avatar_NPC_Backrake01Loop_Sync_0",
            "Ani_Avatar_NPC_Backrake01AS_0",
            "Ani_Avatar_NPC_Backrake01AS_Sync_0"
        ],
        "1050": [
            "Ani_Avatar_NPC_Confuse01BS_0",
            "Ani_Avatar_NPC_Confuse01BS_Sync_0",
            "Ani_Avatar_NPC_Confuse01Loop_0",
            "Ani_Avatar_NPC_Confuse01Loop_Sync_0",
            "Ani_Avatar_NPC_Confuse01AS_0",
            "Ani_Avatar_NPC_Confuse01AS_Sync_0"
        ],
        "1060": [
            "Ani_Avatar_NPC_Forerake01BS_0",
            "Ani_Avatar_NPC_Forerake01BS_Sync_0",
            "Ani_Avatar_NPC_Forerake01Loop_0",
            "Ani_Avatar_NPC_Forerake01Loop_Sync_0",
            "Ani_Avatar_NPC_Forerake01AS_0",
            "Ani_Avatar_NPC_Forerake01AS_Sync_0"
        ],
        "1070": [
            "Ani_Avatar_NPC_Afraid01BS_0",
            "Ani_Avatar_NPC_Afraid01Loop_0",
            "Ani_Avatar_NPC_Afraid01AS_0"
        ],
        "1080": [
            "Ani_Avatar_NPC_Alert01BS_0",
            "Ani_Avatar_NPC_Alert01BS_Sync_0",
            "Ani_Avatar_NPC_Alert01Loop_0",
            "Ani_Avatar_NPC_Alert01Loop_Sync_0",
            "Ani_Avatar_NPC_Alert01AS_0",
            "Ani_Avatar_NPC_Alert01AS_Sync_0"
        ],
        "1090": [
            "Ani_Avatar_NPC_Shy01BS_0",
            "Ani_Avatar_NPC_Shy01BS_Sync_0",
            "Ani_Avatar_NPC_Shy01Loop_0",
            "Ani_Avatar_NPC_Shy01Loop_Sync_0",
            "Ani_Avatar_NPC_Shy01AS_0",
            "Ani_Avatar_NPC_Shy01AS_Sync_0"
        ],
        "1110": [
            "Ani_Avatar_NPC_Shrug01BS_0",
            "Ani_Avatar_NPC_Shrug01BS_Sync_0",
            "Ani_Avatar_NPC_Shrug01Loop_0",
            "Ani_Avatar_NPC_Shrug01Loop_Sync_0",
            "Ani_Avatar_NPC_Shrug01AS_0",
            "Ani_Avatar_NPC_Shrug01AS_Sync_0"
        ],
        "1120": [
            "Ani_Avatar_NPC_HoldArm01BS_0",
            "Ani_Avatar_NPC_HoldArm01BS_Sync_0",
            "Ani_Avatar_NPC_HoldArm01Loop_0",
            "Ani_Avatar_NPC_HoldArm01Loop_Sync_0",
            "Ani_Avatar_NPC_HoldArm01AS_0",
            "Ani_Avatar_NPC_HoldArm01AS_Sync_0"
        ],
        "1130": [
            "Ani_Avatar_NPC_StrikeChest01BS_0",
            "Ani_Avatar_NPC_StrikeChest01BS_Sync_0",
            "Ani_Avatar_NPC_StrikeChest01Loop_0",
            "Ani_Avatar_NPC_StrikeChest01Loop_Sync_0",
            "Ani_Avatar_NPC_StrikeChest01AS_0",
            "Ani_Avatar_NPC_StrikeChest01AS_Sync_0"
        ],
        "1150": [
            "Ani_Avatar_NPC_Refuse01_0",
            "Ani_Avatar_NPC_Refuse01_Sync_0"
        ],
        "1160": [
            "Ani_Avatar_NPC_Downcast01BS_0",
            "Ani_Avatar_NPC_Downcast01BS_Sync_0",
            "Ani_Avatar_NPC_Downcast01Loop_0",
            "Ani_Avatar_NPC_Downcast01Loop_Sync_0",
            "Ani_Avatar_NPC_Downcast01AS_0",
            "Ani_Avatar_NPC_Downcast01AS_Sync_0"
        ],
        "1170": [
            "Ani_Avatar_NPC_Chat01BS_0",
            "Ani_Avatar_NPC_Chat01BS_Sync_0",
            "Ani_Avatar_NPC_Chat01Loop_0",
            "Ani_Avatar_NPC_Chat01Loop_Sync_0",
            "Ani_Avatar_NPC_Chat01AS_0",
            "Ani_Avatar_NPC_Chat01AS_Sync_0"
        ],
        "1180": [
            "Ani_Avatar_NPC_Chat02BS_0",
            "Ani_Avatar_NPC_Chat02BS_Sync_0",
            "Ani_Avatar_NPC_Chat02Loop_0",
            "Ani_Avatar_NPC_Chat02Loop_Sync_0",
            "Ani_Avatar_NPC_Chat02AS_0",
            "Ani_Avatar_NPC_Chat02AS_Sync_0"
        ],
        "1190": [
            "Ani_Avatar_NPC_Think01BS_0",
            "Ani_Avatar_NPC_Think01BS_Sync_0",
            "Ani_Avatar_NPC_Think01Loop_0",
            "Ani_Avatar_NPC_Think01Loop_Sync_0",
            "Ani_Avatar_NPC_Think01AS_0",
            "Ani_Avatar_NPC_Think01AS_Sync_0"
        ],
        "9030": [],
        "9040": [],
        "1140": [
            "Ani_Avatar_NPC_PointR01BS_0",
            "Ani_Avatar_NPC_PointR01BS_Sync_0",
            "Ani_Avatar_NPC_PointR01Loop_0",
            "Ani_Avatar_NPC_PointR01Loop_Sync_0",
            "Ani_Avatar_NPC_PointR01AS_0",
            "Ani_Avatar_NPC_PointR01AS_Sync_0"
        ],
        "1200": [
            "Ani_Avatar_NPC_Greet01_0",
            "Ani_Avatar_NPC_Greet01_Sync_0"
        ],
        "1220": [
            "Ani_Avatar_NPC_Akimbo02BS_0",
            "Ani_Avatar_NPC_Akimbo02BS_Sync_0",
            "Ani_Avatar_NPC_Akimbo02Loop_0",
            "Ani_Avatar_NPC_Akimbo02Loop_Sync_0",
            "Ani_Avatar_NPC_Akimbo02AS_0",
            "Ani_Avatar_NPC_Akimbo02AS_Sync_0"
        ],
        "1210": [
            "Ani_Avatar_NPC_SaluteMengde01BS_0",
            "Ani_Avatar_NPC_SaluteMengde01Loop_0",
            "Ani_Avatar_NPC_SaluteMengde01AS_0"
        ],
        "1240": [
            "Ani_Avatar_NPC_HoldHead01BS_0",
            "Ani_Avatar_NPC_HoldHead01BS_Sync_0",
            "Ani_Avatar_NPC_HoldHead01Loop_0",
            "Ani_Avatar_NPC_HoldHead01Loop_Sync_0",
            "Ani_Avatar_NPC_HoldHead01AS_0",
            "Ani_Avatar_NPC_HoldHead01AS_Sync_0"
        ],
        "1030": [
            "Ani_Avatar_NPC_PutHand01BS_0",
            "Ani_Avatar_NPC_PutHand01BS_Sync_0",
            "Ani_Avatar_NPC_PutHand01Loop_0",
            "Ani_Avatar_NPC_PutHand01Loop_Sync_0",
            "Ani_Avatar_NPC_PutHand01AS_0",
            "Ani_Avatar_NPC_PutHand01AS_Sync_0"
        ],
        "8010": [],
        "8020": [],
        "1141": [
            "Ani_Avatar_NPC_PointF01BS_0",
            "Ani_Avatar_NPC_PointF01BS_Sync_0",
            "Ani_Avatar_NPC_PointF01Loop_0",
            "Ani_Avatar_NPC_PointF01Loop_Sync_0",
            "Ani_Avatar_NPC_PointF01AS_0",
            "Ani_Avatar_NPC_PointF01AS_Sync_0"
        ],
        "1142": [
            "Ani_Avatar_NPC_PointL01BS_0",
            "Ani_Avatar_NPC_PointL01BS_Sync_0",
            "Ani_Avatar_NPC_PointL01Loop_0",
            "Ani_Avatar_NPC_PointL01Loop_Sync_0",
            "Ani_Avatar_NPC_PointL01AS_0",
            "Ani_Avatar_NPC_PointL01AS_Sync_0"
        ],
        "1171": [
            "Ani_Avatar_NPC_Talk01_0",
            "Ani_Avatar_NPC_Talk01_Sync_0"
        ],
        "1172": [
            "Ani_Avatar_NPC_Talk02_0",
            "Ani_Avatar_NPC_Talk02_Sync_0"
        ],
        "1173": [
            "Ani_Avatar_NPC_Talk03_0",
            "Ani_Avatar_NPC_Talk03_Sync_0"
        ],
        "1250": [
            "Ani_Avatar_NPC_Request01BS_0",
            "Ani_Avatar_NPC_Request01Loop_0",
            "Ani_Avatar_NPC_Request01AS_0"
        ],
        "1260": [
            "Ani_Avatar_NPC_Clap01_0",
            "Ani_Avatar_NPC_Clap01_Sync_0"
        ],
        "1270": [
            "Ani_Avatar_NPC_Cheer01BS_0",
            "Ani_Avatar_NPC_Cheer01Loop_0",
            "Ani_Avatar_NPC_Cheer01AS_0"
        ],
        "1280": [
            "Ani_Avatar_NPC_Investigate01BS_0",
            "Ani_Avatar_NPC_Investigate01BS_Sync_0",
            "Ani_Avatar_NPC_Investigate01Loop_0",
            "Ani_Avatar_NPC_Investigate01Loop_Sync_0",
            "Ani_Avatar_NPC_Investigate01AS_0",
            "Ani_Avatar_NPC_Investigate01AS_Sync_0"
        ],
        "1290": [
            "Ani_Avatar_NPC_Laugh01_0",
            "Ani_Avatar_NPC_Laugh01_Sync_0"
        ],
        "1300": [
            "Ani_Avatar_NPC_Encourage01_0",
            "Ani_Avatar_NPC_Encourage01_Sync_0"
        ],
        "1310": [
            "Ani_Avatar_NPC_Dusting01_0",
            "Ani_Avatar_NPC_Dusting01_Sync_0"
        ],
        "4503": [
            "Ani_Avatar_Claymore_WeaponStandby_0",
            "Ani_Avatar_Claymore_WeaponStandby_Sync_0"
        ],
        "1342": [
            "Ani_Avatar_Channel01BS_0",
            "Ani_Avatar_Claymore_Channel01BS_Sync_0",
            "Ani_Avatar_Channel01Loop_0",
            "Ani_Avatar_Claymore_Channel01Loop_Sync_0",
            "Ani_Avatar_Channel01AS_0",
            "Ani_Avatar_Claymore_Channel01AS_Sync_0"
        ],
        "133002": [
            "Ani_Avatar_NPC_PersonalRead01BS_0",
            "Ani_Avatar_NPC_PersonalRead01BS_Sync_0",
            "Ani_Avatar_NPC_PersonalRead01Loop_0",
            "Ani_Avatar_NPC_PersonalRead01Loop_Sync_0",
            "Ani_Avatar_NPC_PersonalRead01AS_0",
            "Ani_Avatar_NPC_PersonalRead01AS_Sync_0"
        ]
    },
    "stateAnimeMap": {
        "Ani_Avatar_NPC_Akimbo01BS_0": 17808563838262250903,
        "Ani_Avatar_NPC_Akimbo01BS_Sync_0": 13579643255496544800,
        "Ani_Avatar_NPC_Akimbo01Loop_0": 3698990100384912758,
        "Ani_Avatar_NPC_Akimbo01Loop_Sync_0": 6822464436131909050,
        "Ani_Avatar_NPC_Akimbo01AS_0": 17231282099813686918,
        "Ani_Avatar_NPC_Akimbo01AS_Sync_0": 627684474111269974,
        "Ani_Avatar_NPC_Backrake01BS_0": 10541301572794611904,
        "Ani_Avatar_NPC_Backrake01BS_Sync_0": 10402681864762613864,
        "Ani_Avatar_NPC_Backrake01Loop_0": 17851746432415068884,
        "Ani_Avatar_NPC_Backrake01Loop_Sync_0": 5757396759850415266,
        "Ani_Avatar_NPC_Backrake01AS_0": 15979133594291744427,
        "Ani_Avatar_NPC_Backrake01AS_Sync_0": 4029772279218384489,
        "Ani_Avatar_NPC_Confuse01BS_0": 16825985772937717983,
        "Ani_Avatar_NPC_Confuse01BS_Sync_0": 6000083615749448145,
        "Ani_Avatar_NPC_Confuse01Loop_0": 14322486160117559263,
        "Ani_Avatar_NPC_Confuse01Loop_Sync_0": 11554166332929216559,
        "Ani_Avatar_NPC_Confuse01AS_0": 5862776028816915474,
        "Ani_Avatar_NPC_Confuse01AS_Sync_0": 6296419378921004131,
        "Ani_Avatar_NPC_Forerake01BS_0": 10372470894623871992,
        "Ani_Avatar_NPC_Forerake01BS_Sync_0": 2443095589760273457,
        "Ani_Avatar_NPC_Forerake01Loop_0": 10944675270973061941,
        "Ani_Avatar_NPC_Forerake01Loop_Sync_0": 12206643161020878375,
        "Ani_Avatar_NPC_Forerake01AS_0": 1878485755215805895,
        "Ani_Avatar_NPC_Forerake01AS_Sync_0": 12447624860492881731,
        "Ani_Avatar_NPC_Afraid01BS_0": 5919571007522644361,
        "Ani_Avatar_NPC_Afraid01Loop_0": 16140323329418155251,
        "Ani_Avatar_NPC_Afraid01AS_0": 5108029159097340126,
        "Ani_Avatar_NPC_Alert01BS_0": 11947342516082398809,
        "Ani_Avatar_NPC_Alert01BS_Sync_0": 7856976281394916602,
        "Ani_Avatar_NPC_Alert01Loop_0": 7999215008345676699,
        "Ani_Avatar_NPC_Alert01Loop_Sync_0": 17134730780668251460,
        "Ani_Avatar_NPC_Alert01AS_0": 3093315304569279358,
        "Ani_Avatar_NPC_Alert01AS_Sync_0": 4596849718619568603,
        "Ani_Avatar_NPC_Shy01BS_0": 9961865173928422733,
        "Ani_Avatar_NPC_Shy01BS_Sync_0": 17351434203048993807,
        "Ani_Avatar_NPC_Shy01Loop_0": 4041581189663958796,
        "Ani_Avatar_NPC_Shy01Loop_Sync_0": 4447174097277305952,
        "Ani_Avatar_NPC_Shy01AS_0": 7649532895684221791,
        "Ani_Avatar_NPC_Shy01AS_Sync_0": 5566958320608454925,
        "Ani_Avatar_NPC_Shrug01BS_0": 16806136975575635866,
        "Ani_Avatar_NPC_Shrug01BS_Sync_0": 4027330554207176370,
        "Ani_Avatar_NPC_Shrug01Loop_0": 15451686239166989946,
        "Ani_Avatar_NPC_Shrug01Loop_Sync_0": 14444249342778674348,
        "Ani_Avatar_NPC_Shrug01AS_0": 16760501205338179306,
        "Ani_Avatar_NPC_Shrug01AS_Sync_0": 1087097342755207555,
        "Ani_Avatar_NPC_HoldArm01BS_0": 17093605301484238355,
        "Ani_Avatar_NPC_HoldArm01BS_Sync_0": 5888322046888257470,
        "Ani_Avatar_NPC_HoldArm01Loop_0": 6194030211062479584,
        "Ani_Avatar_NPC_HoldArm01Loop_Sync_0": 1055432738170557123,
        "Ani_Avatar_NPC_HoldArm01AS_0": 1813075382803065542,
        "Ani_Avatar_NPC_HoldArm01AS_Sync_0": 7637092468872321096,
        "Ani_Avatar_NPC_StrikeChest01BS_0": 14922601239525796892,
        "Ani_Avatar_NPC_StrikeChest01BS_Sync_0": 5031327302613506268,
        "Ani_Avatar_NPC_StrikeChest01Loop_0": 17650358728252941721,
        "Ani_Avatar_NPC_StrikeChest01Loop_Sync_0": 6599520265493740800,
        "Ani_Avatar_NPC_StrikeChest01AS_0": 16613496432812205125,
        "Ani_Avatar_NPC_StrikeChest01AS_Sync_0": 7910891797250542195,
        "Ani_Avatar_NPC_Refuse01_0": 5802797809675852601,
        "Ani_Avatar_NPC_Refuse01_Sync_0": 8717008588586669069,
        "Ani_Avatar_NPC_Downcast01BS_0": 3016140030360198665,
        "Ani_Avatar_NPC_Downcast01BS_Sync_0": 11863495195513238245,
        "Ani_Avatar_NPC_Downcast01AS_0": 16487625481055186522,
        "Ani_Avatar_NPC_Downcast01AS_Sync_0": 16526373962245536357,
        "Ani_Avatar_NPC_Downcast01Loop_0": 4517546540247200367,
        "Ani_Avatar_NPC_Downcast01Loop_Sync_0": 4072321820246119382,
        "Ani_Avatar_NPC_Chat01BS_0": 10544371832341776162,
        "Ani_Avatar_NPC_Chat01BS_Sync_0": 4834062377274479874,
        "Ani_Avatar_NPC_Chat01Loop_0": 17969213660672431327,
        "Ani_Avatar_NPC_Chat01Loop_Sync_0": 17495622254123371614,
        "Ani_Avatar_NPC_Chat01AS_0": 17332028244544208519,
        "Ani_Avatar_NPC_Chat01AS_Sync_0": 4151980290014369048,
        "Ani_Avatar_NPC_Chat02BS_0": 6193289113049372972,
        "Ani_Avatar_NPC_Chat02BS_Sync_0": 3781350008118405177,
        "Ani_Avatar_NPC_Chat02AS_0": 5618997472169333350,
        "Ani_Avatar_NPC_Chat02AS_Sync_0": 16243018505236275615,
        "Ani_Avatar_NPC_Chat02Loop_0": 13117115527499436123,
        "Ani_Avatar_NPC_Chat02Loop_Sync_0": 2208800758775329545,
        "Ani_Avatar_NPC_Think01BS_0": 10702816432768187363,
        "Ani_Avatar_NPC_Think01BS_Sync_0": 11302438219381099764,
        "Ani_Avatar_NPC_Think01Loop_0": 2129849238023720320,
        "Ani_Avatar_NPC_Think01Loop_Sync_0": 5138614800398782548,
        "Ani_Avatar_NPC_Think01AS_0": 2177979098496024738,
        "Ani_Avatar_NPC_Think01AS_Sync_0": 11229517638997909884,
        "Ani_Avatar_NPC_PointR01BS_0": 18338399901394187061,
        "Ani_Avatar_NPC_PointR01BS_Sync_0": 8266539600366138386,
        "Ani_Avatar_NPC_PointR01Loop_0": 17048663202693339122,
        "Ani_Avatar_NPC_PointR01Loop_Sync_0": 16481413736477276280,
        "Ani_Avatar_NPC_PointR01AS_0": 3960469674015953513,
        "Ani_Avatar_NPC_PointR01AS_Sync_0": 8117632729449299589,
        "Ani_Avatar_NPC_Greet01_0": 7820351069042579524,
        "Ani_Avatar_NPC_Greet01_Sync_0": 17633054478074963887,
        "Ani_Avatar_NPC_AkimboHand01BS_0": 4724428577586130788,
        "Ani_Avatar_NPC_AkimboHand01BS_Sync_0": 6382605908781180335,
        "Ani_Avatar_NPC_AkimboHand01Loop_0": 5382625325982941049,
        "Ani_Avatar_NPC_AkimboHand01Loop_Sync_0": 93780079802531233,
        "Ani_Avatar_NPC_AkimboHand01AS_0": 1290942189728818014,
        "Ani_Avatar_NPC_AkimboHand01AS_Sync_0": 8150861699278525733,
        "Ani_Avatar_NPC_Akimbo02BS_0": 3917820622504503976,
        "Ani_Avatar_NPC_Akimbo02BS_Sync_0": 11816840823353914611,
        "Ani_Avatar_NPC_Akimbo02Loop_0": 2830221956127583306,
        "Ani_Avatar_NPC_Akimbo02Loop_Sync_0": 2628787963641430900,
        "Ani_Avatar_NPC_Akimbo02AS_0": 14049918462833621321,
        "Ani_Avatar_NPC_Akimbo02AS_Sync_0": 3969548573605655139,
        "Ani_Avatar_NPC_HoldArmHand01BS_0": 461812467861540165,
        "Ani_Avatar_NPC_HoldArmHand01BS_Sync_0": 16300971627720221816,
        "Ani_Avatar_NPC_HoldArmHand01Loop_0": 5595527951911308988,
        "Ani_Avatar_NPC_HoldArmHand01Loop_Sync_0": 13799354609131332551,
        "Ani_Avatar_NPC_HoldArmHand01AS_0": 12548631340555500145,
        "Ani_Avatar_NPC_HoldArmHand01AS_Sync_0": 6914742218829842272,
        "Ani_Avatar_NPC_ThinkHand01BS_0": 3921681851626916138,
        "Ani_Avatar_NPC_ThinkHand01Loop_0": 10950933107933844262,
        "Ani_Avatar_NPC_ThinkHand01AS_0": 118426546131643651,
        "Ani_Avatar_NPC_AkimboHand02BS_0": 10667457411689929881,
        "Ani_Avatar_NPC_AkimboHand02BS_Sync_0": 8003159288091510729,
        "Ani_Avatar_NPC_AkimboHand02AS_0": 5438593478066181355,
        "Ani_Avatar_NPC_AkimboHand02AS_Sync_0": 11572829602808108385,
        "Ani_Avatar_NPC_AkimboHand02Loop_0": 1215253095530864433,
        "Ani_Avatar_NPC_AkimboHand02Loop_Sync_0": 15287372290743525567,
        "Ani_Avatar_NPC_SaluteMengde01BS_0": 16025055723338215473,
        "Ani_Avatar_NPC_HoldHead01BS_0": 3671211971999795114,
        "Ani_Avatar_NPC_HoldHead01BS_Sync_0": 15641939607511322596,
        "Ani_Avatar_NPC_HoldHead01Loop_0": 17513417648005269961,
        "Ani_Avatar_NPC_HoldHead01Loop_Sync_0": 7457291568084937874,
        "Ani_Avatar_NPC_HoldHead01AS_0": 16840336586170293822,
        "Ani_Avatar_NPC_HoldHead01AS_Sync_0": 4970376160375819308,
        "Ani_Avatar_NPC_PutHand01BS_0": 10708705061107342757,
        "Ani_Avatar_NPC_PutHand01BS_Sync_0": 9559460428893031784,
        "Ani_Avatar_NPC_PutHand01Loop_0": 3167276611893355623,
        "Ani_Avatar_NPC_PutHand01Loop_Sync_0": 4807326657508228893,
        "Ani_Avatar_NPC_PutHand01AS_0": 7863968327219607263,
        "Ani_Avatar_NPC_PutHand01AS_Sync_0": 7617572863381747907,
        "Ani_Avatar_NPC_SaluteMengde01Loop_0": 8041053879500403015,
        "Ani_Avatar_NPC_SaluteMengde01AS_0": 4070098330587948583,
        "Ani_Avatar_NPC_SitCrouch01BS_0": 16377650867527407991,
        "Ani_Avatar_NPC_SitCrouch01Loop_0": 2104335253519582698,
        "Ani_Avatar_NPC_SitCrouch01AS_0": 11422202999520014270,
        "Ani_Avatar_NPC_SitWrite01BS_0": 11685458251476772801,
        "Ani_Avatar_NPC_SitWrite01Loop_0": 5787887012403168987,
        "Ani_Avatar_NPC_SitWrite01AS_0": 2107246607652567887,
        "Ani_Avatar_NPC_PointF01BS_0": 1502068314405378117,
        "Ani_Avatar_NPC_PointF01BS_Sync_0": 3872903088394037725,
        "Ani_Avatar_NPC_PointF01Loop_0": 1930762153072332943,
        "Ani_Avatar_NPC_PointF01Loop_Sync_0": 9401303990671631233,
        "Ani_Avatar_NPC_PointF01AS_0": 6688215028527780726,
        "Ani_Avatar_NPC_PointF01AS_Sync_0": 16923639800856744518,
        "Ani_Avatar_NPC_PointL01AS_0": 12948180242273430091,
        "Ani_Avatar_NPC_PointL01AS_Sync_0": 5178638385732257107,
        "Ani_Avatar_NPC_PointL01Loop_0": 10812944103398014260,
        "Ani_Avatar_NPC_PointL01Loop_Sync_0": 14783415682850213852,
        "Ani_Avatar_NPC_PointL01BS_0": 5437460205690976927,
        "Ani_Avatar_NPC_PointL01BS_Sync_0": 15210673111292052789,
        "Ani_Avatar_NPC_Talk01_0": 9540975369266547718,
        "Ani_Avatar_NPC_Talk01_Sync_0": 12019184643254609539,
        "Ani_Avatar_NPC_Talk02_0": 6447496390808125435,
        "Ani_Avatar_NPC_Talk02_Sync_0": 14934427379792472896,
        "Ani_Avatar_NPC_Talk03_0": 2199872620430507824,
        "Ani_Avatar_NPC_Talk03_Sync_0": 14731365809145051835,
        "Ani_Avatar_NPC_Request01BS_0": 2826673581370689991,
        "Ani_Avatar_NPC_Request01Loop_0": 5633701326608576861,
        "Ani_Avatar_NPC_Request01AS_0": 6299310106475775042,
        "Ani_Avatar_NPC_Clap01_0": 2462539563624645565,
        "Ani_Avatar_NPC_Clap01_Sync_0": 9875013764895386325,
        "Ani_Avatar_NPC_Cheer01BS_0": 7850706655445033247,
        "Ani_Avatar_NPC_Cheer01Loop_0": 7944607208050787803,
        "Ani_Avatar_NPC_Cheer01AS_0": 6908818964935966017,
        "Ani_Avatar_NPC_Investigate01BS_0": 9183443271303046901,
        "Ani_Avatar_NPC_Investigate01BS_Sync_0": 6300001706433442927,
        "Ani_Avatar_NPC_Investigate01Loop_0": 8053637901786458385,
        "Ani_Avatar_NPC_Investigate01Loop_Sync_0": 4799556213823049937,
        "Ani_Avatar_NPC_Investigate01AS_0": 16883245911650572960,
        "Ani_Avatar_NPC_Investigate01AS_Sync_0": 18085863541359191931,
        "Ani_Avatar_NPC_Laugh01_0": 4763790946361231747,
        "Ani_Avatar_NPC_Laugh01_Sync_0": 152431936152960756,
        "Ani_Avatar_NPC_Encourage01_0": 4392172275753143126,
        "Ani_Avatar_NPC_Encourage01_Sync_0": 9603309524978383480,
        "Ani_Avatar_NPC_Dusting01_0": 16016546907284346176,
        "Ani_Avatar_NPC_Dusting01_Sync_0": 9737460952190650570,
        "Ani_Avatar_NPC_SitHoldArm01BS_0": 7203237215697025650,
        "Ani_Avatar_NPC_SitHoldArm01BS_Sync_0": 17309013161967364421,
        "Ani_Avatar_NPC_SitHoldArm01Loop_0": 1530863151218984108,
        "Ani_Avatar_NPC_SitHoldArm01Loop_Sync_0": 14071956604009302103,
        "Ani_Avatar_NPC_SitHoldArm01AS_0": 5032155922292631097,
        "Ani_Avatar_NPC_SitHoldArm01AS_Sync_0": 18130139515847420712,
        "Ani_Avatar_NPC_SitHoldArmHand01BS_0": 2697517464634689899,
        "Ani_Avatar_NPC_SitHoldArmHand01BS_Sync_0": 17430173962124444907,
        "Ani_Avatar_NPC_SitHoldArmHand01Loop_0": 7901661565080280533,
        "Ani_Avatar_NPC_SitHoldArmHand01Loop_Sync_0": 1273413437290468116,
        "Ani_Avatar_NPC_SitHoldArmHand01AS_0": 5099273143024645464,
        "Ani_Avatar_NPC_SitHoldArmHand01AS_Sync_0": 6473916348681294391,
        "Ani_Avatar_NPC_SitShrug01BS_0": 18012543257860463999,
        "Ani_Avatar_NPC_SitShrug01Loop_0": 7685905376183659032,
        "Ani_Avatar_NPC_SitShrug01AS_0": 8076551927708502423,
        "Ani_Avatar_NPC_SitThink01AS_0": 6342589349718439430,
        "Ani_Avatar_NPC_SitThink01AS_Sync_0": 12477245853051763113,
        "Ani_Avatar_NPC_SitThink01Loop_0": 3140317074149009586,
        "Ani_Avatar_NPC_SitThink01Loop_Sync_0": 9343304674811118038,
        "Ani_Avatar_NPC_SitThink01BS_0": 17971500871652460375,
        "Ani_Avatar_NPC_SitThink01BS_Sync_0": 1277131371930396243,
        "Ani_Avatar_NPC_SitChat01BS_0": 5703001016424349310,
        "Ani_Avatar_NPC_SitChat01BS_Sync_0": 12981924921380046669,
        "Ani_Avatar_NPC_SitChat01Loop_0": 6015520269550301143,
        "Ani_Avatar_NPC_SitChat01Loop_Sync_0": 13197297119121396502,
        "Ani_Avatar_NPC_SitChat01AS_0": 4599467693686570190,
        "Ani_Avatar_NPC_SitChat01AS_Sync_0": 4441473032295742330,
        "Ani_Avatar_NPC_SitPutArm01AS_0": 1534472885200781678,
        "Ani_Avatar_NPC_SitPutArm01Loop_0": 7488374744401222076,
        "Ani_Avatar_NPC_SitPutArm01BS_0": 5251557896352250162,
        "Ani_Avatar_Claymore_WeaponStandby_0": 18144611884920624643,
        "Ani_Avatar_Claymore_WeaponStandby_Sync_0": 7351767217304794988,
        "Ani_Avatar_Channel01BS_0": 17716834562657040573,
        "Ani_Avatar_Claymore_Channel01BS_Sync_0": 1640359077255299381,
        "Ani_Avatar_Channel01Loop_0": 4049080772741828837,
        "Ani_Avatar_Claymore_Channel01Loop_Sync_0": 10676681150160434545,
        "Ani_Avatar_Channel01AS_0": 14938924386977001243,
        "Ani_Avatar_Claymore_Channel01AS_Sync_0": 6876576690245926750,
        "Ani_Avatar_NPC_PersonalRead01BS_0": 4177112113144078247,
        "Ani_Avatar_NPC_PersonalRead01BS_Sync_0": 2264103752468566606,
        "Ani_Avatar_NPC_PersonalRead01AS_0": 6103553323604167264,
        "Ani_Avatar_NPC_PersonalRead01AS_Sync_0": 2213216652580031805,
        "Ani_Avatar_NPC_PersonalRead01Loop_0": 17759036613520653774,
        "Ani_Avatar_NPC_PersonalRead01Loop_Sync_0": 2958444966029155645
    }
}