{
    "JJKFKAPKIIJ": [
        {
            "name": "Character_Mona_Q_Golden",
            "ICOELPGMFCF": [
                {
                    "LJLEBFDEBMB": 0.699999988079071,
                    "actionGroups": [
                        {
                            "actions": [
                                {
                                    "$type": "GcgBehaviourSwitchGoldenLoopEffect",
                                    "JIAJMJKCNLK": {
                                        "target": "Actor"
                                    }
                                },
                                {
                                    "$type": "GcgBehaviourSwitchOnCardLoopEffect",
                                    "JIAJMJKCNLK": {
                                        "target": "Actor"
                                    }
                                },
                                {
                                    "$type": "GcgBehaviourTriggerSpineAttack",
                                    "JIAJMJKCNLK": {
                                        "target": "Actor"
                                    }
                                },
                                {
                                    "$type": "GcgBehaviourFireEffect",
                                    "JIAJMJKCNLK": {
                                        "target": "Actor"
                                    },
                                    "effectName": "Eff_Gcg_Avatar_Mona_ElementalBurst_Spine",
                                    "NMKDFBNKHKD": true,
                                    "AIBAIBAJHEC": "",
                                    "AAAEEDOMFKA": "",
                                    "NKACDLBOINI": {
                                        "$type": "GcgBornRotationFollow"
                                    }
                                }
                            ]
                        }
                    ]
                },
                {
                    "LJLEBFDEBMB": 0.4000000059604645,
                    "actionGroups": [
                        {
                            "actions": [
                                {
                                    "$type": "GcgBehaviourFireEffect",
                                    "JIAJMJKCNLK": {
                                        "target": "MainTarget"
                                    },
                                    "effectName": "Eff_Gcg_Avatar_Mona_ElementalBurst_Hit",
                                    "FACBNHPNPKC": {
                                        "y": 0.10000000149011612
                                    },
                                    "AIBAIBAJHEC": "",
                                    "AAAEEDOMFKA": "",
                                    "NKACDLBOINI": {
                                        "$type": "GcgBornRotationFollow"
                                    }
                                }
                            ]
                        }
                    ]
                },
                {
                    "LJLEBFDEBMB": 0.05000000074505806,
                    "actionGroups": [
                        {
                            "actions": [
                                {
                                    "$type": "GcgBehaviourTriggerAttack",
                                    "JIAJMJKCNLK": {
                                        "target": "MainTarget"
                                    }
                                },
                                {
                                    "$type": "GcgBehaviourShakeScreen",
                                    "JIAJMJKCNLK": {
                                        "target": "MainTarget"
                                    },
                                    "BBFAGKKJAIP": "Common_ShakeScreen_Test_Q"
                                }
                            ]
                        }
                    ]
                },
                {
                    "LJLEBFDEBMB": 1.850000023841858,
                    "actionGroups": [
                        {
                            "actions": [
                                {
                                    "$type": "GcgBehaviourFireEffect",
                                    "JIAJMJKCNLK": {
                                        "target": "Actor"
                                    },
                                    "effectName": "Eff_Gcg_Avatar_Mona_ElementalBurst_BS",
                                    "FACBNHPNPKC": {
                                        "y": 1.2000000476837158
                                    },
                                    "NMKDFBNKHKD": true,
                                    "AIBAIBAJHEC": "",
                                    "AAAEEDOMFKA": "",
                                    "NKACDLBOINI": {
                                        "$type": "GcgBornRotationFollow"
                                    }
                                }
                            ]
                        }
                    ]
                },
                {
                    "LJLEBFDEBMB": 0.029999999329447746,
                    "actionGroups": [
                        {
                            "actions": [
                                {
                                    "$type": "GcgBehaviourFireEffect",
                                    "JIAJMJKCNLK": {
                                        "target": "Actor"
                                    },
                                    "effectName": "Eff_Gcg_Common_Spine_ReturnToLoop",
                                    "NMKDFBNKHKD": true,
                                    "AIBAIBAJHEC": "",
                                    "AAAEEDOMFKA": "",
                                    "NKACDLBOINI": {
                                        "$type": "GcgBornRotationFollow"
                                    }
                                }
                            ]
                        }
                    ]
                },
                {
                    "actionGroups": [
                        {
                            "actions": [
                                {
                                    "$type": "GcgBehaviourSwitchGoldenLoopEffect",
                                    "JIAJMJKCNLK": {
                                        "target": "Actor"
                                    },
                                    "FCCFCBLDECD": true
                                },
                                {
                                    "$type": "GcgBehaviourSwitchOnCardLoopEffect",
                                    "JIAJMJKCNLK": {
                                        "target": "Actor"
                                    },
                                    "FCCFCBLDECD": true
                                }
                            ]
                        }
                    ]
                }
            ]
        }
    ]
}