{
    "id": 173,
    "stageMatureEvents": [
        "Play_amb_scene_Homeworld_Exterior_Sumeru"
    ],
    "stageExitEvents": [
        "Stop_amb_scene_Homeworld_Exterior_Sumeru",
        "State_Music_NonCombat"
    ],
    "stateValue": "State_Homeworld_Scene_XM",
    "MGPFCAPMBPF": {
        "text": "Play_Music_Scene"
    },
    "BHCLCBAJBPL": {
        "text": "Stop_Music_Scene"
    }
}