{
    "ConfigTheChasm": {
        "EAEGNAJBNKF": {
            "trackArea": {
                "$type": "ContextConditionAnd"
            }
        },
        "NLPCIOFILDH": {
            "updateArea": {
                "$type": "ContextActionExecuteAll",
                "actions": [
                    {
                        "$type": "ContextActionSetActive",
                        "PNKFDMBDKKL": "ButtonGoto",
                        "EIPEPGPBHCH": true
                    },
                    {
                        "$type": "ContextActionSetText",
                        "PNKFDMBDKKL": "ButtonGoto",
                        "textMap": "UI_ACTIVITY_THECHASM_GOTO"
                    }
                ]
            },
            "clickTrackArea": {
                "$type": "ContextActionExecuteAll",
                "actions": [
                    {
                        "$type": "ContextActionSelectTransPoint",
                        "IAMPPODHFNN": 442,
                        "sceneId": 3
                    },
                    {
                        "$type": "ContextActionReportActivityBuriedPoint",
                        "KNHOKGGDDIK": 5075,
                        "EBIJNPKNDEF": 2,
                        "IILHBDNDOJB": 5075001,
                        "MHKKEBJOGCL": ""
                    },
                    {
                        "$type": "ContextActionSetAnimatorTrigger",
                        "PNKFDMBDKKL": "Animator",
                        "NLAMBGMLCLP": "FadeOut",
                        "EDANBBGPBGG": true
                    }
                ]
            }
        },
        "NMFGMGHDGLF": [
            {
                "conditionName": "trackArea",
                "actionName": "updateArea"
            }
        ],
        "AIGGFMAMGMD": [
            {
                "conditionName": "trackArea",
                "actionName": "clickTrackArea"
            }
        ]
    }
}