{
    "name": "Char_Skill_32034",
    "MFDJLKBDGKB": {
        "227162220": {
            "$type": "GCGDeclaredValueEffectAmount",
            "type": "EffectNum",
            "value": 1
        },
        "-1197212178": {
            "$type": "GCGDeclaredValueEffectAmount",
            "type": "EffectNum",
            "value": 2
        }
    }
}