{
    "freeStyleStateMap": {
        "10100": [],
        "10101": [],
        "10201": [],
        "10301": [],
        "10401": [],
        "10501": [],
        "10601": [],
        "10701": [],
        "10801": [],
        "1231": [
            "Ani_Avatar_NPC_AkimboHand01BS_0",
            "Ani_Avatar_NPC_AkimboHand01BS_Sync_0",
            "Ani_Avatar_NPC_AkimboHand01Loop_0",
            "Ani_Avatar_NPC_AkimboHand01Loop_Sync_0",
            "Ani_Avatar_NPC_AkimboHand01AS_0",
            "Ani_Avatar_NPC_AkimboHand01AS_Sync_0",
            "Ani_Avatar_NPC_Akimbo01Loop_0",
            "Ani_Avatar_NPC_Akimbo01Loop_Sync_0",
            "Ani_Avatar_NPC_Akimbo01AS_0",
            "Ani_Avatar_NPC_Akimbo01AS_Sync_0"
        ],
        "1121": [
            "Ani_Avatar_NPC_HoldArmHand01BS_0",
            "Ani_Avatar_NPC_HoldArmHand01BS_Sync_0",
            "Ani_Avatar_NPC_HoldArmHand01Loop_0",
            "Ani_Avatar_NPC_HoldArmHand01Loop_Sync_0",
            "Ani_Avatar_NPC_HoldArmHand01AS_0",
            "Ani_Avatar_NPC_HoldArmHand01AS_Sync_0",
            "Ani_Avatar_NPC_HoldArm01Loop_0",
            "Ani_Avatar_NPC_HoldArm01Loop_Sync_0",
            "Ani_Avatar_NPC_HoldArm01AS_0",
            "Ani_Avatar_NPC_HoldArm01AS_Sync_0"
        ],
        "1191": [
            "Ani_Avatar_NPC_ThinkHand01BS_0",
            "Ani_Avatar_NPC_ThinkHand01BS_Sync_0",
            "Ani_Avatar_NPC_ThinkHand01Loop_0",
            "Ani_Avatar_NPC_ThinkHand01Loop_Sync_0",
            "Ani_Avatar_NPC_ThinkHand01AS_0",
            "Ani_Avatar_NPC_ThinkHand01AS_Sync_0",
            "Ani_Avatar_NPC_Think01Loop_0",
            "Ani_Avatar_NPC_Think01Loop_Sync_0",
            "Ani_Avatar_NPC_Think01AS_0",
            "Ani_Avatar_NPC_Think01AS_Sync_0"
        ],
        "1221": [
            "Ani_Avatar_NPC_AkimboHand02BS_0",
            "Ani_Avatar_NPC_AkimboHand02BS_Sync_0",
            "Ani_Avatar_NPC_AkimboHand02Loop_0",
            "Ani_Avatar_NPC_AkimboHand02Loop_Sync_0",
            "Ani_Avatar_NPC_AkimboHand02AS_0",
            "Ani_Avatar_NPC_AkimboHand02AS_Sync_0",
            "Ani_Avatar_NPC_Akimbo02Loop_0",
            "Ani_Avatar_NPC_Akimbo02Loop_Sync_0",
            "Ani_Avatar_NPC_Akimbo02AS_0",
            "Ani_Avatar_NPC_Akimbo02AS_Sync_0"
        ],
        "8040": [
            "Ani_Avatar_NPC_SitHoldArm01BS_0",
            "Ani_Avatar_NPC_SitHoldArm01BS_Sync_0",
            "Ani_Avatar_NPC_SitHoldArm01Loop_0",
            "Ani_Avatar_NPC_SitHoldArm01Loop_Sync_0",
            "Ani_Avatar_NPC_SitHoldArm01AS_0",
            "Ani_Avatar_NPC_SitHoldArm01AS_Sync_0"
        ],
        "8012": [
            "Ani_Avatar_NPC_SitShrug01BS_0",
            "Ani_Avatar_NPC_SitShrug01BS_Sync_0",
            "Ani_Avatar_NPC_SitShrug01Loop_0",
            "Ani_Avatar_NPC_SitShrug01Loop_Sync_0",
            "Ani_Avatar_NPC_SitShrug01AS_0",
            "Ani_Avatar_NPC_SitShrug01AS_Sync_0"
        ],
        "8013": [
            "Ani_Avatar_NPC_SitThink01BS_0",
            "Ani_Avatar_NPC_SitThink01BS_Sync_0",
            "Ani_Avatar_NPC_SitThink01Loop_0",
            "Ani_Avatar_NPC_SitThink01Loop_Sync_0",
            "Ani_Avatar_NPC_SitThink01AS_0",
            "Ani_Avatar_NPC_SitThink01AS_Sync_0"
        ],
        "8011": [
            "Ani_Avatar_NPC_SitChat01BS_0",
            "Ani_Avatar_NPC_SitChat01BS_Sync_0",
            "Ani_Avatar_NPC_SitChat01Loop_0",
            "Ani_Avatar_NPC_SitChat01Loop_Sync_0",
            "Ani_Avatar_NPC_SitChat01AS_0",
            "Ani_Avatar_NPC_SitChat01AS_Sync_0"
        ],
        "8060": [
            "Ani_Avatar_NPC_SitPutArm01BS_0",
            "Ani_Avatar_NPC_SitPutArm01Loop_0",
            "Ani_Avatar_NPC_SitPutArm01AS_0"
        ],
        "8066": [
            "Ani_Avatar_NPC_SitRead01BS_0",
            "Ani_Avatar_NPC_SitRead01Loop_0",
            "Ani_Avatar_NPC_SitRead01AS_0"
        ],
        "8041": [
            "Ani_Avatar_NPC_SitHoldArmHand01BS_0",
            "Ani_Avatar_NPC_SitHoldArmHand01Loop_0",
            "Ani_Avatar_NPC_SitHoldArmHand01AS_0",
            "Ani_Avatar_NPC_SitHoldArm01Loop_0",
            "Ani_Avatar_NPC_SitHoldArm01Loop_Sync_0",
            "Ani_Avatar_NPC_SitHoldArm01AS_0",
            "Ani_Avatar_NPC_SitHoldArm01AS_Sync_0"
        ],
        "1230": [
            "Ani_Avatar_NPC_Akimbo01BS_0",
            "Ani_Avatar_NPC_Akimbo01BS_Sync_0",
            "Ani_Avatar_NPC_Akimbo01Loop_0",
            "Ani_Avatar_NPC_Akimbo01Loop_Sync_0",
            "Ani_Avatar_NPC_Akimbo01AS_0",
            "Ani_Avatar_NPC_Akimbo01AS_Sync_0"
        ],
        "1040": [
            "Ani_Avatar_NPC_Backrake01BS_0",
            "Ani_Avatar_NPC_Backrake01BS_Sync_0",
            "Ani_Avatar_NPC_Backrake01Loop_0",
            "Ani_Avatar_NPC_Backrake01Loop_Sync_0",
            "Ani_Avatar_NPC_Backrake01AS_0",
            "Ani_Avatar_NPC_Backrake01AS_Sync_0"
        ],
        "1050": [
            "Ani_Avatar_NPC_Confuse01BS_0",
            "Ani_Avatar_NPC_Confuse01BS_Sync_0",
            "Ani_Avatar_NPC_Confuse01Loop_0",
            "Ani_Avatar_NPC_Confuse01Loop_Sync_0",
            "Ani_Avatar_NPC_Confuse01AS_0",
            "Ani_Avatar_NPC_Confuse01AS_Sync_0"
        ],
        "1060": [
            "Ani_Avatar_NPC_Forerake01BS_0",
            "Ani_Avatar_NPC_Forerake01BS_Sync_0",
            "Ani_Avatar_NPC_Forerake01Loop_0",
            "Ani_Avatar_NPC_Forerake01Loop_Sync_0",
            "Ani_Avatar_NPC_Forerake01AS_0",
            "Ani_Avatar_NPC_Forerake01AS_Sync_0"
        ],
        "1070": [
            "Ani_Avatar_NPC_Afraid01BS_0",
            "Ani_Avatar_NPC_Afraid01BS_Sync_0",
            "Ani_Avatar_NPC_Afraid01Loop_0",
            "Ani_Avatar_NPC_Afraid01Loop_Sync_0",
            "Ani_Avatar_NPC_Afraid01AS_0",
            "Ani_Avatar_NPC_Afraid01AS_Sync_0"
        ],
        "1080": [
            "Ani_Avatar_NPC_Alert01BS_0",
            "Ani_Avatar_NPC_Alert01BS_Sync_0",
            "Ani_Avatar_NPC_Alert01Loop_0",
            "Ani_Avatar_NPC_Alert01Loop_Sync_0",
            "Ani_Avatar_NPC_Alert01AS_0",
            "Ani_Avatar_NPC_Alert01AS_Sync_0"
        ],
        "1090": [
            "Ani_Avatar_NPC_Shy01BS_0",
            "Ani_Avatar_NPC_Shy01BS_Sync_0",
            "Ani_Avatar_NPC_Shy01Loop_0",
            "Ani_Avatar_NPC_Shy01Loop_Sync_0",
            "Ani_Avatar_NPC_Shy01AS_0",
            "Ani_Avatar_NPC_Shy01AS_Sync_0"
        ],
        "1110": [
            "Ani_Avatar_NPC_Shrug01BS_0",
            "Ani_Avatar_NPC_Shrug01BS_Sync_0",
            "Ani_Avatar_NPC_Shrug01Loop_0",
            "Ani_Avatar_NPC_Shrug01Loop_Sync_0",
            "Ani_Avatar_NPC_Shrug01AS_0",
            "Ani_Avatar_NPC_Shrug01AS_Sync_0"
        ],
        "1120": [
            "Ani_Avatar_NPC_HoldArm01BS_0",
            "Ani_Avatar_NPC_HoldArm01BS_Sync_0",
            "Ani_Avatar_NPC_HoldArm01Loop_0",
            "Ani_Avatar_NPC_HoldArm01Loop_Sync_0",
            "Ani_Avatar_NPC_HoldArm01AS_0",
            "Ani_Avatar_NPC_HoldArm01AS_Sync_0"
        ],
        "1130": [
            "Ani_Avatar_NPC_StrikeChest01BS_0",
            "Ani_Avatar_NPC_StrikeChest01BS_Sync_0",
            "Ani_Avatar_NPC_StrikeChest01Loop_0",
            "Ani_Avatar_NPC_StrikeChest01Loop_Sync_0",
            "Ani_Avatar_NPC_StrikeChest01AS_0",
            "Ani_Avatar_NPC_StrikeChest01AS_Sync_0"
        ],
        "1140": [
            "Ani_Avatar_NPC_PointR01BS_0",
            "Ani_Avatar_NPC_PointR01BS_Sync_0",
            "Ani_Avatar_NPC_PointR01Loop_0",
            "Ani_Avatar_NPC_PointR01Loop_Sync_0",
            "Ani_Avatar_NPC_PointR01AS_0",
            "Ani_Avatar_NPC_PointR01AS_Sync_0"
        ],
        "1160": [
            "Ani_Avatar_NPC_Downcast01BS_0",
            "Ani_Avatar_NPC_Downcast01BS_Sync_0",
            "Ani_Avatar_NPC_Downcast01Loop_0",
            "Ani_Avatar_NPC_Downcast01Loop_Sync_0",
            "Ani_Avatar_NPC_Downcast01AS_0",
            "Ani_Avatar_NPC_Downcast01AS_Sync_0"
        ],
        "1170": [
            "Ani_Avatar_NPC_Chat01BS_0",
            "Ani_Avatar_NPC_Chat01Loop_0",
            "Ani_Avatar_NPC_Chat01AS_0"
        ],
        "1180": [
            "Ani_Avatar_NPC_Chat02BS_0",
            "Ani_Avatar_NPC_Chat02Loop_0",
            "Ani_Avatar_NPC_Chat02AS_0"
        ],
        "1190": [
            "Ani_Avatar_NPC_Think01BS_0",
            "Ani_Avatar_NPC_Think01BS_Sync_0",
            "Ani_Avatar_NPC_Think01Loop_0",
            "Ani_Avatar_NPC_Think01Loop_Sync_0",
            "Ani_Avatar_NPC_Think01AS_0",
            "Ani_Avatar_NPC_Think01AS_Sync_0"
        ],
        "9030": [],
        "9040": [],
        "1200": [
            "Ani_Avatar_NPC_Greet01_0",
            "Ani_Avatar_NPC_Greet01_Sync_0"
        ],
        "1220": [
            "Ani_Avatar_NPC_Akimbo02BS_0",
            "Ani_Avatar_NPC_Akimbo02BS_Sync_0",
            "Ani_Avatar_NPC_Akimbo02Loop_0",
            "Ani_Avatar_NPC_Akimbo02Loop_Sync_0",
            "Ani_Avatar_NPC_Akimbo02AS_0",
            "Ani_Avatar_NPC_Akimbo02AS_Sync_0"
        ],
        "1210": [
            "Ani_Avatar_NPC_SaluteMengde01BS_0",
            "Ani_Avatar_NPC_SaluteMengde01Loop_0",
            "Ani_Avatar_NPC_SaluteMengde01AS_0"
        ],
        "1240": [
            "Ani_Avatar_NPC_HoldHead01BS_0",
            "Ani_Avatar_NPC_HoldHead01BS_Sync_0",
            "Ani_Avatar_NPC_HoldHead01Loop_0",
            "Ani_Avatar_NPC_HoldHead01Loop_Sync_0",
            "Ani_Avatar_NPC_HoldHead01AS_0",
            "Ani_Avatar_NPC_HoldHead01AS_Sync_0"
        ],
        "1030": [
            "Ani_Avatar_NPC_PutHand01BS_0",
            "Ani_Avatar_NPC_PutHand01BS_Sync_0",
            "Ani_Avatar_NPC_PutHand01Loop_0",
            "Ani_Avatar_NPC_PutHand01Loop_Sync_0",
            "Ani_Avatar_NPC_PutHand01AS_0",
            "Ani_Avatar_NPC_PutHand01AS_Sync_0"
        ],
        "8010": [],
        "8020": [],
        "1142": [
            "Ani_Avatar_NPC_PointL01BS_0",
            "Ani_Avatar_NPC_PointL01BS_Sync_0",
            "Ani_Avatar_NPC_PointL01Loop_0",
            "Ani_Avatar_NPC_PointL01Loop_Sync_0",
            "Ani_Avatar_NPC_PointL01AS_0",
            "Ani_Avatar_NPC_PointL01AS_Sync_0"
        ],
        "1150": [
            "Ani_Avatar_NPC_Refuse01_0",
            "Ani_Avatar_NPC_Refuse01_Sync_0"
        ],
        "1171": [
            "Ani_Avatar_NPC_Talk01_0",
            "Ani_Avatar_NPC_Talk01_Sync_0"
        ],
        "1172": [
            "Ani_Avatar_NPC_Talk02_0",
            "Ani_Avatar_NPC_Talk02_Sync_0"
        ],
        "1173": [
            "Ani_Avatar_NPC_Talk03_0",
            "Ani_Avatar_NPC_Talk03_Sync_0"
        ],
        "1250": [
            "Ani_Avatar_NPC_Request01BS_0",
            "Ani_Avatar_NPC_Request01BS_Sync_0",
            "Ani_Avatar_NPC_Request01Loop_0",
            "Ani_Avatar_NPC_Request01Loop_Sync_0",
            "Ani_Avatar_NPC_Request01AS_0",
            "Ani_Avatar_NPC_Request01AS_Sync_0"
        ],
        "1141": [
            "Ani_Avatar_NPC_PointF01BS_0",
            "Ani_Avatar_NPC_PointF01BS_Sync_0",
            "Ani_Avatar_NPC_PointF01Loop_0",
            "Ani_Avatar_NPC_PointF01Loop_Sync_0",
            "Ani_Avatar_NPC_PointF01AS_0",
            "Ani_Avatar_NPC_PointF01AS_Sync_0"
        ],
        "1260": [
            "Ani_Avatar_NPC_Clap01_0",
            "Ani_Avatar_NPC_Clap01_Sync_0"
        ],
        "1270": [
            "Ani_Avatar_NPC_Cheer01BS_0",
            "Ani_Avatar_NPC_Cheer01BS_Sync_0",
            "Ani_Avatar_NPC_Cheer01Loop_0",
            "Ani_Avatar_NPC_Cheer01Loop_Sync_0",
            "Ani_Avatar_NPC_Cheer01AS_0",
            "Ani_Avatar_NPC_Cheer01AS_Sync_0"
        ],
        "1280": [
            "Ani_Avatar_NPC_Investigate01BS_0",
            "Ani_Avatar_NPC_Investigate01BS_Sync_0",
            "Ani_Avatar_NPC_Investigate01Loop_0",
            "Ani_Avatar_NPC_Investigate01Loop_Sync_0",
            "Ani_Avatar_NPC_Investigate01AS_0",
            "Ani_Avatar_NPC_Investigate01AS_Sync_0"
        ],
        "1290": [
            "Ani_Avatar_NPC_Laugh01_0",
            "Ani_Avatar_NPC_Laugh01_Sync_0"
        ],
        "1300": [
            "Ani_Avatar_NPC_Encourage01_0",
            "Ani_Avatar_NPC_Encourage01_Sync_0"
        ],
        "1310": [
            "Ani_Avatar_NPC_Dusting01_0"
        ],
        "1342": [
            "Ani_Avatar_Channel01BS_0",
            "Ani_Avatar_Channel01Loop_0",
            "Ani_Avatar_Channel01AS_0"
        ]
    },
    "stateAnimeMap": {
        "Ani_Avatar_NPC_Akimbo01BS_0": 7170561056457563112,
        "Ani_Avatar_NPC_Akimbo01BS_Sync_0": 8803566745090230302,
        "Ani_Avatar_NPC_Akimbo01Loop_0": 28105177174861180,
        "Ani_Avatar_NPC_Akimbo01Loop_Sync_0": 11144023951987507040,
        "Ani_Avatar_NPC_Akimbo01AS_0": 5096274102340706692,
        "Ani_Avatar_NPC_Akimbo01AS_Sync_0": 17014795553012265143,
        "Ani_Avatar_NPC_Backrake01BS_0": 3716113960799457317,
        "Ani_Avatar_NPC_Backrake01BS_Sync_0": 15713305748243205028,
        "Ani_Avatar_NPC_Backrake01Loop_0": 5163346185393345159,
        "Ani_Avatar_NPC_Backrake01Loop_Sync_0": 8686622339788997561,
        "Ani_Avatar_NPC_Backrake01AS_0": 14866594958902827923,
        "Ani_Avatar_NPC_Backrake01AS_Sync_0": 9550900200278678829,
        "Ani_Avatar_NPC_Confuse01BS_0": 12903944942122590194,
        "Ani_Avatar_NPC_Confuse01BS_Sync_0": 12277048239438078990,
        "Ani_Avatar_NPC_Confuse01Loop_0": 4490850424240705685,
        "Ani_Avatar_NPC_Confuse01Loop_Sync_0": 8458696455360395779,
        "Ani_Avatar_NPC_Confuse01AS_0": 9107516294779088147,
        "Ani_Avatar_NPC_Confuse01AS_Sync_0": 787792409603330982,
        "Ani_Avatar_NPC_Forerake01BS_0": 3635045794910836661,
        "Ani_Avatar_NPC_Forerake01BS_Sync_0": 8992418781253311457,
        "Ani_Avatar_NPC_Forerake01Loop_0": 17764409357293257469,
        "Ani_Avatar_NPC_Forerake01Loop_Sync_0": 12708098052309824687,
        "Ani_Avatar_NPC_Forerake01AS_0": 17889237588158039636,
        "Ani_Avatar_NPC_Forerake01AS_Sync_0": 4894629558177441357,
        "Ani_Avatar_NPC_Afraid01BS_0": 14327196935207323701,
        "Ani_Avatar_NPC_Afraid01BS_Sync_0": 8892520175998193775,
        "Ani_Avatar_NPC_Afraid01Loop_0": 8181452246441218403,
        "Ani_Avatar_NPC_Afraid01Loop_Sync_0": 12885978540804310366,
        "Ani_Avatar_NPC_Afraid01AS_0": 13251841029804636759,
        "Ani_Avatar_NPC_Afraid01AS_Sync_0": 3460862807462640891,
        "Ani_Avatar_NPC_Alert01BS_0": 9737739488219544636,
        "Ani_Avatar_NPC_Alert01BS_Sync_0": 8680199371030119525,
        "Ani_Avatar_NPC_Alert01Loop_0": 10827431483677887456,
        "Ani_Avatar_NPC_Alert01Loop_Sync_0": 14770563312781032955,
        "Ani_Avatar_NPC_Alert01AS_0": 8769202871165872477,
        "Ani_Avatar_NPC_Alert01AS_Sync_0": 14118238422393788122,
        "Ani_Avatar_NPC_Shy01BS_0": 3496475870786645860,
        "Ani_Avatar_NPC_Shy01BS_Sync_0": 8490905180484929978,
        "Ani_Avatar_NPC_Shy01Loop_0": 8185526891832290405,
        "Ani_Avatar_NPC_Shy01Loop_Sync_0": 6919144972632227193,
        "Ani_Avatar_NPC_Shy01AS_0": 6069781583774030399,
        "Ani_Avatar_NPC_Shy01AS_Sync_0": 8391735030872648635,
        "Ani_Avatar_NPC_Shrug01BS_0": 948948505767802488,
        "Ani_Avatar_NPC_Shrug01BS_Sync_0": 13360474861900436330,
        "Ani_Avatar_NPC_Shrug01Loop_0": 826813790150180883,
        "Ani_Avatar_NPC_Shrug01Loop_Sync_0": 8984544666270228615,
        "Ani_Avatar_NPC_Shrug01AS_0": 10099021340293521813,
        "Ani_Avatar_NPC_Shrug01AS_Sync_0": 14059069979229880636,
        "Ani_Avatar_NPC_HoldArm01BS_0": 149410338178805922,
        "Ani_Avatar_NPC_HoldArm01BS_Sync_0": 5061232713695448050,
        "Ani_Avatar_NPC_HoldArm01Loop_0": 15908973743345176773,
        "Ani_Avatar_NPC_HoldArm01Loop_Sync_0": 16288782862326387144,
        "Ani_Avatar_NPC_HoldArm01AS_0": 9427185590862728821,
        "Ani_Avatar_NPC_HoldArm01AS_Sync_0": 12355865138342254133,
        "Ani_Avatar_NPC_StrikeChest01BS_0": 1909632418817671545,
        "Ani_Avatar_NPC_StrikeChest01BS_Sync_0": 10229930273937720251,
        "Ani_Avatar_NPC_StrikeChest01Loop_0": 8742129497219637499,
        "Ani_Avatar_NPC_StrikeChest01Loop_Sync_0": 15952886135367952948,
        "Ani_Avatar_NPC_StrikeChest01AS_0": 4214378326159682627,
        "Ani_Avatar_NPC_StrikeChest01AS_Sync_0": 8268127429706107767,
        "Ani_Avatar_NPC_PointR01BS_0": 14869295281824533958,
        "Ani_Avatar_NPC_PointR01BS_Sync_0": 4132514502611165128,
        "Ani_Avatar_NPC_PointR01Loop_0": 1052410777437668909,
        "Ani_Avatar_NPC_PointR01Loop_Sync_0": 6583775632434135593,
        "Ani_Avatar_NPC_PointR01AS_0": 1884575597880894811,
        "Ani_Avatar_NPC_PointR01AS_Sync_0": 11613251609120873491,
        "Ani_Avatar_NPC_Downcast01BS_0": 13648720498986149560,
        "Ani_Avatar_NPC_Downcast01BS_Sync_0": 15194232228641300139,
        "Ani_Avatar_NPC_Downcast01Loop_0": 11149516742491375101,
        "Ani_Avatar_NPC_Downcast01Loop_Sync_0": 7416047073273035226,
        "Ani_Avatar_NPC_Downcast01AS_0": 368493915874238960,
        "Ani_Avatar_NPC_Downcast01AS_Sync_0": 17120668657833280567,
        "Ani_Avatar_NPC_Chat01BS_0": 17158896574457923831,
        "Ani_Avatar_NPC_Chat01Loop_0": 13422523195793756536,
        "Ani_Avatar_NPC_Chat01AS_0": 1467453189409912035,
        "Ani_Avatar_NPC_Chat02BS_0": 5757270846917587464,
        "Ani_Avatar_NPC_Chat02Loop_0": 13558395712417551113,
        "Ani_Avatar_NPC_Chat02AS_0": 8805753145230277354,
        "Ani_Avatar_NPC_Think01BS_0": 8031951918318590684,
        "Ani_Avatar_NPC_Think01BS_Sync_0": 6138544321214991228,
        "Ani_Avatar_NPC_Think01Loop_0": 1697591378693258012,
        "Ani_Avatar_NPC_Think01Loop_Sync_0": 11381505837056540968,
        "Ani_Avatar_NPC_Think01AS_0": 9122294348488362805,
        "Ani_Avatar_NPC_Think01AS_Sync_0": 2698950561289027686,
        "Ani_Avatar_NPC_Greet01_0": 5221332120018759625,
        "Ani_Avatar_NPC_Greet01_Sync_0": 12346138739628603646,
        "Ani_Avatar_NPC_AkimboHand01BS_0": 470324415574860620,
        "Ani_Avatar_NPC_AkimboHand01BS_Sync_0": 6514553841206477597,
        "Ani_Avatar_NPC_AkimboHand01Loop_0": 11145165109955621359,
        "Ani_Avatar_NPC_AkimboHand01Loop_Sync_0": 12907081510733137807,
        "Ani_Avatar_NPC_AkimboHand01AS_0": 14952030525545612958,
        "Ani_Avatar_NPC_AkimboHand01AS_Sync_0": 8195934158647357020,
        "Ani_Avatar_NPC_Akimbo02BS_0": 2651803249306857227,
        "Ani_Avatar_NPC_Akimbo02BS_Sync_0": 85853494760196492,
        "Ani_Avatar_NPC_Akimbo02Loop_0": 8467238733242256264,
        "Ani_Avatar_NPC_Akimbo02Loop_Sync_0": 8676324858799859692,
        "Ani_Avatar_NPC_Akimbo02AS_0": 11772972481829928173,
        "Ani_Avatar_NPC_Akimbo02AS_Sync_0": 3877730577494748095,
        "Ani_Avatar_NPC_HoldArmHand01BS_0": 16518600584126587833,
        "Ani_Avatar_NPC_HoldArmHand01BS_Sync_0": 379720303066400298,
        "Ani_Avatar_NPC_HoldArmHand01Loop_0": 4730051137571469122,
        "Ani_Avatar_NPC_HoldArmHand01Loop_Sync_0": 9437226246218870977,
        "Ani_Avatar_NPC_HoldArmHand01AS_0": 9336885681574059245,
        "Ani_Avatar_NPC_HoldArmHand01AS_Sync_0": 1350869680412132058,
        "Ani_Avatar_NPC_ThinkHand01BS_0": 4520193562327621740,
        "Ani_Avatar_NPC_ThinkHand01BS_Sync_0": 801511003794151946,
        "Ani_Avatar_NPC_ThinkHand01Loop_0": 4685591793458092770,
        "Ani_Avatar_NPC_ThinkHand01Loop_Sync_0": 63475535602377819,
        "Ani_Avatar_NPC_ThinkHand01AS_0": 1232463843505178630,
        "Ani_Avatar_NPC_ThinkHand01AS_Sync_0": 13463895531948497450,
        "Ani_Avatar_NPC_AkimboHand02BS_0": 1611513443005390211,
        "Ani_Avatar_NPC_AkimboHand02BS_Sync_0": 8754968913168959789,
        "Ani_Avatar_NPC_AkimboHand02AS_0": 7872345205474002691,
        "Ani_Avatar_NPC_AkimboHand02AS_Sync_0": 17139887735261238814,
        "Ani_Avatar_NPC_AkimboHand02Loop_0": 8714413725760737032,
        "Ani_Avatar_NPC_AkimboHand02Loop_Sync_0": 13093393623348394732,
        "Ani_Avatar_NPC_SaluteMengde01BS_0": 4089873108114987838,
        "Ani_Avatar_NPC_HoldHead01BS_0": 1023649425259361352,
        "Ani_Avatar_NPC_HoldHead01BS_Sync_0": 5387931580800501680,
        "Ani_Avatar_NPC_HoldHead01Loop_0": 1028943737652066823,
        "Ani_Avatar_NPC_HoldHead01Loop_Sync_0": 14182026710609951381,
        "Ani_Avatar_NPC_HoldHead01AS_0": 7837424032646610710,
        "Ani_Avatar_NPC_HoldHead01AS_Sync_0": 11362721527416382675,
        "Ani_Avatar_NPC_PutHand01BS_0": 16527144681778013178,
        "Ani_Avatar_NPC_PutHand01BS_Sync_0": 5247918162197836158,
        "Ani_Avatar_NPC_PutHand01Loop_0": 993409251386459405,
        "Ani_Avatar_NPC_PutHand01Loop_Sync_0": 15311115720836022726,
        "Ani_Avatar_NPC_PutHand01AS_0": 2818938040188307726,
        "Ani_Avatar_NPC_PutHand01AS_Sync_0": 3165541413878053218,
        "Ani_Avatar_NPC_SaluteMengde01Loop_0": 5102257562538352003,
        "Ani_Avatar_NPC_SaluteMengde01AS_0": 12910649759341312920,
        "Ani_Avatar_NPC_PointF01BS_0": 15576368258137814558,
        "Ani_Avatar_NPC_PointF01BS_Sync_0": 6041238473824868959,
        "Ani_Avatar_NPC_PointF01Loop_0": 1712291104573849836,
        "Ani_Avatar_NPC_PointF01Loop_Sync_0": 5419669972329779106,
        "Ani_Avatar_NPC_PointF01AS_0": 11880326032671776594,
        "Ani_Avatar_NPC_PointF01AS_Sync_0": 14134556223127135943,
        "Ani_Avatar_NPC_PointL01AS_0": 15197588262710047716,
        "Ani_Avatar_NPC_PointL01AS_Sync_0": 5739340041786585252,
        "Ani_Avatar_NPC_PointL01Loop_0": 10133726658243780334,
        "Ani_Avatar_NPC_PointL01Loop_Sync_0": 10315822147796092028,
        "Ani_Avatar_NPC_PointL01BS_0": 11897655131193051710,
        "Ani_Avatar_NPC_PointL01BS_Sync_0": 8489364257892146932,
        "Ani_Avatar_NPC_Refuse01_0": 14862295362699290410,
        "Ani_Avatar_NPC_Refuse01_Sync_0": 7407680115427011508,
        "Ani_Avatar_NPC_Talk01_0": 6790157231851488297,
        "Ani_Avatar_NPC_Talk01_Sync_0": 10669619706289426443,
        "Ani_Avatar_NPC_Talk02_0": 18028788832485002585,
        "Ani_Avatar_NPC_Talk02_Sync_0": 13729782123470073622,
        "Ani_Avatar_NPC_Talk03_0": 14561760082592094158,
        "Ani_Avatar_NPC_Talk03_Sync_0": 6479479751630559187,
        "Ani_Avatar_NPC_Request01BS_0": 1645911422758139498,
        "Ani_Avatar_NPC_Request01BS_Sync_0": 16674449180218280231,
        "Ani_Avatar_NPC_Request01Loop_0": 13054578888778993295,
        "Ani_Avatar_NPC_Request01Loop_Sync_0": 282060857887851003,
        "Ani_Avatar_NPC_Request01AS_0": 16943343831829181130,
        "Ani_Avatar_NPC_Request01AS_Sync_0": 17809891281446143919,
        "Ani_Avatar_NPC_Clap01_0": 10837897357635882994,
        "Ani_Avatar_NPC_Clap01_Sync_0": 9916222933686469412,
        "Ani_Avatar_NPC_Cheer01BS_0": 9919632557245268380,
        "Ani_Avatar_NPC_Cheer01BS_Sync_0": 9533913603324246287,
        "Ani_Avatar_NPC_Cheer01Loop_0": 4504541070587991229,
        "Ani_Avatar_NPC_Cheer01Loop_Sync_0": 14245273654069791128,
        "Ani_Avatar_NPC_Cheer01AS_0": 11365935788967547977,
        "Ani_Avatar_NPC_Cheer01AS_Sync_0": 17481870818063672824,
        "Ani_Avatar_NPC_Investigate01BS_0": 13109909550193364192,
        "Ani_Avatar_NPC_Investigate01BS_Sync_0": 4813867952637985715,
        "Ani_Avatar_NPC_Investigate01Loop_0": 17975078262446710472,
        "Ani_Avatar_NPC_Investigate01Loop_Sync_0": 16325769361007483829,
        "Ani_Avatar_NPC_Investigate01AS_0": 14093983267067344147,
        "Ani_Avatar_NPC_Investigate01AS_Sync_0": 2288882108282841469,
        "Ani_Avatar_NPC_Laugh01_0": 2464960071123391090,
        "Ani_Avatar_NPC_Laugh01_Sync_0": 52629029599674731,
        "Ani_Avatar_NPC_Encourage01_0": 2041834854010035548,
        "Ani_Avatar_NPC_Encourage01_Sync_0": 1548894340345310764,
        "Ani_Avatar_NPC_Dusting01_0": 8817864504632608220,
        "Ani_Avatar_NPC_SitHoldArm01Loop_0": 533099280387179377,
        "Ani_Avatar_NPC_SitHoldArm01Loop_Sync_0": 13232080158949775596,
        "Ani_Avatar_NPC_SitHoldArm01AS_0": 26584731767543147,
        "Ani_Avatar_NPC_SitHoldArm01AS_Sync_0": 12026089288226427397,
        "Ani_Avatar_NPC_SitHoldArmHand01AS_0": 6000162104205733943,
        "Ani_Avatar_NPC_SitHoldArmHand01BS_0": 13310495112791934496,
        "Ani_Avatar_NPC_SitHoldArmHand01Loop_0": 16556311444396228428,
        "Ani_Avatar_NPC_SitHoldArm01BS_0": 6407953465256279547,
        "Ani_Avatar_NPC_SitHoldArm01BS_Sync_0": 17096687374709418113,
        "Ani_Avatar_NPC_SitShrug01BS_0": 27110369804128622,
        "Ani_Avatar_NPC_SitShrug01BS_Sync_0": 5554392410048086982,
        "Ani_Avatar_NPC_SitShrug01Loop_0": 3950658360970801442,
        "Ani_Avatar_NPC_SitShrug01Loop_Sync_0": 14028925078328998131,
        "Ani_Avatar_NPC_SitShrug01AS_0": 10650347659011988711,
        "Ani_Avatar_NPC_SitShrug01AS_Sync_0": 13785942952995415258,
        "Ani_Avatar_NPC_SitThink01AS_0": 11731416370684395936,
        "Ani_Avatar_NPC_SitThink01AS_Sync_0": 4721454137826330981,
        "Ani_Avatar_NPC_SitThink01Loop_0": 3627997034186050400,
        "Ani_Avatar_NPC_SitThink01Loop_Sync_0": 1281618306927476613,
        "Ani_Avatar_NPC_SitThink01BS_0": 13591139315613617186,
        "Ani_Avatar_NPC_SitThink01BS_Sync_0": 5418595990750936984,
        "Ani_Avatar_NPC_SitChat01AS_0": 14267715484740818284,
        "Ani_Avatar_NPC_SitChat01AS_Sync_0": 13725431829704315676,
        "Ani_Avatar_NPC_SitChat01Loop_0": 14718282956958995209,
        "Ani_Avatar_NPC_SitChat01Loop_Sync_0": 12456255981484708322,
        "Ani_Avatar_NPC_SitChat01BS_0": 14105994822988134263,
        "Ani_Avatar_NPC_SitChat01BS_Sync_0": 10765278487008916933,
        "Ani_Avatar_NPC_SitPutArm01Loop_0": 12754724109657480339,
        "Ani_Avatar_NPC_SitPutArm01BS_0": 12040190075069621363,
        "Ani_Avatar_NPC_SitPutArm01AS_0": 1900297136491637605,
        "Ani_Avatar_Channel01BS_0": 2628927984490844395,
        "Ani_Avatar_Channel01Loop_0": 6540027059946884541,
        "Ani_Avatar_Channel01AS_0": 18210409694960203800,
        "Ani_Avatar_NPC_SitRead01BS_0": 2479100973321980390,
        "Ani_Avatar_NPC_SitRead01AS_0": 7977139972023822309,
        "Ani_Avatar_NPC_SitRead01Loop_0": 6254961380816385770
    }
}