{
    "ConfigHoundPlanelurker": {
        "EAEGNAJBNKF": {
            "locked": {
                "$type": "ContextConditionAnd",
                "CLKLMECBJNH": [
                    {
                        "$type": "ContextConditionMainQuestVisible",
                        "JGLKIPHPAGM": 2013
                    },
                    {
                        "$type": "ContextConditionNot",
                        "condition": {
                            "$type": "ContextConditionMainQuestState",
                            "JGLKIPHPAGM": 2013,
                            "state": "QUEST_STATE_FINISHED"
                        }
                    }
                ]
            },
            "trackQuest": {
                "$type": "ContextConditionMainQuestVisible",
                "JGLKIPHPAGM": 2013,
                "visible": true
            },
            "trackMonster": {
                "$type": "ContextConditionMainQuestState",
                "JGLKIPHPAGM": 2013,
                "state": "QUEST_STATE_FINISHED"
            }
        },
        "NLPCIOFILDH": {
            "updateLocked": {
                "$type": "ContextActionExecuteAll",
                "actions": [
                    {
                        "$type": "ContextActionSetActive",
                        "PNKFDMBDKKL": "UnlockTips",
                        "EIPEPGPBHCH": true
                    },
                    {
                        "$type": "ContextActionSetActive",
                        "PNKFDMBDKKL": "ButtonGoto"
                    },
                    {
                        "$type": "ContextActionSetTextWithMainQuestName",
                        "PNKFDMBDKKL": "UnlockTips",
                        "textMap": "UI_ACTIVITY_MONSTER_KING_UNLOCK_TIPS",
                        "JGLKIPHPAGM": 2013
                    }
                ]
            },
            "updateTrackQuest": {
                "$type": "ContextActionExecuteAll",
                "actions": [
                    {
                        "$type": "ContextActionSetActive",
                        "PNKFDMBDKKL": "UnlockTips"
                    },
                    {
                        "$type": "ContextActionSetActive",
                        "PNKFDMBDKKL": "ButtonGoto",
                        "EIPEPGPBHCH": true
                    },
                    {
                        "$type": "ContextActionSetText",
                        "PNKFDMBDKKL": "ButtonGoto",
                        "textMap": "UI_ACTIVITY_QUEST_GOTO_BUTTON"
                    }
                ]
            },
            "updateTrackMonster": {
                "$type": "ContextActionExecuteAll",
                "actions": [
                    {
                        "$type": "ContextActionSetActive",
                        "PNKFDMBDKKL": "UnlockTips"
                    },
                    {
                        "$type": "ContextActionSetActive",
                        "PNKFDMBDKKL": "ButtonGoto",
                        "EIPEPGPBHCH": true
                    },
                    {
                        "$type": "ContextActionSetText",
                        "PNKFDMBDKKL": "ButtonGoto",
                        "textMap": "UI_ACTIVITY_CHALLENGE_GOTO_BUTTON"
                    }
                ]
            },
            "clickTrackQuest": {
                "$type": "ContextActionExecuteAll",
                "actions": [
                    {
                        "$type": "ContextActionSelectMainQuest",
                        "JGLKIPHPAGM": 2013
                    },
                    {
                        "$type": "ContextActionReportActivityBuriedPoint",
                        "KNHOKGGDDIK": 5060,
                        "EBIJNPKNDEF": 2,
                        "IILHBDNDOJB": 5060001,
                        "MHKKEBJOGCL": ""
                    },
                    {
                        "$type": "ContextActionSetAnimatorTrigger",
                        "PNKFDMBDKKL": "Animator",
                        "NLAMBGMLCLP": "FadeOut",
                        "EDANBBGPBGG": true
                    }
                ]
            },
            "clickTrackMonster": {
                "$type": "ContextActionExecuteAll",
                "actions": [
                    {
                        "$type": "ContextActionSelectMonsterMark",
                        "FGEBEDGCDMF": 36
                    },
                    {
                        "$type": "ContextActionReportActivityBuriedPoint",
                        "KNHOKGGDDIK": 5060,
                        "EBIJNPKNDEF": 3,
                        "IILHBDNDOJB": 5060001,
                        "MHKKEBJOGCL": ""
                    },
                    {
                        "$type": "ContextActionSetAnimatorTrigger",
                        "PNKFDMBDKKL": "Animator",
                        "NLAMBGMLCLP": "FadeOut",
                        "EDANBBGPBGG": true
                    }
                ]
            }
        },
        "NMFGMGHDGLF": [
            {
                "conditionName": "locked",
                "actionName": "updateLocked"
            },
            {
                "conditionName": "trackQuest",
                "actionName": "updateTrackQuest"
            },
            {
                "conditionName": "trackMonster",
                "actionName": "updateTrackMonster"
            }
        ],
        "AIGGFMAMGMD": [
            {
                "conditionName": "trackQuest",
                "actionName": "clickTrackQuest"
            },
            {
                "conditionName": "trackMonster",
                "actionName": "clickTrackMonster"
            }
        ]
    }
}