{
    "name": "Char_Skill_13033",
    "MFDJLKBDGKB": {
        "-2060930438": {
            "$type": "GCGDeclaredValueDamage",
            "value": 2
        },
        "476224977": {
            "$type": "GCGDeclaredValueElement",
            "type": "Element",
            "ratio": "GCG_ELEMENT_PYRO"
        }
    }
}