{
    "JJKFKAPKIIJ": [
        {
            "name": "Field_Fire",
            "ICOELPGMFCF": [
                {
                    "LJLEBFDEBMB": 0.10000000149011612,
                    "actionGroups": [
                        {
                            "actions": [
                                {
                                    "$type": "GcgBehaviourFireEffect",
                                    "JIAJMJKCNLK": {
                                        "target": "Actor"
                                    },
                                    "effectName": "Eff_Gcg_Common_ElementalArt_Creation_BS",
                                    "AIBAIBAJHEC": "",
                                    "AAAEEDOMFKA": "",
                                    "NKACDLBOINI": {
                                        "$type": "GcgBornRotationFollow"
                                    }
                                },
                                {
                                    "$type": "GcgBehaviourTriggerAttack",
                                    "JIAJMJKCNLK": {
                                        "target": "MainTarget"
                                    }
                                }
                            ]
                        }
                    ]
                }
            ],
            "MCCBMOIBOKD": [
                {
                    "actionGroups": [
                        {
                            "actions": [
                                {
                                    "$type": "GcgBehaviourFireEffect",
                                    "JIAJMJKCNLK": {
                                        "target": "ContextTarget"
                                    },
                                    "effectName": "Eff_Gcg_Common_ElementalArt_Fire_Hit",
                                    "AIBAIBAJHEC": "",
                                    "AAAEEDOMFKA": "",
                                    "NKACDLBOINI": {
                                        "$type": "GcgBornRotationFollow"
                                    }
                                }
                            ]
                        }
                    ]
                }
            ]
        }
    ]
}