{
    "PEGAEKCDCPP": "",
    "GNKDILIOOFF": "",
    "isKeyInteraction": false,
    "group": [
        [
            {
                "$type": "ConfigCameraMoveInterAction",
                "type": "CAMERA_MOVE",
                "duration": 1.0,
                "camPosOffset": {
                    "x": -1.2000000476837158,
                    "y": 1.8070000410079956,
                    "z": 6.14900016784668
                },
                "camForwardTargetOffset": {
                    "x": -1.7960000038146973,
                    "y": 1.6130000352859497,
                    "z": 6.14900016784668
                },
                "camFov": 40.0,
                "cameraBlendType": "EaseInOutCubic",
                "cutFrameTrans": {},
                "openCameraDither": false,
                "targetNpcAlias": "",
                "closeTreeLeafDither": true
            }
        ]
    ]
}