{
    "PFLCGELMMLK": [
        {
            "parentIndex": -1,
            "AIDEDCFPDJN": 10001,
            "ODDOLIJEJDC": "FrontScene"
        },
        {
            "parentIndex": -1,
            "AIDEDCFPDJN": 10005,
            "ODDOLIJEJDC": "BehindScene"
        },
        {
            "AIDEDCFPDJN": 10014,
            "ODDOLIJEJDC": "VitalFlower1"
        },
        {
            "AIDEDCFPDJN": 10013,
            "ODDOLIJEJDC": "VitalFlower2"
        },
        {
            "AIDEDCFPDJN": 10014,
            "ODDOLIJEJDC": "VitalFlower3"
        },
        {
            "AIDEDCFPDJN": 10013,
            "ODDOLIJEJDC": "VitalFlower4"
        },
        {
            "AIDEDCFPDJN": 10012,
            "ODDOLIJEJDC": "VitalFlower5"
        },
        {
            "AIDEDCFPDJN": 10012,
            "ODDOLIJEJDC": "VitalFlower6"
        }
    ]
}