{
    "name": "Effect_Damage_Wind_5",
    "MFDJLKBDGKB": {
        "-2060930438": {
            "$type": "GCGDeclaredValueDamage",
            "value": 5
        },
        "476224977": {
            "$type": "GCGDeclaredValueElement",
            "type": "Element",
            "ratio": "GCG_ELEMENT_ANEMO"
        }
    }
}