{
    "JJKFKAPKIIJ": [
        {
            "name": "Character_Cyno_Q_Golden",
            "ICOELPGMFCF": [
                {
                    "LJLEBFDEBMB": 1.6399999856948853,
                    "actionGroups": [
                        {
                            "actions": [
                                {
                                    "$type": "GcgBehaviourSwitchGoldenLoopEffect",
                                    "JIAJMJKCNLK": {
                                        "target": "Actor"
                                    }
                                },
                                {
                                    "$type": "GcgBehaviourSwitchOnCardLoopEffect",
                                    "JIAJMJKCNLK": {
                                        "target": "Actor"
                                    }
                                },
                                {
                                    "$type": "GcgBehaviourTriggerSpineAttack",
                                    "JIAJMJKCNLK": {
                                        "target": "Actor"
                                    }
                                },
                                {
                                    "$type": "GcgBehaviourFireEffect",
                                    "JIAJMJKCNLK": {
                                        "target": "Actor"
                                    },
                                    "effectName": "Eff_Gcg_Avatar_Cyno_ElementalBurst_Spine",
                                    "NMKDFBNKHKD": true,
                                    "AIBAIBAJHEC": "",
                                    "AAAEEDOMFKA": "",
                                    "NKACDLBOINI": {
                                        "$type": "GcgBornRotationFollow"
                                    }
                                }
                            ]
                        }
                    ]
                },
                {
                    "LJLEBFDEBMB": 0.10999999940395355,
                    "actionGroups": [
                        {
                            "actions": [
                                {
                                    "$type": "GcgBehaviourFireEffect",
                                    "JIAJMJKCNLK": {
                                        "target": "Actor"
                                    },
                                    "effectName": "Eff_Gcg_Avatar_Cyno_ElementalBurst_BS",
                                    "AIBAIBAJHEC": "",
                                    "AAAEEDOMFKA": "",
                                    "NKACDLBOINI": {
                                        "$type": "GcgBornRotationFollow"
                                    }
                                }
                            ]
                        }
                    ]
                },
                {
                    "LJLEBFDEBMB": 1.8799999952316284,
                    "actionGroups": [
                        {
                            "actions": [
                                {
                                    "$type": "GcgBehaviourTriggerAttack",
                                    "JIAJMJKCNLK": {
                                        "target": "MainTarget"
                                    }
                                },
                                {
                                    "$type": "GcgBehaviourShakeScreen",
                                    "JIAJMJKCNLK": {
                                        "target": "MainTarget"
                                    },
                                    "BBFAGKKJAIP": "Common_ShakeScreen_Test_Q"
                                }
                            ]
                        }
                    ]
                },
                {
                    "LJLEBFDEBMB": 0.029999999329447746,
                    "actionGroups": [
                        {
                            "NEILGHFHFJA": {
                                "$type": "GcgPredictCheckToken",
                                "JIAJMJKCNLK": {
                                    "target": "Actor"
                                },
                                "CMPNBJLJCNF": 114041,
                                "token": "GCG_TOKEN_COUNTER",
                                "compareType": "GreaterEqual",
                                "IIIPLBNJNOC": 2
                            },
                            "actions": [
                                {
                                    "$type": "GcgBehaviourChangeForm",
                                    "JIAJMJKCNLK": {
                                        "target": "Actor"
                                    },
                                    "EIBJKACCFAC": "SpecialB"
                                }
                            ],
                            "failActions": [
                                {
                                    "$type": "GcgBehaviourChangeForm",
                                    "JIAJMJKCNLK": {
                                        "target": "Actor"
                                    },
                                    "EIBJKACCFAC": "Normal"
                                }
                            ]
                        },
                        {
                            "NEILGHFHFJA": {
                                "$type": "GcgPredictByOr",
                                "MPPBPEDKGBB": [
                                    {
                                        "$type": "GcgPredictCheckToken",
                                        "JIAJMJKCNLK": {
                                            "target": "Actor"
                                        },
                                        "CMPNBJLJCNF": 114041,
                                        "token": "GCG_TOKEN_COUNTER",
                                        "compareType": "Equal"
                                    },
                                    {
                                        "$type": "GcgPredictCheckToken",
                                        "JIAJMJKCNLK": {
                                            "target": "Actor"
                                        },
                                        "CMPNBJLJCNF": 114041,
                                        "token": "GCG_TOKEN_COUNTER",
                                        "compareType": "Equal",
                                        "IIIPLBNJNOC": 1
                                    }
                                ]
                            },
                            "actions": [
                                {
                                    "$type": "GcgBehaviourFireEffect",
                                    "JIAJMJKCNLK": {
                                        "target": "Actor"
                                    },
                                    "effectName": "Eff_Gcg_Common_Spine_ReturnToLoop",
                                    "NMKDFBNKHKD": true,
                                    "AIBAIBAJHEC": "",
                                    "AAAEEDOMFKA": "",
                                    "NKACDLBOINI": {
                                        "$type": "GcgBornRotationFollow"
                                    }
                                }
                            ]
                        }
                    ]
                },
                {
                    "actionGroups": [
                        {
                            "actions": [
                                {
                                    "$type": "GcgBehaviourSwitchGoldenLoopEffect",
                                    "JIAJMJKCNLK": {
                                        "target": "Actor"
                                    },
                                    "FCCFCBLDECD": true
                                },
                                {
                                    "$type": "GcgBehaviourSwitchOnCardLoopEffect",
                                    "JIAJMJKCNLK": {
                                        "target": "Actor"
                                    },
                                    "FCCFCBLDECD": true
                                }
                            ]
                        }
                    ]
                }
            ],
            "MCCBMOIBOKD": [
                {
                    "actionGroups": [
                        {
                            "actions": [
                                {
                                    "$type": "GcgBehaviourFireEffect",
                                    "JIAJMJKCNLK": {
                                        "target": "ContextTarget"
                                    },
                                    "effectName": "Eff_Gcg_Avatar_Cyno_ElementalBurst_Hit",
                                    "AIBAIBAJHEC": "",
                                    "AAAEEDOMFKA": "",
                                    "NKACDLBOINI": {
                                        "$type": "GcgBornRotationSpecific"
                                    },
                                    "FMHBNPFPBMJ": "HorizontalAxisFlip"
                                },
                                {
                                    "$type": "GcgBehaviourShakeScreen",
                                    "JIAJMJKCNLK": {
                                        "target": "ContextTarget"
                                    },
                                    "BBFAGKKJAIP": "Common_ShakeScreen_Test_Q"
                                },
                                {
                                    "$type": "GcgBehaviourRunMoveScript",
                                    "BDHMBGJGMDE": "GcgMotion_Hit04_05",
                                    "NJOGAEHPENB": "",
                                    "IGOINFNGJOD": {
                                        "target": "ContextTarget"
                                    },
                                    "JIAJMJKCNLK": {
                                        "target": "Actor"
                                    },
                                    "GMGMKMOOLDK": true
                                }
                            ]
                        }
                    ]
                }
            ]
        }
    ]
}