{
    "common": {
        "effectAttachShape": {
            "$type": "ConfigEffectAttachSkinnedMesh",
            "mesh": "EffectMesh"
        },
        "mass": 40.0,
        "height": 0.8999999761581421,
        "modelHeight": 0.8999999761581421,
        "affectedByWorld": true,
        "checkInSurface": true,
        "scale": 1.2999999523162842,
        "clearAIOnSetLightDeactive": true,
        "DMDODHOAMEG": true,
        "BHFDMMENDCG": true
    },
    "model": {
        "bornEffect": "",
        "attachEffect": "",
        "GAJBLHEGNNM": false
    },
    "dither": {
        "showDitherDuration": 2.0
    },
    "globalValue": {
        "serverGlobalValues": [
            "SGV_Fungus_StartBurst_Immediately"
        ],
        "IECNAICOJGA": {
            "SGV_Fungus_StartBurst_Immediately": 0.0
        }
    },
    "combat": {
        "property": {
            "endureType": "Monster_Fungus_Battle",
            "weight": 75.0
        },
        "beHit": {
            "hitBloodEffect": ""
        },
        "combatLock": {
            "lockShape": "CircleLockEnemy",
            "lockType": "Avatar&Monster_Lv4"
        },
        "die": {
            "hasAnimatorDie": true,
            "dieEndTime": 0.5,
            "dieForceDisappearTime": 1.5,
            "dieDisappearEffect": "Eff_Death_Common",
            "dieShaderData": "MonsterDie",
            "NLGENBICMGM": true,
            "OLFBIHLAOAP": true,
            "LOEEPBHGMFL": true,
            "PNKDGIGFGMN": true,
            "LGFCIGKOHHD": true,
            "BNKHGHFNJFN": true
        }
    },
    "abilities": [
        {
            "abilityID": "",
            "abilityName": "Affix_FungusFighterV2_Fungus_ElemMastery",
            "abilityOverride": ""
        },
        {
            "abilityID": "",
            "abilityName": "Fungus_BVB_Universal_ElementalBlast_Immediately",
            "abilityOverride": ""
        },
        {
            "abilityID": "",
            "abilityName": "FungusFighter_Universal_LineMixin",
            "abilityOverride": ""
        },
        {
            "abilityID": "",
            "abilityName": "Fungus_BVB_Un_Water_Bubble_Reject",
            "abilityOverride": ""
        },
        {
            "abilityID": "",
            "abilityName": "Monster_Fungus_Un_FlyStateManager",
            "abilityOverride": ""
        },
        {
            "abilityID": "",
            "abilityName": "Fungus_Un_BVB_Wind_Bullet_Trigger",
            "abilityOverride": ""
        },
        {
            "abilityID": "",
            "abilityName": "Fungus_Un_BVB_Wind_WindZone",
            "abilityOverride": ""
        },
        {
            "abilityID": "",
            "abilityName": "Fungus_Un_BVB_Wind_Passive",
            "abilityOverride": ""
        }
    ],
    "stateLayers": {
        "defaultLayer": {
            "$type": "ConfigNormalStateLayer",
            "layerIndexName": "",
            "stateIDs": {
                "Born": {
                    "$type": "ConfigMonsterStateIDInfo",
                    "animatorStates": {
                        "Born": []
                    },
                    "canSyncMove": true,
                    "resetAnimatorTriggerOnExit": [
                        "DoSkill"
                    ]
                },
                "NormalIdle": {
                    "$type": "ConfigMonsterStateIDInfo",
                    "animatorStates": {
                        "StandbyFree": [],
                        "Standby": []
                    },
                    "canDoSkill": true,
                    "canSyncMove": true,
                    "resetAnimatorTriggerOnExit": [
                        "DoSkill"
                    ],
                    "canSteer": true,
                    "autoSteer": true
                },
                "NormalMove": {
                    "$type": "ConfigMonsterStateIDInfo",
                    "animatorStates": {
                        "Walk": [
                            "Audio_Monster_Fungus_Un_Gamma_Water_Walk"
                        ]
                    },
                    "canDoSkill": true,
                    "canSyncMove": true,
                    "resetAnimatorTriggerOnExit": [
                        "DoSkill"
                    ],
                    "setAnimatorFloat": [
                        {
                            "name": "FlyMotionHor",
                            "normalizeEnd": 0.0
                        },
                        {
                            "name": "FlyMotionVer",
                            "normalizeEnd": 0.0
                        }
                    ],
                    "canSteer": true
                },
                "NormalFly": {
                    "$type": "ConfigMonsterStateIDInfo",
                    "animatorStates": {
                        "Fly": []
                    },
                    "canDoSkill": true,
                    "canSyncMove": true,
                    "resetAnimatorTriggerOnExit": [
                        "DoSkill"
                    ],
                    "setAnimatorFloat": [
                        {
                            "name": "FlyMotionHor",
                            "normalizeEnd": 0.0
                        },
                        {
                            "name": "FlyMotionVer",
                            "normalizeEnd": 0.0
                        }
                    ],
                    "canSteer": true,
                    "CANNKEADBCO": "BlendMove3D"
                },
                "BeHit": {
                    "$type": "ConfigMonsterStateIDInfo",
                    "animatorStates": {
                        "Hit_H": [
                            "Audio_Monster_Fungus_Un_Gamma_Water_Hit"
                        ]
                    },
                    "canSyncMove": true,
                    "resetAnimatorTriggerOnEnter": [
                        "BeHit"
                    ],
                    "resetAnimatorTriggerOnExit": [
                        "DoSkill"
                    ],
                    "KOKKPDGIOPB": true
                },
                "BeHitThrowAir": {
                    "$type": "ConfigMonsterStateIDInfo",
                    "animatorStates": {
                        "HitThrow": [
                            "Audio_Monster_Fungus_Un_Gamma_Water_Hit"
                        ],
                        "HitThrowDrop": []
                    },
                    "resetAnimatorTriggerOnEnter": [
                        "BeHit",
                        "HitAir2HitDrop"
                    ],
                    "resetAnimatorTriggerOnExit": [
                        "DoSkill"
                    ],
                    "setAnimatorBoolean": [
                        {
                            "name": "BurstUnavailable"
                        }
                    ],
                    "remoteForceUseAnimatorVel": true
                },
                "BeHitThrow": {
                    "$type": "ConfigMonsterStateIDInfo",
                    "animatorStates": {
                        "HitThrowToGround": [
                            "Monster_Fungus_Un_Gamma_Water_HitThrowToGround",
                            "Audio_Monster_Fungus_Un_Gamma_Water_HitToGround"
                        ]
                    },
                    "resetAnimatorTriggerOnEnter": [
                        "BeHit"
                    ],
                    "remoteForceUseAnimatorVel": true
                },
                "Struggle": {
                    "$type": "ConfigMonsterStateIDInfo",
                    "animatorStates": {
                        "Struggle": []
                    },
                    "resetAnimatorTriggerOnEnter": [
                        "BeHit",
                        "HitAir2HitDrop"
                    ],
                    "resetAnimatorTriggerOnExit": [
                        "DoSkill"
                    ],
                    "setAnimatorBoolean": [
                        {
                            "name": "BurstUnavailable"
                        }
                    ]
                },
                "Die": {
                    "$type": "ConfigMonsterStateIDInfo",
                    "animatorStates": {
                        "Die_BS": [
                            "Audio_Monster_Fungus_Un_Gamma_Water_Die"
                        ],
                        "Die": [
                            "Monster_Fungus_Un_Die"
                        ],
                        "AirDie": [
                            "Monster_Fungus_Un_Die"
                        ],
                        "SwimDie_BS": [],
                        "SwimDie": [
                            "Monster_Fungus_Un_Die"
                        ]
                    }
                },
                "Warning": {
                    "$type": "ConfigMonsterStateIDInfo",
                    "animatorStates": {
                        "Warning": [
                            "Audio_Monster_Fungus_Un_Gamma_Water_Warning"
                        ]
                    },
                    "canSyncMove": true,
                    "resetAnimatorTriggerOnExit": [
                        "BeHit",
                        "DoSkill"
                    ],
                    "canSteer": true
                },
                "Jump_BS": {
                    "$type": "ConfigMonsterStateIDInfo",
                    "animatorStates": {
                        "Jump_BS": [
                            "Audio_Monster_Fungus_Un_Gamma_Water_Jump_BS"
                        ]
                    },
                    "canSyncMove": true,
                    "resetAnimatorTriggerOnExit": [
                        "DoSkill"
                    ],
                    "canSteer": true,
                    "KOKKPDGIOPB": true
                },
                "JumpProcess": {
                    "$type": "ConfigMonsterStateIDInfo",
                    "animatorStates": {
                        "Launch_Loop": [],
                        "Jump_AS": [
                            "Audio_Monster_Fungus_Un_Jump_AS"
                        ],
                        "Drop_Loop": []
                    },
                    "canDoSkill": true,
                    "canSyncMove": true,
                    "resetAnimatorTriggerOnExit": [
                        "DoSkill",
                        "Launch"
                    ],
                    "canSteer": true,
                    "KOKKPDGIOPB": true
                },
                "Land_AS": {
                    "$type": "ConfigMonsterStateIDInfo",
                    "animatorStates": {
                        "Land_AS": [
                            "Audio_Monster_Fungus_Un_Jump_AS"
                        ]
                    },
                    "canSyncMove": true,
                    "resetAnimatorTriggerOnEnter": [
                        "Land",
                        "BeHit",
                        "HitAir2HitDrop"
                    ],
                    "resetAnimatorTriggerOnExit": [
                        "DoSkill",
                        "Land"
                    ],
                    "canSteer": true,
                    "KOKKPDGIOPB": true
                },
                "ReturnToBorn": {
                    "$type": "ConfigMonsterStateIDInfo",
                    "animatorStates": {
                        "ReturnToBorn_BS": [
                            "Monster_Fungus_Un_ReturnToBorn_BS",
                            "Audio_Monster_Fungus_Un_Gamma_Water_ReturnToBorn_BS"
                        ],
                        "ReturnToBorn_Loop": [],
                        "ReturnToBorn_AS": [
                            "Monster_Fungus_Un_ReturnToBorn_AS",
                            "Audio_Monster_Fungus_Un_Gamma_Water_ReturnToBorn_AS"
                        ]
                    },
                    "cullingModelAlwaysAnimate": true,
                    "resetAnimatorTriggerOnExit": [
                        "BeHit",
                        "DoSkill"
                    ],
                    "setAnimatorBoolean": [
                        {
                            "name": "BurstUnavailable"
                        }
                    ]
                },
                "NormalAttack": {
                    "$type": "ConfigMonsterStateIDInfo",
                    "animatorStates": {
                        "Shoot_BS": [
                            "Audio_Monster_Fungus_FighterV2_Un_Delta_Wind_Shoot_BS"
                        ],
                        "Shoot_Loop": [
                            "Audio_Monster_Fungus_FighterV2_Un_Delta_Wind_Shoot"
                        ],
                        "Shoot_Attack": [
                            "Monster_Fungus_Un_Wind_Bullet",
                            "Audio_Monster_Fungus_FighterV2_Un_Delta_Wind_Shoot_Attack"
                        ],
                        "Shoot_AS": [
                            "Audio_Monster_Fungus_FighterV2_Un_Delta_Wind_Shoot_AS"
                        ]
                    },
                    "addEndure": 0.800000011920929,
                    "resetAnimatorTriggerOnExit": [
                        "BeHit",
                        "DoSkill"
                    ]
                },
                "UnionBurst": {
                    "$type": "ConfigMonsterStateIDInfo",
                    "animatorStates": {
                        "WindZone": [
                            "Monster_Fungus_Un_Wind_WindZone",
                            "Audio_Monster_Fungus_Activity_Un_Delta_Wind_Zone"
                        ]
                    },
                    "addEndure": 0.0,
                    "resetAnimatorTriggerOnExit": [
                        "BeHit",
                        "DoSkill"
                    ]
                }
            }
        }
    },
    "billboard": {
        "$type": "ConfigCombatBillboard",
        "attachPoint": "BillboardAttach",
        "offset": {
            "y": 0.5
        },
        "radiusOffset": 1.0,
        "enableSelfAdapt": true,
        "showDistance": 36.0,
        "EEALPDDOKAB": true,
        "showHPBar": true
    },
    "initialPoses": {
        "Default": {}
    },
    "aibeta": {
        "enable": true,
        "moveSetting": {
            "navMeshAgentName": "Undead01",
            "almostReachedDistanceRun": 0.4000000059604645
        },
        "sensing": {
            "settings": {
                "DefaultSetting": {
                    "viewPanoramic": true,
                    "feelRange": 50.0
                }
            },
            "templates": {
                "DefaultTemplate": {
                    "DefaultPoses": "DefaultSetting"
                }
            }
        },
        "threat": {
            "clearThreatTargetDistance": 30.0,
            "clearThreatEdgeDistance": 5.0,
            "clearThreatTimerByDistance": 2.0,
            "viewAttenuation": [
                {
                    "x": 12.0,
                    "y": 1.0
                },
                {
                    "x": 20.0,
                    "y": 0.5
                }
            ],
            "targetDistanceScoreSystem": {
                "enable": true,
                "weight": 100,
                "value": 8.0,
                "max": 30.0
            }
        },
        "defendArea": {
            "defendRange": 50.0
        },
        "fly": {
            "enable": true,
            "floatingPoses": [
                201,
                501,
                551,
                511
            ]
        },
        "HCKKNMPFMCB": {
            "enable": true
        },
        "skills": {
            "201": {
                "name": "NormalAttack",
                "castCondition": {
                    "pose": [
                        501,
                        551
                    ],
                    "pickRangeMax": 6.099999904632568,
                    "globalValues": [
                        {
                            "min": 0.20000000298023224,
                            "max": 2.4000000953674316
                        }
                    ]
                },
                "cd": 4.25,
                "publicCDGroup": "",
                "triggerCDOnStart": true,
                "stateIDs": [
                    "NormalAttack"
                ],
                "flagTargetReachable": "11",
                "flagSelfOnTemplateCollider": "01",
                "flagSelfInZone": "11",
                "flagTargetInZone": "11"
            },
            "401": {
                "name": "UnionBurst",
                "castCondition": {
                    "pose": [
                        233
                    ]
                },
                "publicCDGroup": "",
                "stateIDs": [
                    "UnionBurst"
                ],
                "flagTargetReachable": "10",
                "flagSelfOnTemplateCollider": "01",
                "flagSelfInZone": "10",
                "flagTargetInZone": "11"
            }
        },
        "skillGCD": 1.7999999523162842,
        "target": {
            "PGIINFOINCG": [
                "COMMAND",
                "POINT",
                "THREAT"
            ]
        },
        "meleeChargeTactic": {
            "enable": true,
            "condition": {
                "pose": [
                    301
                ]
            },
            "defaultSetting": {
                "startDistanceMin": 0.10000000149011612,
                "stopDistance": 0.10000000149011612,
                "speedLevelInner": 2
            }
        },
        "spacialChaseTactic": {
            "enable": true,
            "condition": {
                "pose": [
                    501,
                    551
                ]
            },
            "defaultSetting": {
                "speedLevel": 2,
                "chaseStartDistance": 6.0,
                "chaseStopDistance": 5.900000095367432,
                "yOffsetMin": 0.0,
                "yOffsetMax": 5.0,
                "KLJCLEGPBHP": [
                    {
                        "min": 0.20000000298023224,
                        "max": 3.0
                    }
                ]
            }
        },
        "ADDMPMDENIE": {
            "enable": true,
            "defaultSetting": {
                "stopDistance": 0.4000000059604645,
                "EMDFLPIJGDI": 5.0,
                "spacial": true
            }
        }
    },
    "inputKeys": [
        {
            "keyID": 201,
            "inputKeyCode": 257,
            "abilityName": ""
        },
        {
            "keyID": 401,
            "inputKeyCode": 259,
            "abilityName": ""
        }
    ],
    "move": {
        "$type": "ConfigAnimatorMove",
        "JOMDICJAIPD": [
            {
                "PGCNADDBDAE": 5.0,
                "ELDDGPIPLNH": "DownToGroundAndWaterOnlyInAir",
                "JLGMAAACDIF": ""
            }
        ],
        "facingMove": "ForwardBackward",
        "MGINFMAIBMC": "AirBlend3D",
        "monsterSizeType": "SlimeType",
        "JAHELKFLJJA": 6.619999885559082,
        "DOPFNDGDHLK": [
            "Launch_Loop"
        ],
        "PMGLKDCEPOI": [
            "Drop_Loop"
        ],
        "JPPHCOMAPME": true
    }
}