{
    "id": 152,
    "stageMatureEvents": [
        "Play_Amb_Dungeon_XuMi_Cycle02"
    ],
    "stageExitEvents": [
        "Stop_Amb_Dungeon_XuMi_Cycle02",
        "State_Music_NonCombat"
    ],
    "stateValue": "State_Dungeon_XM",
    "MGPFCAPMBPF": {
        "text": "Play_Music_Dungeon"
    },
    "BHCLCBAJBPL": {
        "text": "Stop_Music_Dungeon"
    }
}