{
    "ConfigMushroom": {
        "EAEGNAJBNKF": {
            "trackArea": {
                "$type": "ContextConditionAreaUnlocked",
                "areaId": 22,
                "sceneId": 3
            },
            "trackMonster": {
                "$type": "ContextConditionAreaUnlocked",
                "areaId": 22,
                "sceneId": 3,
                "HNKODCEEDBF": true
            }
        },
        "NLPCIOFILDH": {
            "updateArea": {
                "$type": "ContextActionExecuteAll",
                "actions": [
                    {
                        "$type": "ContextActionSetActive",
                        "PNKFDMBDKKL": "ButtonGoto",
                        "EIPEPGPBHCH": true
                    },
                    {
                        "$type": "ContextActionSetText",
                        "PNKFDMBDKKL": "ButtonGoto",
                        "textMap": "UI_ACTIVITY_NEW_REGION_UNLOCK_BUTTON"
                    }
                ]
            },
            "updateMonster": {
                "$type": "ContextActionExecuteAll",
                "actions": [
                    {
                        "$type": "ContextActionSetActive",
                        "PNKFDMBDKKL": "ButtonGoto",
                        "EIPEPGPBHCH": true
                    },
                    {
                        "$type": "ContextActionSetText",
                        "PNKFDMBDKKL": "ButtonGoto",
                        "textMap": "UI_ACTIVITY_CHALLENGE_GOTO_BUTTON"
                    }
                ]
            },
            "clickTrackArea": {
                "$type": "ContextActionExecuteAll",
                "actions": [
                    {
                        "$type": "ContextActionSelectTransPoint",
                        "IAMPPODHFNN": 625,
                        "sceneId": 3
                    },
                    {
                        "$type": "ContextActionReportActivityBuriedPoint",
                        "KNHOKGGDDIK": 5086,
                        "EBIJNPKNDEF": 2,
                        "IILHBDNDOJB": 5086001,
                        "MHKKEBJOGCL": ""
                    },
                    {
                        "$type": "ContextActionSetAnimatorTrigger",
                        "PNKFDMBDKKL": "Animator",
                        "NLAMBGMLCLP": "FadeOut",
                        "EDANBBGPBGG": true
                    }
                ]
            },
            "clickTrackMonster": {
                "$type": "ContextActionExecuteAll",
                "actions": [
                    {
                        "$type": "ContextActionSelectMonsterMark",
                        "FGEBEDGCDMF": 42
                    },
                    {
                        "$type": "ContextActionReportActivityBuriedPoint",
                        "KNHOKGGDDIK": 5086,
                        "EBIJNPKNDEF": 3,
                        "IILHBDNDOJB": 5086001,
                        "MHKKEBJOGCL": ""
                    },
                    {
                        "$type": "ContextActionSetAnimatorTrigger",
                        "PNKFDMBDKKL": "Animator",
                        "NLAMBGMLCLP": "FadeOut",
                        "EDANBBGPBGG": true
                    }
                ]
            }
        },
        "NMFGMGHDGLF": [
            {
                "conditionName": "trackArea",
                "actionName": "updateArea"
            },
            {
                "conditionName": "trackMonster",
                "actionName": "updateMonster"
            }
        ],
        "AIGGFMAMGMD": [
            {
                "conditionName": "trackArea",
                "actionName": "clickTrackArea"
            },
            {
                "conditionName": "trackMonster",
                "actionName": "clickTrackMonster"
            }
        ]
    }
}