{
    "name": "Effect_Damage_Water_4",
    "MFDJLKBDGKB": {
        "-2060930438": {
            "$type": "GCGDeclaredValueDamage",
            "value": 4
        },
        "476224977": {
            "$type": "GCGDeclaredValueElement",
            "type": "Element",
            "ratio": "GCG_ELEMENT_HYDRO"
        }
    }
}