{
    "sceneId": 40052,
    "monsters": [
        {
            "groupId": 240052003,
            "mapInstId": 3005,
            "aiGroupID": 240052003,
            "aiNeuronSetting": "DefaultSetting",
            "aiSensingTemplate": "EarshotFix",
            "disableWander": true,
            "DNENBFNCCHD": "",
            "AFJKALOGMGG": ""
        },
        {
            "groupId": 240052003,
            "mapInstId": 3006,
            "aiGroupID": 240052003,
            "aiNeuronSetting": "DefaultSetting",
            "aiSensingTemplate": "EarshotFix",
            "disableWander": true,
            "DNENBFNCCHD": "",
            "AFJKALOGMGG": ""
        },
        {
            "groupId": 240052003,
            "mapInstId": 3007,
            "aiGroupID": 240052003,
            "aiNeuronSetting": "DefaultSetting",
            "aiSensingTemplate": "EarshotFix",
            "disableWander": true,
            "DNENBFNCCHD": "",
            "AFJKALOGMGG": ""
        },
        {
            "groupId": 240052008,
            "mapInstId": 8002,
            "aiGroupID": 240052008,
            "aiNeuronSetting": "DefaultSetting",
            "aiSensingTemplate": "EarshotFix",
            "disableWander": true,
            "DNENBFNCCHD": "",
            "AFJKALOGMGG": ""
        },
        {
            "groupId": 240052008,
            "mapInstId": 8003,
            "aiGroupID": 240052008,
            "aiNeuronSetting": "DefaultSetting",
            "aiSensingTemplate": "EarshotFix",
            "disableWander": true,
            "DNENBFNCCHD": "",
            "AFJKALOGMGG": ""
        },
        {
            "groupId": 240052008,
            "mapInstId": 8004,
            "aiGroupID": 240052008,
            "aiNeuronSetting": "DefaultSetting",
            "aiSensingTemplate": "EarshotFix",
            "disableWander": true,
            "DNENBFNCCHD": "",
            "AFJKALOGMGG": ""
        },
        {
            "groupId": 240052009,
            "mapInstId": 9001,
            "aiGroupID": 240052009,
            "HABGLDDDGMD": true,
            "LOLOLLGJHJK": 5.0,
            "defendAreaID": 1,
            "aiNeuronSetting": "DefaultSetting",
            "aiSensingTemplate": "DefaultTemplate",
            "disableWander": true,
            "DNENBFNCCHD": "",
            "AFJKALOGMGG": ""
        },
        {
            "groupId": 240052009,
            "mapInstId": 9002,
            "aiGroupID": 240052009,
            "HABGLDDDGMD": true,
            "LOLOLLGJHJK": 5.0,
            "defendAreaID": 1,
            "aiNeuronSetting": "DefaultSetting",
            "aiSensingTemplate": "DefaultTemplate",
            "disableWander": true,
            "DNENBFNCCHD": "",
            "AFJKALOGMGG": ""
        },
        {
            "groupId": 240052009,
            "mapInstId": 9003,
            "aiGroupID": 240052009,
            "HABGLDDDGMD": true,
            "LOLOLLGJHJK": 5.0,
            "defendAreaID": 1,
            "aiNeuronSetting": "DefaultSetting",
            "aiSensingTemplate": "DefaultTemplate",
            "disableWander": true,
            "DNENBFNCCHD": "",
            "AFJKALOGMGG": ""
        },
        {
            "groupId": 240052009,
            "mapInstId": 9006,
            "aiGroupID": 240052009,
            "HABGLDDDGMD": true,
            "LOLOLLGJHJK": 5.0,
            "defendAreaID": 1,
            "aiNeuronSetting": "DefaultSetting",
            "aiSensingTemplate": "DefaultTemplate",
            "disableWander": true,
            "DNENBFNCCHD": "",
            "AFJKALOGMGG": ""
        }
    ]
}