{
    "sceneId": 41059,
    "monsters": [
        {
            "groupId": 241059003,
            "mapInstId": 3001,
            "aiGroupID": 241059003,
            "aiNeuronSetting": "DefaultSetting",
            "aiSensingTemplate": "DefaultTemplate",
            "forceCombatOnSpawn": true,
            "disableWander": true,
            "DNENBFNCCHD": "",
            "AFJKALOGMGG": ""
        },
        {
            "groupId": 241059003,
            "mapInstId": 3002,
            "aiGroupID": 241059003,
            "aiNeuronSetting": "DefaultSetting",
            "aiSensingTemplate": "DefaultTemplate",
            "forceCombatOnSpawn": true,
            "disableWander": true,
            "DNENBFNCCHD": "",
            "AFJKALOGMGG": ""
        },
        {
            "groupId": 241059003,
            "mapInstId": 3003,
            "aiGroupID": 241059003,
            "aiNeuronSetting": "DefaultSetting",
            "aiSensingTemplate": "DefaultTemplate",
            "forceCombatOnSpawn": true,
            "disableWander": true,
            "DNENBFNCCHD": "",
            "AFJKALOGMGG": ""
        },
        {
            "groupId": 241059003,
            "mapInstId": 3004,
            "aiGroupID": 241059003,
            "aiNeuronSetting": "DefaultSetting",
            "aiSensingTemplate": "DefaultTemplate",
            "forceCombatOnSpawn": true,
            "disableWander": true,
            "DNENBFNCCHD": "",
            "AFJKALOGMGG": ""
        },
        {
            "groupId": 241059003,
            "mapInstId": 3005,
            "aiGroupID": 241059003,
            "aiNeuronSetting": "DefaultSetting",
            "aiSensingTemplate": "DefaultTemplate",
            "forceCombatOnSpawn": true,
            "disableWander": true,
            "DNENBFNCCHD": "",
            "AFJKALOGMGG": ""
        },
        {
            "groupId": 241059003,
            "mapInstId": 3006,
            "aiGroupID": 241059003,
            "aiNeuronSetting": "DefaultSetting",
            "aiSensingTemplate": "DefaultTemplate",
            "forceCombatOnSpawn": true,
            "disableWander": true,
            "DNENBFNCCHD": "",
            "AFJKALOGMGG": ""
        },
        {
            "groupId": 241059003,
            "mapInstId": 3007,
            "aiGroupID": 241059003,
            "aiNeuronSetting": "DefaultSetting",
            "aiSensingTemplate": "DefaultTemplate",
            "forceCombatOnSpawn": true,
            "disableWander": true,
            "DNENBFNCCHD": "",
            "AFJKALOGMGG": ""
        },
        {
            "groupId": 241059003,
            "mapInstId": 3008,
            "aiGroupID": 241059003,
            "aiNeuronSetting": "DefaultSetting",
            "aiSensingTemplate": "DefaultTemplate",
            "forceCombatOnSpawn": true,
            "disableWander": true,
            "DNENBFNCCHD": "",
            "AFJKALOGMGG": ""
        },
        {
            "groupId": 241059003,
            "mapInstId": 3009,
            "aiGroupID": 241059003,
            "aiNeuronSetting": "DefaultSetting",
            "aiSensingTemplate": "DefaultTemplate",
            "forceCombatOnSpawn": true,
            "disableWander": true,
            "DNENBFNCCHD": "",
            "AFJKALOGMGG": ""
        },
        {
            "groupId": 241059003,
            "mapInstId": 3010,
            "aiGroupID": 241059003,
            "aiNeuronSetting": "DefaultSetting",
            "aiSensingTemplate": "DefaultTemplate",
            "forceCombatOnSpawn": true,
            "disableWander": true,
            "DNENBFNCCHD": "",
            "AFJKALOGMGG": ""
        },
        {
            "groupId": 241059003,
            "mapInstId": 3011,
            "aiGroupID": 241059003,
            "aiNeuronSetting": "DefaultSetting",
            "aiSensingTemplate": "DefaultTemplate",
            "forceCombatOnSpawn": true,
            "disableWander": true,
            "DNENBFNCCHD": "",
            "AFJKALOGMGG": ""
        },
        {
            "groupId": 241059003,
            "mapInstId": 3012,
            "aiGroupID": 241059003,
            "aiNeuronSetting": "DefaultSetting",
            "aiSensingTemplate": "DefaultTemplate",
            "forceCombatOnSpawn": true,
            "disableWander": true,
            "DNENBFNCCHD": "",
            "AFJKALOGMGG": ""
        },
        {
            "groupId": 241059003,
            "mapInstId": 3013,
            "aiGroupID": 241059003,
            "aiNeuronSetting": "DefaultSetting",
            "aiSensingTemplate": "DefaultTemplate",
            "forceCombatOnSpawn": true,
            "disableWander": true,
            "DNENBFNCCHD": "",
            "AFJKALOGMGG": ""
        },
        {
            "groupId": 241059003,
            "mapInstId": 3014,
            "aiGroupID": 241059003,
            "aiNeuronSetting": "DefaultSetting",
            "aiSensingTemplate": "DefaultTemplate",
            "forceCombatOnSpawn": true,
            "disableWander": true,
            "DNENBFNCCHD": "",
            "AFJKALOGMGG": ""
        },
        {
            "groupId": 241059003,
            "mapInstId": 3015,
            "aiGroupID": 241059003,
            "aiNeuronSetting": "DefaultSetting",
            "aiSensingTemplate": "DefaultTemplate",
            "forceCombatOnSpawn": true,
            "disableWander": true,
            "DNENBFNCCHD": "",
            "AFJKALOGMGG": ""
        },
        {
            "groupId": 241059003,
            "mapInstId": 3016,
            "aiGroupID": 241059003,
            "aiNeuronSetting": "DefaultSetting",
            "aiSensingTemplate": "DefaultTemplate",
            "forceCombatOnSpawn": true,
            "disableWander": true,
            "DNENBFNCCHD": "",
            "AFJKALOGMGG": ""
        },
        {
            "groupId": 241059003,
            "mapInstId": 3017,
            "aiGroupID": 241059003,
            "aiNeuronSetting": "DefaultSetting",
            "aiSensingTemplate": "DefaultTemplate",
            "forceCombatOnSpawn": true,
            "disableWander": true,
            "DNENBFNCCHD": "",
            "AFJKALOGMGG": ""
        },
        {
            "groupId": 241059003,
            "mapInstId": 3019,
            "aiGroupID": 241059003,
            "aiNeuronSetting": "DefaultSetting",
            "aiSensingTemplate": "DefaultTemplate",
            "forceCombatOnSpawn": true,
            "disableWander": true,
            "DNENBFNCCHD": "",
            "AFJKALOGMGG": ""
        },
        {
            "groupId": 241059003,
            "mapInstId": 3020,
            "aiGroupID": 241059003,
            "aiNeuronSetting": "DefaultSetting",
            "aiSensingTemplate": "DefaultTemplate",
            "forceCombatOnSpawn": true,
            "disableWander": true,
            "DNENBFNCCHD": "",
            "AFJKALOGMGG": ""
        },
        {
            "groupId": 241059003,
            "mapInstId": 3024,
            "aiGroupID": 241059003,
            "aiNeuronSetting": "DefaultSetting",
            "aiSensingTemplate": "DefaultTemplate",
            "forceCombatOnSpawn": true,
            "disableWander": true,
            "DNENBFNCCHD": "",
            "AFJKALOGMGG": ""
        },
        {
            "groupId": 241059003,
            "mapInstId": 3025,
            "aiGroupID": 241059003,
            "aiNeuronSetting": "DefaultSetting",
            "aiSensingTemplate": "DefaultTemplate",
            "forceCombatOnSpawn": true,
            "disableWander": true,
            "DNENBFNCCHD": "",
            "AFJKALOGMGG": ""
        },
        {
            "groupId": 241059003,
            "mapInstId": 3026,
            "aiGroupID": 241059003,
            "aiNeuronSetting": "DefaultSetting",
            "aiSensingTemplate": "DefaultTemplate",
            "forceCombatOnSpawn": true,
            "disableWander": true,
            "DNENBFNCCHD": "",
            "AFJKALOGMGG": ""
        },
        {
            "groupId": 241059003,
            "mapInstId": 3027,
            "aiGroupID": 241059003,
            "aiNeuronSetting": "DefaultSetting",
            "aiSensingTemplate": "DefaultTemplate",
            "forceCombatOnSpawn": true,
            "disableWander": true,
            "DNENBFNCCHD": "",
            "AFJKALOGMGG": ""
        },
        {
            "groupId": 241059003,
            "mapInstId": 3028,
            "aiGroupID": 241059003,
            "aiNeuronSetting": "DefaultSetting",
            "aiSensingTemplate": "DefaultTemplate",
            "forceCombatOnSpawn": true,
            "disableWander": true,
            "DNENBFNCCHD": "",
            "AFJKALOGMGG": ""
        },
        {
            "groupId": 241059003,
            "mapInstId": 3029,
            "aiGroupID": 241059003,
            "aiNeuronSetting": "DefaultSetting",
            "aiSensingTemplate": "DefaultTemplate",
            "forceCombatOnSpawn": true,
            "disableWander": true,
            "DNENBFNCCHD": "",
            "AFJKALOGMGG": ""
        },
        {
            "groupId": 241059003,
            "mapInstId": 3031,
            "aiGroupID": 241059003,
            "aiNeuronSetting": "DefaultSetting",
            "aiSensingTemplate": "DefaultTemplate",
            "forceCombatOnSpawn": true,
            "disableWander": true,
            "DNENBFNCCHD": "",
            "AFJKALOGMGG": ""
        },
        {
            "groupId": 241059003,
            "mapInstId": 3032,
            "aiGroupID": 241059003,
            "aiNeuronSetting": "DefaultSetting",
            "aiSensingTemplate": "DefaultTemplate",
            "forceCombatOnSpawn": true,
            "disableWander": true,
            "DNENBFNCCHD": "",
            "AFJKALOGMGG": ""
        },
        {
            "groupId": 241059003,
            "mapInstId": 3033,
            "aiGroupID": 241059003,
            "aiNeuronSetting": "DefaultSetting",
            "aiSensingTemplate": "DefaultTemplate",
            "forceCombatOnSpawn": true,
            "disableWander": true,
            "DNENBFNCCHD": "",
            "AFJKALOGMGG": ""
        },
        {
            "groupId": 241059003,
            "mapInstId": 3034,
            "aiGroupID": 241059003,
            "aiNeuronSetting": "DefaultSetting",
            "aiSensingTemplate": "DefaultTemplate",
            "forceCombatOnSpawn": true,
            "disableWander": true,
            "DNENBFNCCHD": "",
            "AFJKALOGMGG": ""
        },
        {
            "groupId": 241059003,
            "mapInstId": 3035,
            "aiGroupID": 241059003,
            "aiNeuronSetting": "DefaultSetting",
            "aiSensingTemplate": "DefaultTemplate",
            "forceCombatOnSpawn": true,
            "disableWander": true,
            "DNENBFNCCHD": "",
            "AFJKALOGMGG": ""
        }
    ]
}