{
    "sceneId": 34743,
    "monsters": [
        {
            "groupId": 234743007,
            "mapInstId": 7002,
            "aiGroupID": 234743007,
            "HABGLDDDGMD": true,
            "LOLOLLGJHJK": 999.0,
            "IMGIMPGDOCN": true,
            "clearThreatTargetDistance": 999.0,
            "aiNeuronSetting": "DefaultSetting",
            "aiSensingTemplate": "DefaultTemplate",
            "forceCombatOnSpawn": true,
            "disableWander": true,
            "DNENBFNCCHD": "",
            "AFJKALOGMGG": ""
        },
        {
            "groupId": 234743007,
            "mapInstId": 7003,
            "aiGroupID": 234743007,
            "HABGLDDDGMD": true,
            "LOLOLLGJHJK": 999.0,
            "IMGIMPGDOCN": true,
            "clearThreatTargetDistance": 999.0,
            "aiNeuronSetting": "DefaultSetting",
            "aiSensingTemplate": "DefaultTemplate",
            "forceCombatOnSpawn": true,
            "disableWander": true,
            "DNENBFNCCHD": "",
            "AFJKALOGMGG": ""
        },
        {
            "groupId": 234743008,
            "mapInstId": 8001,
            "aiGroupID": 234743008,
            "HABGLDDDGMD": true,
            "LOLOLLGJHJK": 999.0,
            "IMGIMPGDOCN": true,
            "clearThreatTargetDistance": 999.0,
            "aiNeuronSetting": "DefaultSetting",
            "aiSensingTemplate": "DefaultTemplate",
            "forceCombatOnSpawn": true,
            "disableWander": true,
            "DNENBFNCCHD": "",
            "AFJKALOGMGG": ""
        },
        {
            "groupId": 234743008,
            "mapInstId": 8002,
            "aiGroupID": 234743008,
            "HABGLDDDGMD": true,
            "LOLOLLGJHJK": 999.0,
            "IMGIMPGDOCN": true,
            "clearThreatTargetDistance": 999.0,
            "aiNeuronSetting": "DefaultSetting",
            "aiSensingTemplate": "DefaultTemplate",
            "forceCombatOnSpawn": true,
            "disableWander": true,
            "DNENBFNCCHD": "",
            "AFJKALOGMGG": ""
        },
        {
            "groupId": 234743008,
            "mapInstId": 8003,
            "aiGroupID": 234743008,
            "HABGLDDDGMD": true,
            "LOLOLLGJHJK": 999.0,
            "IMGIMPGDOCN": true,
            "clearThreatTargetDistance": 999.0,
            "aiNeuronSetting": "DefaultSetting",
            "aiSensingTemplate": "DefaultTemplate",
            "forceCombatOnSpawn": true,
            "disableWander": true,
            "DNENBFNCCHD": "",
            "AFJKALOGMGG": ""
        },
        {
            "groupId": 234743008,
            "mapInstId": 8004,
            "aiGroupID": 234743008,
            "HABGLDDDGMD": true,
            "LOLOLLGJHJK": 999.0,
            "IMGIMPGDOCN": true,
            "clearThreatTargetDistance": 999.0,
            "aiNeuronSetting": "DefaultSetting",
            "aiSensingTemplate": "DefaultTemplate",
            "forceCombatOnSpawn": true,
            "disableWander": true,
            "DNENBFNCCHD": "",
            "AFJKALOGMGG": ""
        },
        {
            "groupId": 234743008,
            "mapInstId": 8005,
            "aiGroupID": 234743008,
            "HABGLDDDGMD": true,
            "LOLOLLGJHJK": 999.0,
            "IMGIMPGDOCN": true,
            "clearThreatTargetDistance": 999.0,
            "aiNeuronSetting": "DefaultSetting",
            "aiSensingTemplate": "DefaultTemplate",
            "forceCombatOnSpawn": true,
            "disableWander": true,
            "DNENBFNCCHD": "",
            "AFJKALOGMGG": ""
        },
        {
            "groupId": 234743008,
            "mapInstId": 8006,
            "aiGroupID": 234743008,
            "HABGLDDDGMD": true,
            "LOLOLLGJHJK": 999.0,
            "IMGIMPGDOCN": true,
            "clearThreatTargetDistance": 999.0,
            "aiNeuronSetting": "DefaultSetting",
            "aiSensingTemplate": "DefaultTemplate",
            "forceCombatOnSpawn": true,
            "disableWander": true,
            "DNENBFNCCHD": "",
            "AFJKALOGMGG": ""
        },
        {
            "groupId": 234743008,
            "mapInstId": 8007,
            "aiGroupID": 234743008,
            "HABGLDDDGMD": true,
            "LOLOLLGJHJK": 999.0,
            "IMGIMPGDOCN": true,
            "clearThreatTargetDistance": 999.0,
            "aiNeuronSetting": "DefaultSetting",
            "aiSensingTemplate": "DefaultTemplate",
            "forceCombatOnSpawn": true,
            "disableWander": true,
            "DNENBFNCCHD": "",
            "AFJKALOGMGG": ""
        },
        {
            "groupId": 234743008,
            "mapInstId": 8011,
            "aiGroupID": 234743008,
            "HABGLDDDGMD": true,
            "LOLOLLGJHJK": 999.0,
            "IMGIMPGDOCN": true,
            "clearThreatTargetDistance": 999.0,
            "aiNeuronSetting": "DefaultSetting",
            "aiSensingTemplate": "DefaultTemplate",
            "forceCombatOnSpawn": true,
            "disableWander": true,
            "DNENBFNCCHD": "",
            "AFJKALOGMGG": ""
        },
        {
            "groupId": 234743008,
            "mapInstId": 8014,
            "aiGroupID": 234743008,
            "HABGLDDDGMD": true,
            "LOLOLLGJHJK": 999.0,
            "IMGIMPGDOCN": true,
            "clearThreatTargetDistance": 999.0,
            "aiNeuronSetting": "DefaultSetting",
            "aiSensingTemplate": "DefaultTemplate",
            "forceCombatOnSpawn": true,
            "disableWander": true,
            "DNENBFNCCHD": "",
            "AFJKALOGMGG": ""
        },
        {
            "groupId": 234743008,
            "mapInstId": 8015,
            "aiGroupID": 234743008,
            "HABGLDDDGMD": true,
            "LOLOLLGJHJK": 999.0,
            "IMGIMPGDOCN": true,
            "clearThreatTargetDistance": 999.0,
            "aiNeuronSetting": "DefaultSetting",
            "aiSensingTemplate": "DefaultTemplate",
            "forceCombatOnSpawn": true,
            "disableWander": true,
            "DNENBFNCCHD": "",
            "AFJKALOGMGG": ""
        },
        {
            "groupId": 234743008,
            "mapInstId": 8016,
            "aiGroupID": 234743008,
            "HABGLDDDGMD": true,
            "LOLOLLGJHJK": 999.0,
            "IMGIMPGDOCN": true,
            "clearThreatTargetDistance": 999.0,
            "aiNeuronSetting": "DefaultSetting",
            "aiSensingTemplate": "DefaultTemplate",
            "forceCombatOnSpawn": true,
            "disableWander": true,
            "DNENBFNCCHD": "",
            "AFJKALOGMGG": ""
        },
        {
            "groupId": 234743008,
            "mapInstId": 8017,
            "aiGroupID": 234743008,
            "HABGLDDDGMD": true,
            "LOLOLLGJHJK": 999.0,
            "IMGIMPGDOCN": true,
            "clearThreatTargetDistance": 999.0,
            "aiNeuronSetting": "DefaultSetting",
            "aiSensingTemplate": "DefaultTemplate",
            "forceCombatOnSpawn": true,
            "disableWander": true,
            "DNENBFNCCHD": "",
            "AFJKALOGMGG": ""
        },
        {
            "groupId": 234743008,
            "mapInstId": 8018,
            "aiGroupID": 234743008,
            "HABGLDDDGMD": true,
            "LOLOLLGJHJK": 999.0,
            "IMGIMPGDOCN": true,
            "clearThreatTargetDistance": 999.0,
            "aiNeuronSetting": "DefaultSetting",
            "aiSensingTemplate": "DefaultTemplate",
            "forceCombatOnSpawn": true,
            "disableWander": true,
            "DNENBFNCCHD": "",
            "AFJKALOGMGG": ""
        }
    ]
}