{
    "sceneId": 34720,
    "monsters": [
        {
            "groupId": 234720004,
            "mapInstId": 4001,
            "aiGroupID": 234720004,
            "HABGLDDDGMD": true,
            "LOLOLLGJHJK": 999.0,
            "IMGIMPGDOCN": true,
            "clearThreatTargetDistance": 999.0,
            "aiNeuronSetting": "DefaultSetting",
            "aiSensingTemplate": "DefaultTemplate",
            "forceCombatOnSpawn": true,
            "disableWander": true,
            "DNENBFNCCHD": "",
            "AFJKALOGMGG": ""
        },
        {
            "groupId": 234720004,
            "mapInstId": 4002,
            "aiGroupID": 234720004,
            "HABGLDDDGMD": true,
            "LOLOLLGJHJK": 999.0,
            "IMGIMPGDOCN": true,
            "clearThreatTargetDistance": 999.0,
            "aiNeuronSetting": "DefaultSetting",
            "aiSensingTemplate": "DefaultTemplate",
            "forceCombatOnSpawn": true,
            "disableWander": true,
            "DNENBFNCCHD": "",
            "AFJKALOGMGG": ""
        },
        {
            "groupId": 234720004,
            "mapInstId": 4004,
            "aiGroupID": 234720004,
            "HABGLDDDGMD": true,
            "LOLOLLGJHJK": 999.0,
            "IMGIMPGDOCN": true,
            "clearThreatTargetDistance": 999.0,
            "aiNeuronSetting": "DefaultSetting",
            "aiSensingTemplate": "DefaultTemplate",
            "forceCombatOnSpawn": true,
            "disableWander": true,
            "DNENBFNCCHD": "",
            "AFJKALOGMGG": ""
        },
        {
            "groupId": 234720004,
            "mapInstId": 4005,
            "aiGroupID": 234720004,
            "HABGLDDDGMD": true,
            "LOLOLLGJHJK": 999.0,
            "IMGIMPGDOCN": true,
            "clearThreatTargetDistance": 999.0,
            "aiNeuronSetting": "DefaultSetting",
            "aiSensingTemplate": "DefaultTemplate",
            "forceCombatOnSpawn": true,
            "disableWander": true,
            "DNENBFNCCHD": "",
            "AFJKALOGMGG": ""
        },
        {
            "groupId": 234720005,
            "mapInstId": 5001,
            "aiGroupID": 234720005,
            "HABGLDDDGMD": true,
            "LOLOLLGJHJK": 999.0,
            "IMGIMPGDOCN": true,
            "clearThreatTargetDistance": 999.0,
            "aiNeuronSetting": "DefaultSetting",
            "aiSensingTemplate": "DefaultTemplate",
            "forceCombatOnSpawn": true,
            "disableWander": true,
            "billboardHasUIBar": true,
            "DNENBFNCCHD": "",
            "AFJKALOGMGG": ""
        }
    ]
}