{
    "sceneId": 3,
    "monsters": [
        {
            "groupId": 133225069,
            "mapInstId": 69001,
            "aiGroupID": 133225069,
            "aiNeuronSetting": "DefaultSetting",
            "aiSensingTemplate": "DefaultTemplate",
            "disableWander": true,
            "DNENBFNCCHD": "",
            "AFJKALOGMGG": ""
        },
        {
            "groupId": 133225069,
            "mapInstId": 69004,
            "aiGroupID": 133225069,
            "aiNeuronSetting": "DefaultSetting",
            "aiSensingTemplate": "DefaultTemplate",
            "disableWander": true,
            "DNENBFNCCHD": "",
            "AFJKALOGMGG": ""
        },
        {
            "groupId": 133225069,
            "mapInstId": 69007,
            "aiGroupID": 133225069,
            "aiNeuronSetting": "DefaultSetting",
            "aiSensingTemplate": "DefaultTemplate",
            "disableWander": true,
            "DNENBFNCCHD": "",
            "AFJKALOGMGG": ""
        },
        {
            "groupId": 133225069,
            "mapInstId": 69013,
            "routeId": 322500004,
            "aiGroupID": 133225069,
            "aiNeuronSetting": "DefaultSetting",
            "aiSensingTemplate": "DefaultTemplate",
            "DNENBFNCCHD": "",
            "AFJKALOGMGG": ""
        },
        {
            "groupId": 133225069,
            "mapInstId": 69014,
            "aiGroupID": 133225069,
            "aiNeuronSetting": "DefaultSetting",
            "aiSensingTemplate": "DefaultTemplate",
            "disableWander": true,
            "DNENBFNCCHD": "",
            "AFJKALOGMGG": ""
        },
        {
            "groupId": 133225069,
            "mapInstId": 69015,
            "aiGroupID": 133225069,
            "aiNeuronSetting": "DefaultSetting",
            "aiSensingTemplate": "DefaultTemplate",
            "DNENBFNCCHD": "",
            "AFJKALOGMGG": ""
        },
        {
            "groupId": 133225069,
            "mapInstId": 69017,
            "aiGroupID": 133225069,
            "aiNeuronSetting": "DefaultSetting",
            "aiSensingTemplate": "DefaultTemplate",
            "disableWander": true,
            "DNENBFNCCHD": "",
            "AFJKALOGMGG": ""
        },
        {
            "groupId": 133225069,
            "mapInstId": 69018,
            "aiGroupID": 133225069,
            "aiNeuronSetting": "DefaultSetting",
            "aiSensingTemplate": "DefaultTemplate",
            "disableWander": true,
            "DNENBFNCCHD": "",
            "AFJKALOGMGG": ""
        },
        {
            "groupId": 133225069,
            "mapInstId": 69019,
            "aiGroupID": 133225069,
            "aiNeuronSetting": "DefaultSetting",
            "aiSensingTemplate": "DefaultTemplate",
            "DNENBFNCCHD": "",
            "AFJKALOGMGG": ""
        },
        {
            "groupId": 133225069,
            "mapInstId": 69022,
            "routeId": 322500005,
            "aiGroupID": 133225069,
            "aiNeuronSetting": "DefaultSetting",
            "aiSensingTemplate": "DefaultTemplate",
            "DNENBFNCCHD": "",
            "AFJKALOGMGG": ""
        },
        {
            "groupId": 133225069,
            "mapInstId": 69023,
            "aiGroupID": 133225069,
            "aiNeuronSetting": "DefaultSetting",
            "aiSensingTemplate": "DefaultTemplate",
            "disableWander": true,
            "DNENBFNCCHD": "",
            "AFJKALOGMGG": ""
        },
        {
            "groupId": 133225069,
            "mapInstId": 69024,
            "aiGroupID": 133225069,
            "aiNeuronSetting": "DefaultSetting",
            "aiSensingTemplate": "DefaultTemplate",
            "DNENBFNCCHD": "",
            "AFJKALOGMGG": ""
        },
        {
            "groupId": 133225070,
            "mapInstId": 70001,
            "aiGroupID": 133225070,
            "aiNeuronSetting": "DefaultSetting",
            "aiSensingTemplate": "DefaultTemplate",
            "disableWander": true,
            "DNENBFNCCHD": "",
            "AFJKALOGMGG": ""
        },
        {
            "groupId": 133225070,
            "mapInstId": 70002,
            "aiGroupID": 133225070,
            "aiNeuronSetting": "DefaultSetting",
            "aiSensingTemplate": "DefaultTemplate",
            "DNENBFNCCHD": "",
            "AFJKALOGMGG": ""
        },
        {
            "groupId": 133225070,
            "mapInstId": 70003,
            "aiGroupID": 133225070,
            "aiNeuronSetting": "DefaultSetting",
            "aiSensingTemplate": "DefaultTemplate",
            "disableWander": true,
            "DNENBFNCCHD": "",
            "AFJKALOGMGG": ""
        },
        {
            "groupId": 133225070,
            "mapInstId": 70014,
            "aiGroupID": 133225070,
            "aiNeuronSetting": "DefaultSetting",
            "aiSensingTemplate": "DefaultTemplate",
            "disableWander": true,
            "DNENBFNCCHD": "",
            "AFJKALOGMGG": ""
        },
        {
            "groupId": 133225070,
            "mapInstId": 70015,
            "aiGroupID": 133225070,
            "aiNeuronSetting": "DefaultSetting",
            "aiSensingTemplate": "DefaultTemplate",
            "disableWander": true,
            "DNENBFNCCHD": "",
            "AFJKALOGMGG": ""
        },
        {
            "groupId": 133225070,
            "mapInstId": 70016,
            "routeId": 322500006,
            "aiGroupID": 133225070,
            "aiNeuronSetting": "DefaultSetting",
            "aiSensingTemplate": "DefaultTemplate",
            "disableWander": true,
            "DNENBFNCCHD": "",
            "AFJKALOGMGG": ""
        },
        {
            "groupId": 133225070,
            "mapInstId": 70017,
            "aiGroupID": 133225070,
            "aiNeuronSetting": "DefaultSetting",
            "aiSensingTemplate": "DefaultTemplate",
            "disableWander": true,
            "DNENBFNCCHD": "",
            "AFJKALOGMGG": ""
        },
        {
            "groupId": 133225070,
            "mapInstId": 70018,
            "aiGroupID": 133225070,
            "aiNeuronSetting": "DefaultSetting",
            "aiSensingTemplate": "DefaultTemplate",
            "disableWander": true,
            "DNENBFNCCHD": "",
            "AFJKALOGMGG": ""
        },
        {
            "groupId": 133225070,
            "mapInstId": 70019,
            "aiGroupID": 133225070,
            "aiNeuronSetting": "DefaultSetting",
            "aiSensingTemplate": "DefaultTemplate",
            "disableWander": true,
            "DNENBFNCCHD": "",
            "AFJKALOGMGG": ""
        },
        {
            "groupId": 133225070,
            "mapInstId": 70020,
            "aiGroupID": 133225070,
            "aiNeuronSetting": "DefaultSetting",
            "aiSensingTemplate": "DefaultTemplate",
            "disableWander": true,
            "DNENBFNCCHD": "",
            "AFJKALOGMGG": ""
        },
        {
            "groupId": 133225070,
            "mapInstId": 70021,
            "aiGroupID": 133225070,
            "aiNeuronSetting": "DefaultSetting",
            "aiSensingTemplate": "DefaultTemplate",
            "disableWander": true,
            "DNENBFNCCHD": "",
            "AFJKALOGMGG": ""
        },
        {
            "groupId": 133225070,
            "mapInstId": 70022,
            "routeId": 322500034,
            "aiGroupID": 133225070,
            "aiNeuronSetting": "DefaultSetting",
            "aiSensingTemplate": "DefaultTemplate",
            "DNENBFNCCHD": "",
            "AFJKALOGMGG": ""
        },
        {
            "groupId": 133225070,
            "mapInstId": 70024,
            "routeId": 322500006,
            "aiGroupID": 133225070,
            "aiNeuronSetting": "DefaultSetting",
            "aiSensingTemplate": "DefaultTemplate",
            "disableWander": true,
            "DNENBFNCCHD": "",
            "AFJKALOGMGG": ""
        },
        {
            "groupId": 133225070,
            "mapInstId": 70026,
            "routeId": 322500034,
            "aiGroupID": 133225070,
            "aiNeuronSetting": "DefaultSetting",
            "aiSensingTemplate": "DefaultTemplate",
            "DNENBFNCCHD": "",
            "AFJKALOGMGG": ""
        },
        {
            "groupId": 133225070,
            "mapInstId": 70027,
            "aiGroupID": 133225070,
            "aiNeuronSetting": "DefaultSetting",
            "aiSensingTemplate": "DefaultTemplate",
            "disableWander": true,
            "DNENBFNCCHD": "",
            "AFJKALOGMGG": ""
        },
        {
            "groupId": 133223226,
            "mapInstId": 226001,
            "aiNeuronSetting": "DefaultSetting",
            "aiSensingTemplate": "DefaultTemplate",
            "forceCombatOnSpawn": true,
            "DNENBFNCCHD": "",
            "AFJKALOGMGG": ""
        },
        {
            "groupId": 133223322,
            "mapInstId": 322003,
            "aiGroupID": 133223322,
            "aiNeuronSetting": "DefaultSetting",
            "aiSensingTemplate": "HighFeelTemplate",
            "DNENBFNCCHD": "",
            "AFJKALOGMGG": ""
        },
        {
            "groupId": 133223322,
            "mapInstId": 322005,
            "aiGroupID": 133223322,
            "aiNeuronSetting": "DefaultSetting",
            "aiSensingTemplate": "HighAlertTemplate",
            "DNENBFNCCHD": "",
            "AFJKALOGMGG": ""
        },
        {
            "groupId": 133223322,
            "mapInstId": 322006,
            "aiGroupID": 133223322,
            "aiNeuronSetting": "DefaultSetting",
            "aiSensingTemplate": "HighFeelTemplate",
            "DNENBFNCCHD": "",
            "AFJKALOGMGG": ""
        },
        {
            "groupId": 133223322,
            "mapInstId": 322007,
            "aiGroupID": 133223322,
            "aiNeuronSetting": "DefaultSetting",
            "aiSensingTemplate": "HighFeelTemplate",
            "DNENBFNCCHD": "",
            "AFJKALOGMGG": ""
        },
        {
            "groupId": 133223322,
            "mapInstId": 322008,
            "aiGroupID": 133223322,
            "aiNeuronSetting": "DefaultSetting",
            "aiSensingTemplate": "HighAlertTemplate",
            "DNENBFNCCHD": "",
            "AFJKALOGMGG": ""
        },
        {
            "groupId": 133223322,
            "mapInstId": 322009,
            "aiGroupID": 133223322,
            "aiNeuronSetting": "DefaultSetting",
            "aiSensingTemplate": "HighAlertTemplate",
            "DNENBFNCCHD": "",
            "AFJKALOGMGG": ""
        },
        {
            "groupId": 133223322,
            "mapInstId": 322010,
            "aiGroupID": 133223322,
            "aiNeuronSetting": "DefaultSetting",
            "aiSensingTemplate": "HighFeelTemplate",
            "DNENBFNCCHD": "",
            "AFJKALOGMGG": ""
        },
        {
            "groupId": 133223322,
            "mapInstId": 322011,
            "aiGroupID": 133223322,
            "aiNeuronSetting": "DefaultSetting",
            "aiSensingTemplate": "HighFeelTemplate",
            "DNENBFNCCHD": "",
            "AFJKALOGMGG": ""
        }
    ]
}