{
    "sceneId": 35806,
    "monsters": [
        {
            "groupId": 235806002,
            "mapInstId": 2001,
            "HABGLDDDGMD": true,
            "LOLOLLGJHJK": 99.0,
            "IMGIMPGDOCN": true,
            "clearThreatTargetDistance": 99.0,
            "aiNeuronSetting": "DefaultSetting",
            "aiSensingTemplate": "DefaultTemplate",
            "forceCombatOnSpawn": true,
            "disableWander": true,
            "DNENBFNCCHD": "",
            "AFJKALOGMGG": ""
        },
        {
            "groupId": 235806002,
            "mapInstId": 2002,
            "HABGLDDDGMD": true,
            "LOLOLLGJHJK": 99.0,
            "IMGIMPGDOCN": true,
            "clearThreatTargetDistance": 99.0,
            "aiNeuronSetting": "DefaultSetting",
            "aiSensingTemplate": "DefaultTemplate",
            "forceCombatOnSpawn": true,
            "disableWander": true,
            "DNENBFNCCHD": "",
            "AFJKALOGMGG": ""
        },
        {
            "groupId": 235806002,
            "mapInstId": 2003,
            "HABGLDDDGMD": true,
            "LOLOLLGJHJK": 99.0,
            "IMGIMPGDOCN": true,
            "clearThreatTargetDistance": 99.0,
            "aiNeuronSetting": "DefaultSetting",
            "aiSensingTemplate": "DefaultTemplate",
            "forceCombatOnSpawn": true,
            "disableWander": true,
            "DNENBFNCCHD": "",
            "AFJKALOGMGG": ""
        },
        {
            "groupId": 235806002,
            "mapInstId": 2004,
            "HABGLDDDGMD": true,
            "LOLOLLGJHJK": 99.0,
            "IMGIMPGDOCN": true,
            "clearThreatTargetDistance": 99.0,
            "aiNeuronSetting": "DefaultSetting",
            "aiSensingTemplate": "DefaultTemplate",
            "forceCombatOnSpawn": true,
            "disableWander": true,
            "DNENBFNCCHD": "",
            "AFJKALOGMGG": ""
        },
        {
            "groupId": 235806002,
            "mapInstId": 2005,
            "HABGLDDDGMD": true,
            "LOLOLLGJHJK": 99.0,
            "IMGIMPGDOCN": true,
            "clearThreatTargetDistance": 99.0,
            "aiNeuronSetting": "DefaultSetting",
            "aiSensingTemplate": "DefaultTemplate",
            "forceCombatOnSpawn": true,
            "disableWander": true,
            "DNENBFNCCHD": "",
            "AFJKALOGMGG": ""
        },
        {
            "groupId": 235806002,
            "mapInstId": 2006,
            "HABGLDDDGMD": true,
            "LOLOLLGJHJK": 99.0,
            "IMGIMPGDOCN": true,
            "clearThreatTargetDistance": 99.0,
            "aiNeuronSetting": "DefaultSetting",
            "aiSensingTemplate": "DefaultTemplate",
            "forceCombatOnSpawn": true,
            "disableWander": true,
            "DNENBFNCCHD": "",
            "AFJKALOGMGG": ""
        },
        {
            "groupId": 235806002,
            "mapInstId": 2007,
            "HABGLDDDGMD": true,
            "LOLOLLGJHJK": 99.0,
            "IMGIMPGDOCN": true,
            "clearThreatTargetDistance": 99.0,
            "aiNeuronSetting": "DefaultSetting",
            "aiSensingTemplate": "DefaultTemplate",
            "forceCombatOnSpawn": true,
            "disableWander": true,
            "DNENBFNCCHD": "",
            "AFJKALOGMGG": ""
        },
        {
            "groupId": 235806002,
            "mapInstId": 2008,
            "HABGLDDDGMD": true,
            "LOLOLLGJHJK": 99.0,
            "IMGIMPGDOCN": true,
            "clearThreatTargetDistance": 99.0,
            "aiNeuronSetting": "DefaultSetting",
            "aiSensingTemplate": "DefaultTemplate",
            "forceCombatOnSpawn": true,
            "disableWander": true,
            "DNENBFNCCHD": "",
            "AFJKALOGMGG": ""
        },
        {
            "groupId": 235806002,
            "mapInstId": 2009,
            "HABGLDDDGMD": true,
            "LOLOLLGJHJK": 99.0,
            "IMGIMPGDOCN": true,
            "clearThreatTargetDistance": 99.0,
            "aiNeuronSetting": "DefaultSetting",
            "aiSensingTemplate": "DefaultTemplate",
            "forceCombatOnSpawn": true,
            "disableWander": true,
            "DNENBFNCCHD": "",
            "AFJKALOGMGG": ""
        },
        {
            "groupId": 235806002,
            "mapInstId": 2010,
            "HABGLDDDGMD": true,
            "LOLOLLGJHJK": 99.0,
            "IMGIMPGDOCN": true,
            "clearThreatTargetDistance": 99.0,
            "aiNeuronSetting": "DefaultSetting",
            "aiSensingTemplate": "DefaultTemplate",
            "forceCombatOnSpawn": true,
            "disableWander": true,
            "DNENBFNCCHD": "",
            "AFJKALOGMGG": ""
        },
        {
            "groupId": 235806002,
            "mapInstId": 2011,
            "HABGLDDDGMD": true,
            "LOLOLLGJHJK": 99.0,
            "IMGIMPGDOCN": true,
            "clearThreatTargetDistance": 99.0,
            "aiNeuronSetting": "DefaultSetting",
            "aiSensingTemplate": "DefaultTemplate",
            "forceCombatOnSpawn": true,
            "disableWander": true,
            "DNENBFNCCHD": "",
            "AFJKALOGMGG": ""
        },
        {
            "groupId": 235806002,
            "mapInstId": 2012,
            "HABGLDDDGMD": true,
            "LOLOLLGJHJK": 99.0,
            "IMGIMPGDOCN": true,
            "clearThreatTargetDistance": 99.0,
            "aiNeuronSetting": "DefaultSetting",
            "aiSensingTemplate": "DefaultTemplate",
            "forceCombatOnSpawn": true,
            "disableWander": true,
            "DNENBFNCCHD": "",
            "AFJKALOGMGG": ""
        },
        {
            "groupId": 235806002,
            "mapInstId": 2013,
            "HABGLDDDGMD": true,
            "LOLOLLGJHJK": 99.0,
            "IMGIMPGDOCN": true,
            "clearThreatTargetDistance": 99.0,
            "aiNeuronSetting": "DefaultSetting",
            "aiSensingTemplate": "DefaultTemplate",
            "forceCombatOnSpawn": true,
            "disableWander": true,
            "DNENBFNCCHD": "",
            "AFJKALOGMGG": ""
        },
        {
            "groupId": 235806002,
            "mapInstId": 2014,
            "HABGLDDDGMD": true,
            "LOLOLLGJHJK": 99.0,
            "IMGIMPGDOCN": true,
            "clearThreatTargetDistance": 99.0,
            "aiNeuronSetting": "DefaultSetting",
            "aiSensingTemplate": "DefaultTemplate",
            "forceCombatOnSpawn": true,
            "disableWander": true,
            "DNENBFNCCHD": "",
            "AFJKALOGMGG": ""
        },
        {
            "groupId": 235806002,
            "mapInstId": 2015,
            "HABGLDDDGMD": true,
            "LOLOLLGJHJK": 99.0,
            "IMGIMPGDOCN": true,
            "clearThreatTargetDistance": 99.0,
            "aiNeuronSetting": "DefaultSetting",
            "aiSensingTemplate": "DefaultTemplate",
            "forceCombatOnSpawn": true,
            "disableWander": true,
            "DNENBFNCCHD": "",
            "AFJKALOGMGG": ""
        },
        {
            "groupId": 235806002,
            "mapInstId": 2016,
            "HABGLDDDGMD": true,
            "LOLOLLGJHJK": 99.0,
            "IMGIMPGDOCN": true,
            "clearThreatTargetDistance": 99.0,
            "aiNeuronSetting": "DefaultSetting",
            "aiSensingTemplate": "DefaultTemplate",
            "forceCombatOnSpawn": true,
            "disableWander": true,
            "DNENBFNCCHD": "",
            "AFJKALOGMGG": ""
        },
        {
            "groupId": 235806002,
            "mapInstId": 2017,
            "HABGLDDDGMD": true,
            "LOLOLLGJHJK": 99.0,
            "IMGIMPGDOCN": true,
            "clearThreatTargetDistance": 99.0,
            "aiNeuronSetting": "DefaultSetting",
            "aiSensingTemplate": "DefaultTemplate",
            "forceCombatOnSpawn": true,
            "disableWander": true,
            "DNENBFNCCHD": "",
            "AFJKALOGMGG": ""
        },
        {
            "groupId": 235806002,
            "mapInstId": 2018,
            "HABGLDDDGMD": true,
            "LOLOLLGJHJK": 99.0,
            "IMGIMPGDOCN": true,
            "clearThreatTargetDistance": 99.0,
            "aiNeuronSetting": "DefaultSetting",
            "aiSensingTemplate": "DefaultTemplate",
            "forceCombatOnSpawn": true,
            "disableWander": true,
            "DNENBFNCCHD": "",
            "AFJKALOGMGG": ""
        },
        {
            "groupId": 235806002,
            "mapInstId": 2019,
            "HABGLDDDGMD": true,
            "LOLOLLGJHJK": 99.0,
            "IMGIMPGDOCN": true,
            "clearThreatTargetDistance": 99.0,
            "aiNeuronSetting": "DefaultSetting",
            "aiSensingTemplate": "DefaultTemplate",
            "forceCombatOnSpawn": true,
            "disableWander": true,
            "DNENBFNCCHD": "",
            "AFJKALOGMGG": ""
        },
        {
            "groupId": 235806002,
            "mapInstId": 2020,
            "HABGLDDDGMD": true,
            "LOLOLLGJHJK": 99.0,
            "IMGIMPGDOCN": true,
            "clearThreatTargetDistance": 99.0,
            "aiNeuronSetting": "DefaultSetting",
            "aiSensingTemplate": "DefaultTemplate",
            "forceCombatOnSpawn": true,
            "disableWander": true,
            "DNENBFNCCHD": "",
            "AFJKALOGMGG": ""
        },
        {
            "groupId": 235806002,
            "mapInstId": 2030,
            "HABGLDDDGMD": true,
            "LOLOLLGJHJK": 99.0,
            "IMGIMPGDOCN": true,
            "clearThreatTargetDistance": 99.0,
            "aiNeuronSetting": "DefaultSetting",
            "aiSensingTemplate": "DefaultTemplate",
            "forceCombatOnSpawn": true,
            "disableWander": true,
            "DNENBFNCCHD": "",
            "AFJKALOGMGG": ""
        },
        {
            "groupId": 235806002,
            "mapInstId": 2031,
            "HABGLDDDGMD": true,
            "LOLOLLGJHJK": 99.0,
            "IMGIMPGDOCN": true,
            "clearThreatTargetDistance": 99.0,
            "aiNeuronSetting": "DefaultSetting",
            "aiSensingTemplate": "DefaultTemplate",
            "forceCombatOnSpawn": true,
            "disableWander": true,
            "DNENBFNCCHD": "",
            "AFJKALOGMGG": ""
        },
        {
            "groupId": 235806002,
            "mapInstId": 2032,
            "HABGLDDDGMD": true,
            "LOLOLLGJHJK": 99.0,
            "IMGIMPGDOCN": true,
            "clearThreatTargetDistance": 99.0,
            "aiNeuronSetting": "DefaultSetting",
            "aiSensingTemplate": "DefaultTemplate",
            "forceCombatOnSpawn": true,
            "disableWander": true,
            "DNENBFNCCHD": "",
            "AFJKALOGMGG": ""
        },
        {
            "groupId": 235806002,
            "mapInstId": 2038,
            "HABGLDDDGMD": true,
            "LOLOLLGJHJK": 99.0,
            "IMGIMPGDOCN": true,
            "clearThreatTargetDistance": 99.0,
            "aiNeuronSetting": "DefaultSetting",
            "aiSensingTemplate": "DefaultTemplate",
            "forceCombatOnSpawn": true,
            "disableWander": true,
            "DNENBFNCCHD": "",
            "AFJKALOGMGG": ""
        },
        {
            "groupId": 235806002,
            "mapInstId": 2039,
            "HABGLDDDGMD": true,
            "LOLOLLGJHJK": 99.0,
            "IMGIMPGDOCN": true,
            "clearThreatTargetDistance": 99.0,
            "aiNeuronSetting": "DefaultSetting",
            "aiSensingTemplate": "DefaultTemplate",
            "forceCombatOnSpawn": true,
            "disableWander": true,
            "DNENBFNCCHD": "",
            "AFJKALOGMGG": ""
        },
        {
            "groupId": 235806002,
            "mapInstId": 2040,
            "HABGLDDDGMD": true,
            "LOLOLLGJHJK": 99.0,
            "IMGIMPGDOCN": true,
            "clearThreatTargetDistance": 99.0,
            "aiNeuronSetting": "DefaultSetting",
            "aiSensingTemplate": "DefaultTemplate",
            "forceCombatOnSpawn": true,
            "disableWander": true,
            "DNENBFNCCHD": "",
            "AFJKALOGMGG": ""
        },
        {
            "groupId": 235806002,
            "mapInstId": 2041,
            "HABGLDDDGMD": true,
            "LOLOLLGJHJK": 99.0,
            "IMGIMPGDOCN": true,
            "clearThreatTargetDistance": 99.0,
            "aiNeuronSetting": "DefaultSetting",
            "aiSensingTemplate": "DefaultTemplate",
            "forceCombatOnSpawn": true,
            "disableWander": true,
            "DNENBFNCCHD": "",
            "AFJKALOGMGG": ""
        },
        {
            "groupId": 235806002,
            "mapInstId": 2042,
            "HABGLDDDGMD": true,
            "LOLOLLGJHJK": 99.0,
            "IMGIMPGDOCN": true,
            "clearThreatTargetDistance": 99.0,
            "aiNeuronSetting": "DefaultSetting",
            "aiSensingTemplate": "DefaultTemplate",
            "forceCombatOnSpawn": true,
            "disableWander": true,
            "DNENBFNCCHD": "",
            "AFJKALOGMGG": ""
        },
        {
            "groupId": 235806002,
            "mapInstId": 2043,
            "HABGLDDDGMD": true,
            "LOLOLLGJHJK": 99.0,
            "IMGIMPGDOCN": true,
            "clearThreatTargetDistance": 99.0,
            "aiNeuronSetting": "DefaultSetting",
            "aiSensingTemplate": "DefaultTemplate",
            "forceCombatOnSpawn": true,
            "disableWander": true,
            "DNENBFNCCHD": "",
            "AFJKALOGMGG": ""
        },
        {
            "groupId": 235806002,
            "mapInstId": 2044,
            "HABGLDDDGMD": true,
            "LOLOLLGJHJK": 99.0,
            "IMGIMPGDOCN": true,
            "clearThreatTargetDistance": 99.0,
            "aiNeuronSetting": "DefaultSetting",
            "aiSensingTemplate": "DefaultTemplate",
            "forceCombatOnSpawn": true,
            "disableWander": true,
            "DNENBFNCCHD": "",
            "AFJKALOGMGG": ""
        },
        {
            "groupId": 235806002,
            "mapInstId": 2045,
            "HABGLDDDGMD": true,
            "LOLOLLGJHJK": 99.0,
            "IMGIMPGDOCN": true,
            "clearThreatTargetDistance": 99.0,
            "aiNeuronSetting": "DefaultSetting",
            "aiSensingTemplate": "DefaultTemplate",
            "forceCombatOnSpawn": true,
            "disableWander": true,
            "DNENBFNCCHD": "",
            "AFJKALOGMGG": ""
        },
        {
            "groupId": 235806002,
            "mapInstId": 2046,
            "HABGLDDDGMD": true,
            "LOLOLLGJHJK": 99.0,
            "IMGIMPGDOCN": true,
            "clearThreatTargetDistance": 99.0,
            "aiNeuronSetting": "DefaultSetting",
            "aiSensingTemplate": "DefaultTemplate",
            "forceCombatOnSpawn": true,
            "disableWander": true,
            "DNENBFNCCHD": "",
            "AFJKALOGMGG": ""
        },
        {
            "groupId": 235806002,
            "mapInstId": 2047,
            "HABGLDDDGMD": true,
            "LOLOLLGJHJK": 99.0,
            "IMGIMPGDOCN": true,
            "clearThreatTargetDistance": 99.0,
            "aiNeuronSetting": "DefaultSetting",
            "aiSensingTemplate": "DefaultTemplate",
            "forceCombatOnSpawn": true,
            "disableWander": true,
            "DNENBFNCCHD": "",
            "AFJKALOGMGG": ""
        }
    ]
}