{
    "sceneId": 40804,
    "monsters": [
        {
            "groupId": 240804001,
            "mapInstId": 1008,
            "aiGroupID": 240804001,
            "HABGLDDDGMD": true,
            "LOLOLLGJHJK": 999.0,
            "IMGIMPGDOCN": true,
            "clearThreatTargetDistance": 999.0,
            "aiNeuronSetting": "DefaultSetting",
            "aiSensingTemplate": "DefaultTemplate",
            "forceCombatOnSpawn": true,
            "DNENBFNCCHD": "",
            "AFJKALOGMGG": ""
        },
        {
            "groupId": 240804001,
            "mapInstId": 1009,
            "aiGroupID": 240804001,
            "HABGLDDDGMD": true,
            "LOLOLLGJHJK": 999.0,
            "IMGIMPGDOCN": true,
            "clearThreatTargetDistance": 999.0,
            "aiNeuronSetting": "DefaultSetting",
            "aiSensingTemplate": "DefaultTemplate",
            "forceCombatOnSpawn": true,
            "DNENBFNCCHD": "",
            "AFJKALOGMGG": ""
        },
        {
            "groupId": 240804001,
            "mapInstId": 1010,
            "aiGroupID": 240804001,
            "HABGLDDDGMD": true,
            "LOLOLLGJHJK": 999.0,
            "IMGIMPGDOCN": true,
            "clearThreatTargetDistance": 999.0,
            "aiNeuronSetting": "DefaultSetting",
            "aiSensingTemplate": "DefaultTemplate",
            "forceCombatOnSpawn": true,
            "DNENBFNCCHD": "",
            "AFJKALOGMGG": ""
        },
        {
            "groupId": 240804001,
            "mapInstId": 1011,
            "aiGroupID": 240804001,
            "HABGLDDDGMD": true,
            "LOLOLLGJHJK": 999.0,
            "IMGIMPGDOCN": true,
            "clearThreatTargetDistance": 999.0,
            "aiNeuronSetting": "DefaultSetting",
            "aiSensingTemplate": "DefaultTemplate",
            "forceCombatOnSpawn": true,
            "DNENBFNCCHD": "",
            "AFJKALOGMGG": ""
        }
    ]
}