{
    "sceneId": 34725,
    "monsters": [
        {
            "groupId": 234725007,
            "mapInstId": 7001,
            "aiGroupID": 234725007,
            "HABGLDDDGMD": true,
            "LOLOLLGJHJK": 999.0,
            "IMGIMPGDOCN": true,
            "clearThreatTargetDistance": 999.0,
            "aiNeuronSetting": "DefaultSetting",
            "aiSensingTemplate": "DefaultTemplate",
            "forceCombatOnSpawn": true,
            "disableWander": true,
            "DNENBFNCCHD": "",
            "AFJKALOGMGG": ""
        },
        {
            "groupId": 234725007,
            "mapInstId": 7002,
            "aiGroupID": 234725007,
            "HABGLDDDGMD": true,
            "LOLOLLGJHJK": 999.0,
            "IMGIMPGDOCN": true,
            "clearThreatTargetDistance": 999.0,
            "aiNeuronSetting": "DefaultSetting",
            "aiSensingTemplate": "DefaultTemplate",
            "forceCombatOnSpawn": true,
            "disableWander": true,
            "DNENBFNCCHD": "",
            "AFJKALOGMGG": ""
        },
        {
            "groupId": 234725007,
            "mapInstId": 7003,
            "aiGroupID": 234725007,
            "HABGLDDDGMD": true,
            "LOLOLLGJHJK": 999.0,
            "IMGIMPGDOCN": true,
            "clearThreatTargetDistance": 999.0,
            "aiNeuronSetting": "DefaultSetting",
            "aiSensingTemplate": "DefaultTemplate",
            "forceCombatOnSpawn": true,
            "disableWander": true,
            "DNENBFNCCHD": "",
            "AFJKALOGMGG": ""
        },
        {
            "groupId": 234725007,
            "mapInstId": 7004,
            "aiGroupID": 234725007,
            "HABGLDDDGMD": true,
            "LOLOLLGJHJK": 999.0,
            "IMGIMPGDOCN": true,
            "clearThreatTargetDistance": 999.0,
            "aiNeuronSetting": "DefaultSetting",
            "aiSensingTemplate": "DefaultTemplate",
            "forceCombatOnSpawn": true,
            "disableWander": true,
            "DNENBFNCCHD": "",
            "AFJKALOGMGG": ""
        },
        {
            "groupId": 234725007,
            "mapInstId": 7008,
            "aiGroupID": 234725007,
            "HABGLDDDGMD": true,
            "LOLOLLGJHJK": 999.0,
            "IMGIMPGDOCN": true,
            "clearThreatTargetDistance": 999.0,
            "aiNeuronSetting": "DefaultSetting",
            "aiSensingTemplate": "DefaultTemplate",
            "forceCombatOnSpawn": true,
            "disableWander": true,
            "DNENBFNCCHD": "",
            "AFJKALOGMGG": ""
        },
        {
            "groupId": 234725007,
            "mapInstId": 7009,
            "aiGroupID": 234725007,
            "HABGLDDDGMD": true,
            "LOLOLLGJHJK": 999.0,
            "IMGIMPGDOCN": true,
            "clearThreatTargetDistance": 999.0,
            "aiNeuronSetting": "DefaultSetting",
            "aiSensingTemplate": "DefaultTemplate",
            "forceCombatOnSpawn": true,
            "disableWander": true,
            "DNENBFNCCHD": "",
            "AFJKALOGMGG": ""
        },
        {
            "groupId": 234725007,
            "mapInstId": 7011,
            "aiGroupID": 234725007,
            "HABGLDDDGMD": true,
            "LOLOLLGJHJK": 999.0,
            "IMGIMPGDOCN": true,
            "clearThreatTargetDistance": 999.0,
            "aiNeuronSetting": "DefaultSetting",
            "aiSensingTemplate": "DefaultTemplate",
            "forceCombatOnSpawn": true,
            "disableWander": true,
            "DNENBFNCCHD": "",
            "AFJKALOGMGG": ""
        },
        {
            "groupId": 234725007,
            "mapInstId": 7012,
            "aiGroupID": 234725007,
            "HABGLDDDGMD": true,
            "LOLOLLGJHJK": 999.0,
            "IMGIMPGDOCN": true,
            "clearThreatTargetDistance": 999.0,
            "aiNeuronSetting": "DefaultSetting",
            "aiSensingTemplate": "DefaultTemplate",
            "forceCombatOnSpawn": true,
            "disableWander": true,
            "DNENBFNCCHD": "",
            "AFJKALOGMGG": ""
        },
        {
            "groupId": 234725007,
            "mapInstId": 7016,
            "aiGroupID": 234725007,
            "HABGLDDDGMD": true,
            "LOLOLLGJHJK": 999.0,
            "IMGIMPGDOCN": true,
            "clearThreatTargetDistance": 999.0,
            "aiNeuronSetting": "DefaultSetting",
            "aiSensingTemplate": "DefaultTemplate",
            "forceCombatOnSpawn": true,
            "disableWander": true,
            "DNENBFNCCHD": "",
            "AFJKALOGMGG": ""
        },
        {
            "groupId": 234725007,
            "mapInstId": 7017,
            "aiGroupID": 234725007,
            "HABGLDDDGMD": true,
            "LOLOLLGJHJK": 999.0,
            "IMGIMPGDOCN": true,
            "clearThreatTargetDistance": 999.0,
            "aiNeuronSetting": "DefaultSetting",
            "aiSensingTemplate": "DefaultTemplate",
            "forceCombatOnSpawn": true,
            "disableWander": true,
            "DNENBFNCCHD": "",
            "AFJKALOGMGG": ""
        },
        {
            "groupId": 234725007,
            "mapInstId": 7018,
            "aiGroupID": 234725007,
            "HABGLDDDGMD": true,
            "LOLOLLGJHJK": 999.0,
            "IMGIMPGDOCN": true,
            "clearThreatTargetDistance": 999.0,
            "aiNeuronSetting": "DefaultSetting",
            "aiSensingTemplate": "DefaultTemplate",
            "forceCombatOnSpawn": true,
            "disableWander": true,
            "DNENBFNCCHD": "",
            "AFJKALOGMGG": ""
        },
        {
            "groupId": 234725007,
            "mapInstId": 7019,
            "aiGroupID": 234725007,
            "HABGLDDDGMD": true,
            "LOLOLLGJHJK": 999.0,
            "IMGIMPGDOCN": true,
            "clearThreatTargetDistance": 999.0,
            "aiNeuronSetting": "DefaultSetting",
            "aiSensingTemplate": "DefaultTemplate",
            "forceCombatOnSpawn": true,
            "disableWander": true,
            "DNENBFNCCHD": "",
            "AFJKALOGMGG": ""
        },
        {
            "groupId": 234725007,
            "mapInstId": 7020,
            "aiGroupID": 234725007,
            "HABGLDDDGMD": true,
            "LOLOLLGJHJK": 999.0,
            "IMGIMPGDOCN": true,
            "clearThreatTargetDistance": 999.0,
            "aiNeuronSetting": "DefaultSetting",
            "aiSensingTemplate": "DefaultTemplate",
            "forceCombatOnSpawn": true,
            "disableWander": true,
            "DNENBFNCCHD": "",
            "AFJKALOGMGG": ""
        },
        {
            "groupId": 234725008,
            "mapInstId": 8001,
            "aiGroupID": 234725008,
            "HABGLDDDGMD": true,
            "LOLOLLGJHJK": 999.0,
            "IMGIMPGDOCN": true,
            "clearThreatTargetDistance": 999.0,
            "aiNeuronSetting": "DefaultSetting",
            "aiSensingTemplate": "DefaultTemplate",
            "forceCombatOnSpawn": true,
            "disableWander": true,
            "DNENBFNCCHD": "",
            "AFJKALOGMGG": ""
        },
        {
            "groupId": 234725008,
            "mapInstId": 8002,
            "aiGroupID": 234725008,
            "HABGLDDDGMD": true,
            "LOLOLLGJHJK": 999.0,
            "IMGIMPGDOCN": true,
            "clearThreatTargetDistance": 999.0,
            "aiNeuronSetting": "DefaultSetting",
            "aiSensingTemplate": "DefaultTemplate",
            "forceCombatOnSpawn": true,
            "disableWander": true,
            "DNENBFNCCHD": "",
            "AFJKALOGMGG": ""
        },
        {
            "groupId": 234725008,
            "mapInstId": 8003,
            "aiGroupID": 234725008,
            "HABGLDDDGMD": true,
            "LOLOLLGJHJK": 999.0,
            "IMGIMPGDOCN": true,
            "clearThreatTargetDistance": 999.0,
            "aiNeuronSetting": "DefaultSetting",
            "aiSensingTemplate": "DefaultTemplate",
            "forceCombatOnSpawn": true,
            "disableWander": true,
            "DNENBFNCCHD": "",
            "AFJKALOGMGG": ""
        },
        {
            "groupId": 234725008,
            "mapInstId": 8011,
            "aiGroupID": 234725008,
            "HABGLDDDGMD": true,
            "LOLOLLGJHJK": 999.0,
            "IMGIMPGDOCN": true,
            "clearThreatTargetDistance": 999.0,
            "aiNeuronSetting": "DefaultSetting",
            "aiSensingTemplate": "DefaultTemplate",
            "forceCombatOnSpawn": true,
            "disableWander": true,
            "DNENBFNCCHD": "",
            "AFJKALOGMGG": ""
        },
        {
            "groupId": 234725008,
            "mapInstId": 8014,
            "aiGroupID": 234725008,
            "HABGLDDDGMD": true,
            "LOLOLLGJHJK": 999.0,
            "IMGIMPGDOCN": true,
            "clearThreatTargetDistance": 999.0,
            "aiNeuronSetting": "DefaultSetting",
            "aiSensingTemplate": "DefaultTemplate",
            "forceCombatOnSpawn": true,
            "disableWander": true,
            "DNENBFNCCHD": "",
            "AFJKALOGMGG": ""
        },
        {
            "groupId": 234725008,
            "mapInstId": 8015,
            "aiGroupID": 234725008,
            "HABGLDDDGMD": true,
            "LOLOLLGJHJK": 999.0,
            "IMGIMPGDOCN": true,
            "clearThreatTargetDistance": 999.0,
            "aiNeuronSetting": "DefaultSetting",
            "aiSensingTemplate": "DefaultTemplate",
            "forceCombatOnSpawn": true,
            "disableWander": true,
            "DNENBFNCCHD": "",
            "AFJKALOGMGG": ""
        },
        {
            "groupId": 234725008,
            "mapInstId": 8016,
            "aiGroupID": 234725008,
            "HABGLDDDGMD": true,
            "LOLOLLGJHJK": 999.0,
            "IMGIMPGDOCN": true,
            "clearThreatTargetDistance": 999.0,
            "aiNeuronSetting": "DefaultSetting",
            "aiSensingTemplate": "DefaultTemplate",
            "forceCombatOnSpawn": true,
            "disableWander": true,
            "DNENBFNCCHD": "",
            "AFJKALOGMGG": ""
        },
        {
            "groupId": 234725008,
            "mapInstId": 8017,
            "aiGroupID": 234725008,
            "HABGLDDDGMD": true,
            "LOLOLLGJHJK": 999.0,
            "IMGIMPGDOCN": true,
            "clearThreatTargetDistance": 999.0,
            "aiNeuronSetting": "DefaultSetting",
            "aiSensingTemplate": "DefaultTemplate",
            "forceCombatOnSpawn": true,
            "disableWander": true,
            "DNENBFNCCHD": "",
            "AFJKALOGMGG": ""
        }
    ]
}