{
    "sceneId": 20154,
    "monsters": [
        {
            "groupId": 220154001,
            "mapInstId": 1001,
            "aiGroupID": 220154001,
            "aiNeuronSetting": "DefaultSetting",
            "aiSensingTemplate": "DefaultTemplate",
            "billboardHasUIBar": true,
            "billboardUIBarNeedEnterCombat": true,
            "DNENBFNCCHD": "",
            "AFJKALOGMGG": ""
        },
        {
            "groupId": 220154001,
            "mapInstId": 1002,
            "aiGroupID": 220154001,
            "aiNeuronSetting": "DefaultSetting",
            "aiSensingTemplate": "DefaultTemplate",
            "billboardHasUIBar": true,
            "billboardUIBarNeedEnterCombat": true,
            "DNENBFNCCHD": "",
            "AFJKALOGMGG": ""
        }
    ]
}