{
    "sceneId": 20107,
    "monsters": [
        {
            "groupId": 220107001,
            "mapInstId": 1001,
            "aiNeuronSetting": "DefaultSetting",
            "aiSensingTemplate": "DefaultTemplate",
            "billboardHasUIBar": true,
            "DNENBFNCCHD": "",
            "AFJKALOGMGG": ""
        }
    ]
}