{
    "sceneId": 30104,
    "monsters": [
        {
            "groupId": 230104003,
            "mapInstId": 3004,
            "aiGroupID": 230104003,
            "aiNeuronSetting": "DefaultSetting",
            "aiSensingTemplate": "DefaultTemplate",
            "forceCombatOnSpawn": true,
            "DNENBFNCCHD": "",
            "AFJKALOGMGG": ""
        },
        {
            "groupId": 230104003,
            "mapInstId": 3005,
            "aiGroupID": 230104003,
            "aiNeuronSetting": "DefaultSetting",
            "aiSensingTemplate": "DefaultTemplate",
            "forceCombatOnSpawn": true,
            "DNENBFNCCHD": "",
            "AFJKALOGMGG": ""
        }
    ]
}