{
    "sceneId": 40009,
    "monsters": [
        {
            "groupId": 240009005,
            "mapInstId": 5001,
            "aiNeuronSetting": "DefaultSetting",
            "aiSensingTemplate": "DefaultTemplate",
            "disableWander": true,
            "DNENBFNCCHD": "",
            "AFJKALOGMGG": ""
        },
        {
            "groupId": 240009005,
            "mapInstId": 5003,
            "aiNeuronSetting": "DefaultSetting",
            "aiSensingTemplate": "DefaultTemplate",
            "disableWander": true,
            "DNENBFNCCHD": "",
            "AFJKALOGMGG": ""
        }
    ]
}