{
    "sceneId": 40604,
    "monsters": [
        {
            "groupId": 240604010,
            "mapInstId": 10001,
            "aiGroupID": 240604010,
            "HABGLDDDGMD": true,
            "LOLOLLGJHJK": 999.0,
            "IMGIMPGDOCN": true,
            "clearThreatTargetDistance": 999.0,
            "aiNeuronSetting": "DefaultSetting",
            "aiSensingTemplate": "DefaultTemplate",
            "forceCombatOnSpawn": true,
            "DNENBFNCCHD": "",
            "AFJKALOGMGG": ""
        },
        {
            "groupId": 240604010,
            "mapInstId": 10002,
            "aiGroupID": 240604010,
            "HABGLDDDGMD": true,
            "LOLOLLGJHJK": 999.0,
            "IMGIMPGDOCN": true,
            "clearThreatTargetDistance": 999.0,
            "aiNeuronSetting": "DefaultSetting",
            "aiSensingTemplate": "DefaultTemplate",
            "forceCombatOnSpawn": true,
            "DNENBFNCCHD": "",
            "AFJKALOGMGG": ""
        },
        {
            "groupId": 240604010,
            "mapInstId": 10003,
            "aiGroupID": 240604010,
            "HABGLDDDGMD": true,
            "LOLOLLGJHJK": 999.0,
            "IMGIMPGDOCN": true,
            "clearThreatTargetDistance": 999.0,
            "aiNeuronSetting": "DefaultSetting",
            "aiSensingTemplate": "DefaultTemplate",
            "forceCombatOnSpawn": true,
            "DNENBFNCCHD": "",
            "AFJKALOGMGG": ""
        }
    ]
}