{
    "sceneId": 41003,
    "monsters": [
        {
            "groupId": 241003003,
            "mapInstId": 3001,
            "aiGroupID": 241003003,
            "aiNeuronSetting": "DefaultSetting",
            "aiSensingTemplate": "DefaultTemplate",
            "forceCombatOnSpawn": true,
            "DNENBFNCCHD": "",
            "AFJKALOGMGG": ""
        },
        {
            "groupId": 241003003,
            "mapInstId": 3002,
            "aiGroupID": 241003003,
            "aiNeuronSetting": "DefaultSetting",
            "aiSensingTemplate": "DefaultTemplate",
            "forceCombatOnSpawn": true,
            "DNENBFNCCHD": "",
            "AFJKALOGMGG": ""
        },
        {
            "groupId": 241003003,
            "mapInstId": 3003,
            "aiGroupID": 241003003,
            "aiNeuronSetting": "DefaultSetting",
            "aiSensingTemplate": "DefaultTemplate",
            "forceCombatOnSpawn": true,
            "DNENBFNCCHD": "",
            "AFJKALOGMGG": ""
        },
        {
            "groupId": 241003003,
            "mapInstId": 3004,
            "aiGroupID": 241003003,
            "aiNeuronSetting": "DefaultSetting",
            "aiSensingTemplate": "DefaultTemplate",
            "forceCombatOnSpawn": true,
            "DNENBFNCCHD": "",
            "AFJKALOGMGG": ""
        },
        {
            "groupId": 241003003,
            "mapInstId": 3005,
            "aiGroupID": 241003003,
            "aiNeuronSetting": "DefaultSetting",
            "aiSensingTemplate": "DefaultTemplate",
            "forceCombatOnSpawn": true,
            "DNENBFNCCHD": "",
            "AFJKALOGMGG": ""
        },
        {
            "groupId": 241003003,
            "mapInstId": 3006,
            "aiGroupID": 241003003,
            "aiNeuronSetting": "DefaultSetting",
            "aiSensingTemplate": "DefaultTemplate",
            "forceCombatOnSpawn": true,
            "DNENBFNCCHD": "",
            "AFJKALOGMGG": ""
        },
        {
            "groupId": 241003003,
            "mapInstId": 3007,
            "aiGroupID": 241003003,
            "aiNeuronSetting": "DefaultSetting",
            "aiSensingTemplate": "DefaultTemplate",
            "forceCombatOnSpawn": true,
            "DNENBFNCCHD": "",
            "AFJKALOGMGG": ""
        },
        {
            "groupId": 241003003,
            "mapInstId": 3008,
            "aiGroupID": 241003003,
            "aiNeuronSetting": "DefaultSetting",
            "aiSensingTemplate": "DefaultTemplate",
            "forceCombatOnSpawn": true,
            "DNENBFNCCHD": "",
            "AFJKALOGMGG": ""
        },
        {
            "groupId": 241003003,
            "mapInstId": 3009,
            "aiGroupID": 241003003,
            "aiNeuronSetting": "DefaultSetting",
            "aiSensingTemplate": "DefaultTemplate",
            "forceCombatOnSpawn": true,
            "DNENBFNCCHD": "",
            "AFJKALOGMGG": ""
        },
        {
            "groupId": 241003003,
            "mapInstId": 3011,
            "aiGroupID": 241003003,
            "aiNeuronSetting": "DefaultSetting",
            "aiSensingTemplate": "DefaultTemplate",
            "forceCombatOnSpawn": true,
            "DNENBFNCCHD": "",
            "AFJKALOGMGG": ""
        },
        {
            "groupId": 241003003,
            "mapInstId": 3013,
            "aiGroupID": 241003003,
            "aiNeuronSetting": "DefaultSetting",
            "aiSensingTemplate": "DefaultTemplate",
            "forceCombatOnSpawn": true,
            "DNENBFNCCHD": "",
            "AFJKALOGMGG": ""
        },
        {
            "groupId": 241003003,
            "mapInstId": 3014,
            "aiGroupID": 241003003,
            "aiNeuronSetting": "DefaultSetting",
            "aiSensingTemplate": "DefaultTemplate",
            "forceCombatOnSpawn": true,
            "DNENBFNCCHD": "",
            "AFJKALOGMGG": ""
        },
        {
            "groupId": 241003003,
            "mapInstId": 3019,
            "aiGroupID": 241003003,
            "aiNeuronSetting": "DefaultSetting",
            "aiSensingTemplate": "DefaultTemplate",
            "forceCombatOnSpawn": true,
            "DNENBFNCCHD": "",
            "AFJKALOGMGG": ""
        },
        {
            "groupId": 241003003,
            "mapInstId": 3021,
            "aiGroupID": 241003003,
            "aiNeuronSetting": "DefaultSetting",
            "aiSensingTemplate": "DefaultTemplate",
            "forceCombatOnSpawn": true,
            "DNENBFNCCHD": "",
            "AFJKALOGMGG": ""
        },
        {
            "groupId": 241003003,
            "mapInstId": 3027,
            "aiGroupID": 241003003,
            "aiNeuronSetting": "DefaultSetting",
            "aiSensingTemplate": "DefaultTemplate",
            "forceCombatOnSpawn": true,
            "DNENBFNCCHD": "",
            "AFJKALOGMGG": ""
        },
        {
            "groupId": 241003003,
            "mapInstId": 3028,
            "aiGroupID": 241003003,
            "aiNeuronSetting": "DefaultSetting",
            "aiSensingTemplate": "DefaultTemplate",
            "forceCombatOnSpawn": true,
            "DNENBFNCCHD": "",
            "AFJKALOGMGG": ""
        }
    ]
}