{
    "sceneId": 20000,
    "monsters": [
        {
            "groupId": 220000020,
            "mapInstId": 23,
            "aiNeuronSetting": "DefaultSetting",
            "aiSensingTemplate": "DefaultTemplate",
            "disableWander": true,
            "DNENBFNCCHD": "",
            "AFJKALOGMGG": ""
        },
        {
            "groupId": 220000020,
            "mapInstId": 24,
            "aiNeuronSetting": "DefaultSetting",
            "aiSensingTemplate": "DefaultTemplate",
            "disableWander": true,
            "DNENBFNCCHD": "",
            "AFJKALOGMGG": ""
        },
        {
            "groupId": 220000020,
            "mapInstId": 25,
            "aiNeuronSetting": "DefaultSetting",
            "aiSensingTemplate": "DefaultTemplate",
            "disableWander": true,
            "DNENBFNCCHD": "",
            "AFJKALOGMGG": ""
        },
        {
            "groupId": 220000021,
            "mapInstId": 26,
            "aiNeuronSetting": "DefaultSetting",
            "aiSensingTemplate": "DefaultTemplate",
            "disableWander": true,
            "DNENBFNCCHD": "",
            "AFJKALOGMGG": ""
        },
        {
            "groupId": 220000021,
            "mapInstId": 27,
            "aiNeuronSetting": "DefaultSetting",
            "aiSensingTemplate": "DefaultTemplate",
            "disableWander": true,
            "DNENBFNCCHD": "",
            "AFJKALOGMGG": ""
        },
        {
            "groupId": 220000021,
            "mapInstId": 28,
            "aiNeuronSetting": "DefaultSetting",
            "aiSensingTemplate": "DefaultTemplate",
            "disableWander": true,
            "DNENBFNCCHD": "",
            "AFJKALOGMGG": ""
        },
        {
            "groupId": 220000022,
            "mapInstId": 29,
            "aiNeuronSetting": "DefaultSetting",
            "aiSensingTemplate": "DefaultTemplate",
            "disableWander": true,
            "DNENBFNCCHD": "",
            "AFJKALOGMGG": ""
        },
        {
            "groupId": 220000022,
            "mapInstId": 30,
            "aiNeuronSetting": "DefaultSetting",
            "aiSensingTemplate": "DefaultTemplate",
            "disableWander": true,
            "DNENBFNCCHD": "",
            "AFJKALOGMGG": ""
        },
        {
            "groupId": 220000022,
            "mapInstId": 31,
            "aiNeuronSetting": "DefaultSetting",
            "aiSensingTemplate": "DefaultTemplate",
            "disableWander": true,
            "DNENBFNCCHD": "",
            "AFJKALOGMGG": ""
        },
        {
            "groupId": 220000023,
            "mapInstId": 32,
            "routeId": 5,
            "aiNeuronSetting": "DefaultSetting",
            "aiSensingTemplate": "DefaultTemplate",
            "disableWander": true,
            "DNENBFNCCHD": "",
            "AFJKALOGMGG": ""
        },
        {
            "groupId": 220000023,
            "mapInstId": 33,
            "aiNeuronSetting": "DefaultSetting",
            "aiSensingTemplate": "DefaultTemplate",
            "disableWander": true,
            "DNENBFNCCHD": "",
            "AFJKALOGMGG": ""
        },
        {
            "groupId": 220000023,
            "mapInstId": 34,
            "aiNeuronSetting": "DefaultSetting",
            "aiSensingTemplate": "DefaultTemplate",
            "disableWander": true,
            "DNENBFNCCHD": "",
            "AFJKALOGMGG": ""
        },
        {
            "groupId": 220000023,
            "mapInstId": 35,
            "aiNeuronSetting": "DefaultSetting",
            "aiSensingTemplate": "DefaultTemplate",
            "disableWander": true,
            "DNENBFNCCHD": "",
            "AFJKALOGMGG": ""
        },
        {
            "groupId": 220000023,
            "mapInstId": 36,
            "aiNeuronSetting": "DefaultSetting",
            "aiSensingTemplate": "DefaultTemplate",
            "disableWander": true,
            "DNENBFNCCHD": "",
            "AFJKALOGMGG": ""
        },
        {
            "groupId": 220000023,
            "mapInstId": 37,
            "aiNeuronSetting": "DefaultSetting",
            "aiSensingTemplate": "DefaultTemplate",
            "disableWander": true,
            "DNENBFNCCHD": "",
            "AFJKALOGMGG": ""
        },
        {
            "groupId": 220000023,
            "mapInstId": 38,
            "aiNeuronSetting": "DefaultSetting",
            "aiSensingTemplate": "DefaultTemplate",
            "disableWander": true,
            "DNENBFNCCHD": "",
            "AFJKALOGMGG": ""
        },
        {
            "groupId": 220000024,
            "mapInstId": 39,
            "aiNeuronSetting": "DefaultSetting",
            "aiSensingTemplate": "DefaultTemplate",
            "disableWander": true,
            "DNENBFNCCHD": "",
            "AFJKALOGMGG": ""
        },
        {
            "groupId": 220000024,
            "mapInstId": 40,
            "aiNeuronSetting": "DefaultSetting",
            "aiSensingTemplate": "DefaultTemplate",
            "disableWander": true,
            "DNENBFNCCHD": "",
            "AFJKALOGMGG": ""
        },
        {
            "groupId": 220000024,
            "mapInstId": 41,
            "aiNeuronSetting": "DefaultSetting",
            "aiSensingTemplate": "DefaultTemplate",
            "disableWander": true,
            "DNENBFNCCHD": "",
            "AFJKALOGMGG": ""
        },
        {
            "groupId": 220000025,
            "mapInstId": 42,
            "aiNeuronSetting": "DefaultSetting",
            "aiSensingTemplate": "DefaultTemplate",
            "disableWander": true,
            "DNENBFNCCHD": "",
            "AFJKALOGMGG": ""
        },
        {
            "groupId": 220000025,
            "mapInstId": 43,
            "aiNeuronSetting": "DefaultSetting",
            "aiSensingTemplate": "DefaultTemplate",
            "disableWander": true,
            "DNENBFNCCHD": "",
            "AFJKALOGMGG": ""
        },
        {
            "groupId": 220000025,
            "mapInstId": 44,
            "aiNeuronSetting": "DefaultSetting",
            "aiSensingTemplate": "DefaultTemplate",
            "disableWander": true,
            "DNENBFNCCHD": "",
            "AFJKALOGMGG": ""
        },
        {
            "groupId": 220000027,
            "mapInstId": 45,
            "aiNeuronSetting": "DefaultSetting",
            "aiSensingTemplate": "DefaultTemplate",
            "disableWander": true,
            "DNENBFNCCHD": "",
            "AFJKALOGMGG": ""
        },
        {
            "groupId": 220000027,
            "mapInstId": 46,
            "aiNeuronSetting": "DefaultSetting",
            "aiSensingTemplate": "DefaultTemplate",
            "disableWander": true,
            "DNENBFNCCHD": "",
            "AFJKALOGMGG": ""
        },
        {
            "groupId": 220000027,
            "mapInstId": 47,
            "aiNeuronSetting": "DefaultSetting",
            "aiSensingTemplate": "DefaultTemplate",
            "disableWander": true,
            "DNENBFNCCHD": "",
            "AFJKALOGMGG": ""
        },
        {
            "groupId": 220000027,
            "mapInstId": 48,
            "aiNeuronSetting": "DefaultSetting",
            "aiSensingTemplate": "DefaultTemplate",
            "disableWander": true,
            "DNENBFNCCHD": "",
            "AFJKALOGMGG": ""
        },
        {
            "groupId": 220000028,
            "mapInstId": 49,
            "aiNeuronSetting": "DefaultSetting",
            "aiSensingTemplate": "DefaultTemplate",
            "disableWander": true,
            "DNENBFNCCHD": "",
            "AFJKALOGMGG": ""
        },
        {
            "groupId": 220000028,
            "mapInstId": 50,
            "aiNeuronSetting": "DefaultSetting",
            "aiSensingTemplate": "DefaultTemplate",
            "disableWander": true,
            "DNENBFNCCHD": "",
            "AFJKALOGMGG": ""
        },
        {
            "groupId": 220000028,
            "mapInstId": 51,
            "aiNeuronSetting": "DefaultSetting",
            "aiSensingTemplate": "DefaultTemplate",
            "disableWander": true,
            "DNENBFNCCHD": "",
            "AFJKALOGMGG": ""
        },
        {
            "groupId": 220000028,
            "mapInstId": 52,
            "aiNeuronSetting": "DefaultSetting",
            "aiSensingTemplate": "DefaultTemplate",
            "disableWander": true,
            "DNENBFNCCHD": "",
            "AFJKALOGMGG": ""
        },
        {
            "groupId": 220000028,
            "mapInstId": 53,
            "routeId": 6,
            "aiNeuronSetting": "DefaultSetting",
            "aiSensingTemplate": "DefaultTemplate",
            "disableWander": true,
            "DNENBFNCCHD": "",
            "AFJKALOGMGG": ""
        },
        {
            "groupId": 220000030,
            "mapInstId": 54,
            "aiNeuronSetting": "DefaultSetting",
            "aiSensingTemplate": "DefaultTemplate",
            "disableWander": true,
            "DNENBFNCCHD": "",
            "AFJKALOGMGG": ""
        },
        {
            "groupId": 220000030,
            "mapInstId": 55,
            "aiNeuronSetting": "DefaultSetting",
            "aiSensingTemplate": "DefaultTemplate",
            "disableWander": true,
            "DNENBFNCCHD": "",
            "AFJKALOGMGG": ""
        },
        {
            "groupId": 220000030,
            "mapInstId": 56,
            "aiNeuronSetting": "DefaultSetting",
            "aiSensingTemplate": "DefaultTemplate",
            "disableWander": true,
            "DNENBFNCCHD": "",
            "AFJKALOGMGG": ""
        },
        {
            "groupId": 220000030,
            "mapInstId": 57,
            "aiNeuronSetting": "DefaultSetting",
            "aiSensingTemplate": "DefaultTemplate",
            "disableWander": true,
            "DNENBFNCCHD": "",
            "AFJKALOGMGG": ""
        },
        {
            "groupId": 220000030,
            "mapInstId": 58,
            "aiNeuronSetting": "DefaultSetting",
            "aiSensingTemplate": "DefaultTemplate",
            "disableWander": true,
            "DNENBFNCCHD": "",
            "AFJKALOGMGG": ""
        },
        {
            "groupId": 220000030,
            "mapInstId": 59,
            "aiNeuronSetting": "DefaultSetting",
            "aiSensingTemplate": "DefaultTemplate",
            "disableWander": true,
            "DNENBFNCCHD": "",
            "AFJKALOGMGG": ""
        },
        {
            "groupId": 220000044,
            "mapInstId": 85,
            "aiNeuronSetting": "DefaultSetting",
            "aiSensingTemplate": "DefaultTemplate",
            "disableWander": true,
            "DNENBFNCCHD": "",
            "AFJKALOGMGG": ""
        },
        {
            "groupId": 220000044,
            "mapInstId": 86,
            "aiNeuronSetting": "DefaultSetting",
            "aiSensingTemplate": "DefaultTemplate",
            "disableWander": true,
            "DNENBFNCCHD": "",
            "AFJKALOGMGG": ""
        },
        {
            "groupId": 220000044,
            "mapInstId": 88,
            "aiNeuronSetting": "DefaultSetting",
            "aiSensingTemplate": "DefaultTemplate",
            "disableWander": true,
            "DNENBFNCCHD": "",
            "AFJKALOGMGG": ""
        },
        {
            "groupId": 220000044,
            "mapInstId": 89,
            "aiNeuronSetting": "DefaultSetting",
            "aiSensingTemplate": "DefaultTemplate",
            "disableWander": true,
            "DNENBFNCCHD": "",
            "AFJKALOGMGG": ""
        },
        {
            "groupId": 220000044,
            "mapInstId": 90,
            "aiNeuronSetting": "DefaultSetting",
            "aiSensingTemplate": "DefaultTemplate",
            "disableWander": true,
            "DNENBFNCCHD": "",
            "AFJKALOGMGG": ""
        },
        {
            "groupId": 220000044,
            "mapInstId": 91,
            "aiNeuronSetting": "DefaultSetting",
            "aiSensingTemplate": "DefaultTemplate",
            "disableWander": true,
            "DNENBFNCCHD": "",
            "AFJKALOGMGG": ""
        },
        {
            "groupId": 220000044,
            "mapInstId": 92,
            "aiNeuronSetting": "DefaultSetting",
            "aiSensingTemplate": "DefaultTemplate",
            "disableWander": true,
            "DNENBFNCCHD": "",
            "AFJKALOGMGG": ""
        },
        {
            "groupId": 220000072,
            "mapInstId": 99,
            "aiNeuronSetting": "DefaultSetting",
            "aiSensingTemplate": "DefaultTemplate",
            "disableWander": true,
            "DNENBFNCCHD": "",
            "AFJKALOGMGG": ""
        },
        {
            "groupId": 220000088,
            "mapInstId": 88001,
            "aiNeuronSetting": "Preach",
            "aiSensingTemplate": "DefaultTemplate",
            "DNENBFNCCHD": "",
            "AFJKALOGMGG": ""
        },
        {
            "groupId": 220000088,
            "mapInstId": 88002,
            "aiNeuronSetting": "Surround",
            "aiSensingTemplate": "DefaultTemplate",
            "DNENBFNCCHD": "",
            "AFJKALOGMGG": ""
        },
        {
            "groupId": 220000088,
            "mapInstId": 88003,
            "aiNeuronSetting": "Surround",
            "aiSensingTemplate": "DefaultTemplate",
            "DNENBFNCCHD": "",
            "AFJKALOGMGG": ""
        },
        {
            "groupId": 220000088,
            "mapInstId": 88004,
            "aiNeuronSetting": "Surround",
            "aiSensingTemplate": "DefaultTemplate",
            "DNENBFNCCHD": "",
            "AFJKALOGMGG": ""
        },
        {
            "groupId": 220000088,
            "mapInstId": 88005,
            "aiNeuronSetting": "Surround",
            "aiSensingTemplate": "DefaultTemplate",
            "DNENBFNCCHD": "",
            "AFJKALOGMGG": ""
        },
        {
            "groupId": 220000088,
            "mapInstId": 88006,
            "aiNeuronSetting": "Surround",
            "aiSensingTemplate": "DefaultTemplate",
            "DNENBFNCCHD": "",
            "AFJKALOGMGG": ""
        },
        {
            "groupId": 220000089,
            "mapInstId": 89002,
            "aiNeuronSetting": "Surround",
            "aiSensingTemplate": "DefaultTemplate",
            "DNENBFNCCHD": "",
            "AFJKALOGMGG": ""
        },
        {
            "groupId": 220000089,
            "mapInstId": 89003,
            "aiNeuronSetting": "Surround",
            "aiSensingTemplate": "DefaultTemplate",
            "DNENBFNCCHD": "",
            "AFJKALOGMGG": ""
        },
        {
            "groupId": 220000089,
            "mapInstId": 89004,
            "aiNeuronSetting": "Surround",
            "aiSensingTemplate": "DefaultTemplate",
            "DNENBFNCCHD": "",
            "AFJKALOGMGG": ""
        },
        {
            "groupId": 220000089,
            "mapInstId": 89005,
            "aiNeuronSetting": "Surround",
            "aiSensingTemplate": "DefaultTemplate",
            "DNENBFNCCHD": "",
            "AFJKALOGMGG": ""
        },
        {
            "groupId": 220000089,
            "mapInstId": 89006,
            "aiNeuronSetting": "Surround",
            "aiSensingTemplate": "DefaultTemplate",
            "DNENBFNCCHD": "",
            "AFJKALOGMGG": ""
        },
        {
            "groupId": 220000090,
            "mapInstId": 90002,
            "aiNeuronSetting": "Surround",
            "aiSensingTemplate": "DefaultTemplate",
            "DNENBFNCCHD": "",
            "AFJKALOGMGG": ""
        },
        {
            "groupId": 220000090,
            "mapInstId": 90003,
            "aiNeuronSetting": "Surround",
            "aiSensingTemplate": "DefaultTemplate",
            "DNENBFNCCHD": "",
            "AFJKALOGMGG": ""
        },
        {
            "groupId": 220000090,
            "mapInstId": 90004,
            "aiNeuronSetting": "Surround",
            "aiSensingTemplate": "DefaultTemplate",
            "DNENBFNCCHD": "",
            "AFJKALOGMGG": ""
        },
        {
            "groupId": 220000090,
            "mapInstId": 90005,
            "aiNeuronSetting": "Surround",
            "aiSensingTemplate": "DefaultTemplate",
            "DNENBFNCCHD": "",
            "AFJKALOGMGG": ""
        },
        {
            "groupId": 220000090,
            "mapInstId": 90006,
            "aiNeuronSetting": "Surround",
            "aiSensingTemplate": "DefaultTemplate",
            "DNENBFNCCHD": "",
            "AFJKALOGMGG": ""
        },
        {
            "groupId": 220000091,
            "mapInstId": 91002,
            "aiNeuronSetting": "DefaultSetting",
            "aiSensingTemplate": "DefaultTemplate",
            "disableWander": true,
            "DNENBFNCCHD": "",
            "AFJKALOGMGG": ""
        },
        {
            "groupId": 220000091,
            "mapInstId": 91003,
            "aiNeuronSetting": "DefaultSetting",
            "aiSensingTemplate": "DefaultTemplate",
            "disableWander": true,
            "DNENBFNCCHD": "",
            "AFJKALOGMGG": ""
        },
        {
            "groupId": 220000091,
            "mapInstId": 91004,
            "aiNeuronSetting": "DefaultSetting",
            "aiSensingTemplate": "DefaultTemplate",
            "disableWander": true,
            "DNENBFNCCHD": "",
            "AFJKALOGMGG": ""
        },
        {
            "groupId": 220000091,
            "mapInstId": 91005,
            "aiNeuronSetting": "DefaultSetting",
            "aiSensingTemplate": "DefaultTemplate",
            "disableWander": true,
            "DNENBFNCCHD": "",
            "AFJKALOGMGG": ""
        },
        {
            "groupId": 220000091,
            "mapInstId": 91006,
            "aiNeuronSetting": "DefaultSetting",
            "aiSensingTemplate": "DefaultTemplate",
            "disableWander": true,
            "DNENBFNCCHD": "",
            "AFJKALOGMGG": ""
        }
    ]
}