{
    "common": {
        "effectAttachShape": {
            "$type": "ConfigEffectAttachSkinnedMesh",
            "mesh": "EffectMesh"
        },
        "mass": 10.0
    },
    "headControl": {
        "$type": "ConfigHeadControl",
        "useHeadControl": true,
        "useWhiteAnimStates": false
    },
    "equipController": {
        "sheathPoint": "WeaponBackPut",
        "dissolveSheathFadeDelay": 0.07500000298023224,
        "dissolveSheathFadeTime": 0.30000001192092896,
        "attachPoints": {
            "equip01": "WeaponL",
            "equip02": "WeaponL",
            "equip00": "WeaponBackPut"
        }
    },
    "stateLayers": {
        "defaultLayer": {
            "$type": "ConfigNormalStateLayer",
            "layerIndexName": "",
            "stateIDs": {
                "ShowWeapon_BS": {
                    "$type": "ConfigAvatarStateIDInfo",
                    "animatorStates": {
                        "ShowWeapon_BS": [
                            "Loli_Pole_ShowWeapon_BS",
                            "Emo_Avatar_Common_Loli_Pole_UI_ShowWeaponBS"
                        ]
                    },
                    "setAnimatorBoolean": [
                        {
                            "name": "&GotoAnyState"
                        }
                    ],
                    "animatorTriggerOnLanded": "",
                    "sheatheOnStart": true
                },
                "ShowRelic_BS": {
                    "$type": "ConfigAvatarStateIDInfo",
                    "animatorStates": {
                        "ShowRelic_BS": [
                            "Emo_Avatar_Common_Manekin_RelicShowBS"
                        ]
                    },
                    "setAnimatorBoolean": [
                        {
                            "name": "&GotoAnyState"
                        }
                    ],
                    "animatorTriggerOnLanded": "",
                    "sheatheOnStart": true
                },
                "ShowWeapon": {
                    "$type": "ConfigAvatarStateIDInfo",
                    "animatorStates": {
                        "ShowWeapon": [
                            "Emo_Avatar_Common_Loli_Pole_UI_ShowWeaponLoop"
                        ],
                        "ShowWeapon_AS": [
                            "Loli_Pole_ShowWeapon_AS",
                            "Emo_Avatar_Common_Loli_Pole_UI_ShowWeaponAS"
                        ]
                    },
                    "animatorTriggerOnLanded": "",
                    "battouOnStart": true
                },
                "ShowRelic": {
                    "$type": "ConfigAvatarStateIDInfo",
                    "animatorStates": {
                        "ShowRelic": [
                            "Emo_Avatar_Common_Manekin_RelicShowLoop"
                        ],
                        "ShowRelic_AS": [
                            "Emo_Avatar_Common_Manekin_RelicShowAS"
                        ]
                    },
                    "animatorTriggerOnLanded": "",
                    "sheatheOnStart": true
                },
                "ShowCharacter": {
                    "$type": "ConfigAvatarStateIDInfo",
                    "animatorStates": {
                        "ShowCharacter": [],
                        "Show01": [
                            "Manekin_Yaoyao_Show01",
                            "Audio_Loli_Pole_Yaoyao_StandbyShow_01_UI"
                        ],
                        "Show02": [
                            "Manekin_Yaoyao_Show02",
                            "Audio_Loli_Pole_Yaoyao_StandbyShow_02_UI"
                        ]
                    },
                    "setAnimatorBoolean": [
                        {
                            "name": "&GotoAnyState"
                        }
                    ],
                    "equipReattach": [
                        {
                            "equip": "equip01",
                            "targetPoint": "PRIVATE_CatalystR"
                        }
                    ],
                    "animatorTriggerOnLanded": "",
                    "sheatheOnStart": true
                },
                "Skill_BS": {
                    "$type": "ConfigAvatarStateIDInfo",
                    "animatorStates": {
                        "Skill_BS": [
                            "Emo_Avatar_Yaoyao_UI_Talent_Akimbo_02BS"
                        ]
                    },
                    "setAnimatorBoolean": [
                        {
                            "name": "&GotoAnyState"
                        }
                    ],
                    "animatorTriggerOnLanded": "",
                    "sheatheOnStart": true
                },
                "Skill": {
                    "$type": "ConfigAvatarStateIDInfo",
                    "animatorStates": {
                        "Skill": [
                            "Emo_Avatar_Yaoyao_UI_Talent_Akimbo_02Loop"
                        ]
                    },
                    "animatorTriggerOnLanded": ""
                },
                "Skill_AS": {
                    "$type": "ConfigAvatarStateIDInfo",
                    "animatorStates": {
                        "Skill_AS": [
                            "Emo_Avatar_Yaoyao_UI_Talent_Akimbo_02AS"
                        ]
                    },
                    "animatorTriggerOnLanded": ""
                },
                "Story": {
                    "$type": "ConfigAvatarStateIDInfo",
                    "animatorStates": {
                        "Story": []
                    },
                    "setAnimatorBoolean": [
                        {
                            "name": "&GotoAnyState"
                        }
                    ],
                    "animatorTriggerOnLanded": "",
                    "sheatheOnStart": true
                },
                "ShowFlycloak": {
                    "$type": "ConfigAvatarStateIDInfo",
                    "animatorStates": {
                        "ShowFlycloak": []
                    },
                    "animatorTriggerOnLanded": "",
                    "sheatheOnStart": true
                }
            }
        }
    },
    "audio": {
        "CBJGDOAHMDC": "",
        "animAudio": {
            "onTransitionIn": [
                {
                    "currentStateName": "ShowWeapon_BS",
                    "audioEvent": {
                        "text": "Play_ui_menu_weapon_show_yaoyao"
                    }
                },
                {
                    "currentStateName": "ShowRelic_BS",
                    "audioEvent": {
                        "text": "Play_ui_menu_relic_show"
                    }
                }
            ],
            "onTransitionOut": [
                {
                    "currentStateName": "ShowWeapon_BS",
                    "audioEvent": {
                        "text": "Stop_ui_menu_weapon_show_putAway_appear_short"
                    }
                },
                {
                    "currentStateName": "Show01",
                    "audioEvent": {
                        "text": "Stop_ui_standbyShow_yaoyao_01"
                    }
                },
                {
                    "currentStateName": "Show02",
                    "audioEvent": {
                        "text": "Stop_ui_standbyShow_yaoyao_02"
                    }
                }
            ]
        },
        "listenerLiftup": 1.5,
        "surfaceProberLiftup": 1.5
    }
}