{
    "sceneId": 40058,
    "gadgets": [
        {
            "groupId": 240058002,
            "mapInstId": 2006,
            "followMoveAttachPoint": "",
            "billboardUIBarNeedEnterCombat": true,
            "JAABBIFAGKG": ""
        }
    ]
}