{
    "sceneId": 20147,
    "gadgets": [
        {
            "groupId": 220147008,
            "mapInstId": 8001,
            "followMoveAttachPoint": "",
            "uiIndicator": {
                "templateName": "Normal_Chest_Icon"
            },
            "JAABBIFAGKG": ""
        },
        {
            "groupId": 220147010,
            "mapInstId": 10002,
            "followMoveAttachPoint": "",
            "uiIndicator": {
                "templateName": "Normal_Chest_Icon"
            },
            "JAABBIFAGKG": ""
        }
    ]
}