{
    "sceneId": 20138,
    "gadgets": [
        {
            "groupId": 220138015,
            "mapInstId": 15014,
            "followMoveAttachPoint": "",
            "JAABBIFAGKG": "Area_LevelDIFischl02A_City"
        },
        {
            "groupId": 220138015,
            "mapInstId": 15015,
            "followMoveAttachPoint": "",
            "followMoveTargetInstanceId": 15014,
            "EDEKDHCIIBK": {
                "x": 28.456663131713867,
                "y": 42.29999923706055,
                "z": -1.1479464769363403
            },
            "OIHFKKEKDIA": {
                "y": 179.36050415039062
            },
            "JAABBIFAGKG": ""
        },
        {
            "groupId": 220138022,
            "mapInstId": 22001,
            "followMoveAttachPoint": "",
            "uiIndicator": {
                "templateName": "Normal_Gear_Is_StartingFollow_Icon",
                "paramDatas": {
                    "show_distance": "60",
                    "hide_distance": "70"
                }
            },
            "JAABBIFAGKG": ""
        },
        {
            "groupId": 220138022,
            "mapInstId": 22010,
            "followMoveAttachPoint": "",
            "followMoveTargetInstanceId": 22011,
            "EDEKDHCIIBK": {
                "x": 0.15695953369140625,
                "y": 0.9543695449829102,
                "z": 0.8104934692382812
            },
            "OIHFKKEKDIA": {
                "x": 7.016477463194512e-15,
                "y": 180.0,
                "z": 360.0
            },
            "JAABBIFAGKG": ""
        },
        {
            "groupId": 220138022,
            "mapInstId": 22012,
            "followMoveAttachPoint": "",
            "followMoveTargetInstanceId": 22015,
            "EDEKDHCIIBK": {
                "x": -1.8640403747558594,
                "y": 1.0094022750854492,
                "z": -0.36051177978515625
            },
            "OIHFKKEKDIA": {
                "x": 0.0002355950855417177,
                "y": 270.16070556640625,
                "z": 0.0025024067144840956
            },
            "JAABBIFAGKG": ""
        },
        {
            "groupId": 220138022,
            "mapInstId": 22013,
            "followMoveAttachPoint": "",
            "followMoveTargetInstanceId": 22015,
            "EDEKDHCIIBK": {
                "x": -0.5350685119628906,
                "y": 1.0093722343444824,
                "z": -1.6015243530273438
            },
            "OIHFKKEKDIA": {
                "x": 7.016477463194512e-15,
                "y": 180.0,
                "z": 0.002288818359375
            },
            "JAABBIFAGKG": ""
        },
        {
            "groupId": 220138022,
            "mapInstId": 22014,
            "followMoveAttachPoint": "",
            "followMoveTargetInstanceId": 22015,
            "EDEKDHCIIBK": {
                "x": -0.6280899047851562,
                "y": 0.9978542327880859,
                "z": -0.4209747314453125
            },
            "JAABBIFAGKG": ""
        },
        {
            "groupId": 220138022,
            "mapInstId": 22016,
            "followMoveAttachPoint": "",
            "followMoveTargetInstanceId": 22019,
            "EDEKDHCIIBK": {
                "x": 0.08520126342773438,
                "y": 1.0147199630737305,
                "z": 0.3930511474609375
            },
            "OIHFKKEKDIA": {
                "x": 0.02799973636865616,
                "y": 180.1815948486328,
                "z": 8.874597551766783e-05
            },
            "JAABBIFAGKG": ""
        },
        {
            "groupId": 220138022,
            "mapInstId": 22017,
            "followMoveAttachPoint": "",
            "followMoveTargetInstanceId": 22019,
            "EDEKDHCIIBK": {
                "x": 0.003940582275390625,
                "y": 1.0152902603149414,
                "z": 1.5649185180664062
            },
            "OIHFKKEKDIA": {
                "x": 0.02799973636865616,
                "y": 180.1815948486328,
                "z": 8.874597551766783e-05
            },
            "JAABBIFAGKG": ""
        },
        {
            "groupId": 220138022,
            "mapInstId": 22018,
            "followMoveAttachPoint": "",
            "followMoveTargetInstanceId": 22019,
            "EDEKDHCIIBK": {
                "x": 1.260589599609375,
                "y": 1.0133800506591797,
                "z": 0.3285484313964844
            },
            "OIHFKKEKDIA": {
                "x": 359.9234313964844,
                "y": 270.3609619140625,
                "z": 0.11254418641328812
            },
            "JAABBIFAGKG": ""
        },
        {
            "groupId": 220138022,
            "mapInstId": 22025,
            "followMoveAttachPoint": "",
            "followMoveTargetInstanceId": 22011,
            "EDEKDHCIIBK": {
                "x": 0.15607070922851562,
                "y": 0.9651899337768555,
                "z": -1.6632080078125
            },
            "OIHFKKEKDIA": {
                "z": 0.00029754638671875
            },
            "JAABBIFAGKG": ""
        },
        {
            "groupId": 220138022,
            "mapInstId": 22037,
            "followMoveAttachPoint": "",
            "uiIndicator": {
                "templateName": "Normal_Gear_Is_StartingFollow_Icon",
                "paramDatas": {
                    "show_distance": "60",
                    "hide_distance": "70"
                }
            },
            "JAABBIFAGKG": ""
        }
    ]
}