{
    "sceneId": 20142,
    "gadgets": [
        {
            "groupId": 220142004,
            "mapInstId": 4003,
            "followMoveAttachPoint": "",
            "uiIndicator": {
                "templateName": "Normal_Chest_Icon"
            },
            "JAABBIFAGKG": ""
        },
        {
            "groupId": 220142005,
            "mapInstId": 5003,
            "followMoveAttachPoint": "",
            "uiIndicator": {
                "templateName": "Normal_Chest_Icon"
            },
            "JAABBIFAGKG": ""
        },
        {
            "groupId": 220142006,
            "mapInstId": 6003,
            "followMoveAttachPoint": "",
            "uiIndicator": {
                "templateName": "Normal_Chest_Icon"
            },
            "JAABBIFAGKG": ""
        }
    ]
}