[
    {
        "id": 1,
        "abilityName": [
            "ActivityAbility_CoinCollect_RocketJump",
            "ActivityAbility_CoinCollect_Range_Eff"
        ],
        "KPFFKKCONFA": true,
        "DFAONPCCMND": "ART/UI/Atlas/Activity/CoinCollect/UI_Activity_CoinCollect_Buff_03",
        "NDIIIAEKONA": 2733497262,
        "IFLGLLEHDNL": 859457796
    },
    {
        "id": 2,
        "abilityName": [
            "ActivityAbility_CoinCollect_CreateWindField"
        ],
        "KPFFKKCONFA": true,
        "DFAONPCCMND": "ART/UI/Atlas/Activity/CoinCollect/UI_Activity_CoinCollect_Buff_02",
        "NDIIIAEKONA": 4230752926,
        "IFLGLLEHDNL": 2573757540
    },
    {
        "id": 3,
        "abilityName": [
            "ActivityAbility_CoinCollect_Range_Eff"
        ],
        "AEIFAABOPPA": true,
        "KPFFKKCONFA": true,
        "DFAONPCCMND": "ART/UI/Atlas/Activity/CoinCollect/UI_Activity_CoinCollect_Buff_01",
        "NDIIIAEKONA": 3964932334,
        "IFLGLLEHDNL": 2661582156
    },
    {
        "id": 4,
        "abilityName": [
            "ActivityAbility_CoinCollect_MoveSpeedUp",
            "ActivityAbility_CoinCollect_Range_Eff"
        ],
        "AEIFAABOPPA": true,
        "DFAONPCCMND": "ART/UI/Atlas/Activity/CoinCollect/UI_Activity_CoinCollect_Buff_04",
        "NDIIIAEKONA": 2557357030,
        "IFLGLLEHDNL": 388719012
    },
    {
        "id": 5,
        "abilityName": [
            "ActivityAbility_CoinCollect_RocketJump",
            "ActivityAbility_CoinCollect_Range_Eff"
        ],
        "AEIFAABOPPA": true,
        "DFAONPCCMND": "ART/UI/Atlas/Activity/CoinCollect/UI_Activity_CoinCollect_Buff_05",
        "NDIIIAEKONA": 931740038,
        "IFLGLLEHDNL": 3552450596
    },
    {
        "id": 6,
        "abilityName": [
            "ActivityAbility_CoinCollect_CostStamina_Zero",
            "ActivityAbility_CoinCollect_MoveSpeedUp",
            "ActivityAbility_CoinCollect_Range_Eff"
        ],
        "KPFFKKCONFA": true,
        "DFAONPCCMND": "ART/UI/Atlas/Activity/CoinCollect/UI_Activity_CoinCollect_Buff_06",
        "NDIIIAEKONA": 1650252830,
        "IFLGLLEHDNL": 3885040564
    }
]