[
    {
        "id": 1,
        "DDCEJFKKBEO": 220101,
        "NHFGOPOOJKE": 220102,
        "unlockCond": "GCG_LEVEL_UNLOCK_LEVEL",
        "DBELNLMBANE": 3,
        "KNIGAJFDIPA": 3164478229,
        "LAPNOANOOKH": 2326899158208528076,
        "PBMHDBHKCHI": 1714,
        "monsterId": 20050101,
        "HGCKKAIDNBP": 1963642889
    },
    {
        "id": 2,
        "DDCEJFKKBEO": 230101,
        "NHFGOPOOJKE": 230102,
        "unlockCond": "GCG_LEVEL_UNLOCK_LEVEL",
        "DBELNLMBANE": 4,
        "KNIGAJFDIPA": 3179088397,
        "LAPNOANOOKH": 12208364490445487815,
        "PBMHDBHKCHI": 1716,
        "monsterId": 23020101,
        "HGCKKAIDNBP": 1254821113
    },
    {
        "id": 3,
        "DDCEJFKKBEO": 220201,
        "NHFGOPOOJKE": 220202,
        "unlockCond": "GCG_LEVEL_UNLOCK_LEVEL",
        "DBELNLMBANE": 5,
        "KNIGAJFDIPA": 2087046701,
        "LAPNOANOOKH": 10880940735865242927,
        "PBMHDBHKCHI": 1717,
        "monsterId": 23050101,
        "HGCKKAIDNBP": 3581442401
    },
    {
        "id": 4,
        "DDCEJFKKBEO": 260101,
        "NHFGOPOOJKE": 260102,
        "unlockCond": "GCG_LEVEL_UNLOCK_LEVEL",
        "DBELNLMBANE": 6,
        "KNIGAJFDIPA": 3679383245,
        "LAPNOANOOKH": 13720127969880027763,
        "PBMHDBHKCHI": 1717,
        "monsterId": 21020501,
        "HGCKKAIDNBP": 480604873
    },
    {
        "id": 5,
        "DDCEJFKKBEO": 250101,
        "NHFGOPOOJKE": 250102,
        "unlockCond": "GCG_LEVEL_UNLOCK_LEVEL",
        "DBELNLMBANE": 7,
        "KNIGAJFDIPA": 2571288101,
        "LAPNOANOOKH": 11413815252643069936,
        "PBMHDBHKCHI": 1715,
        "monsterId": 25090101,
        "HGCKKAIDNBP": 1950946665
    },
    {
        "id": 6,
        "DDCEJFKKBEO": 270101,
        "NHFGOPOOJKE": 270102,
        "unlockCond": "GCG_LEVEL_UNLOCK_LEVEL",
        "DBELNLMBANE": 8,
        "KNIGAJFDIPA": 2780089453,
        "LAPNOANOOKH": 6649256790582179210,
        "PBMHDBHKCHI": 1718,
        "monsterId": 26110101,
        "HGCKKAIDNBP": 429165529
    }
]