[
    {
        "itemId": 339000,
        "FMPJAAOEFNK": "Gcg_CardBack_01",
        "nameTextMapHash": 676923036,
        "descTextMapHash": 353954381,
        "KEMBEMMIJNB": 907024502,
        "order": 1,
        "JFDMGHDNJCM": 5955048444008668827,
        "PPEDFCJEEAL": 17137945794185388821
    },
    {
        "id": 101,
        "itemId": 339001,
        "FMPJAAOEFNK": "Gcg_CardBack_Mengde",
        "nameTextMapHash": 224657260,
        "descTextMapHash": 3046963981,
        "KEMBEMMIJNB": 2711962022,
        "order": 2,
        "JFDMGHDNJCM": 8400781260855660634,
        "PPEDFCJEEAL": 12934817420903946015
    },
    {
        "id": 102,
        "itemId": 339002,
        "FMPJAAOEFNK": "Gcg_CardBack_Liyue",
        "nameTextMapHash": 227656852,
        "descTextMapHash": 3099182813,
        "KEMBEMMIJNB": 2950676230,
        "order": 3,
        "JFDMGHDNJCM": 2162461715491897557,
        "PPEDFCJEEAL": 946521606882035825
    },
    {
        "id": 103,
        "itemId": 339003,
        "FMPJAAOEFNK": "Gcg_CardBack_Inazuma",
        "nameTextMapHash": 3154003388,
        "descTextMapHash": 3705895181,
        "KEMBEMMIJNB": 3615340158,
        "order": 4,
        "JFDMGHDNJCM": 7741974315803207026,
        "PPEDFCJEEAL": 7543895705586279157
    },
    {
        "id": 104,
        "itemId": 339004,
        "FMPJAAOEFNK": "Gcg_CardBack_Sumeru",
        "nameTextMapHash": 175694524,
        "descTextMapHash": 2496909349,
        "KEMBEMMIJNB": 3414498742,
        "order": 5,
        "JFDMGHDNJCM": 13086920283368280245,
        "PPEDFCJEEAL": 4271844482978085241
    },
    {
        "id": 109,
        "itemId": 339009,
        "FMPJAAOEFNK": "Gcg_CardBack_LevelReward",
        "nameTextMapHash": 1303503172,
        "descTextMapHash": 1003684749,
        "KEMBEMMIJNB": 2100138046,
        "order": 6,
        "JFDMGHDNJCM": 12529666304738467772,
        "PPEDFCJEEAL": 16291427696082876402
    },
    {
        "id": 110,
        "itemId": 339010,
        "FMPJAAOEFNK": "Gcg_CardBack_HandbookReward",
        "nameTextMapHash": 109851876,
        "descTextMapHash": 3234695645,
        "KEMBEMMIJNB": 3134801854,
        "order": 7,
        "JFDMGHDNJCM": 5414235285501997935,
        "PPEDFCJEEAL": 456922116975439242
    },
    {
        "id": 111,
        "itemId": 339011,
        "FMPJAAOEFNK": "Gcg_CardBack_CrystalChunk",
        "nameTextMapHash": 3885169068,
        "descTextMapHash": 1779428085,
        "KEMBEMMIJNB": 3807053326,
        "order": 8,
        "JFDMGHDNJCM": 728510257260810500,
        "PPEDFCJEEAL": 10330911359376665631
    },
    {
        "id": 112,
        "itemId": 339012,
        "FMPJAAOEFNK": "Gcg_CardBack_MagicalCrystalChunk",
        "nameTextMapHash": 1269391412,
        "descTextMapHash": 930269213,
        "KEMBEMMIJNB": 3798046198,
        "order": 9,
        "JFDMGHDNJCM": 7978520093627840327,
        "PPEDFCJEEAL": 18067219207634859760
    },
    {
        "id": 113,
        "itemId": 339013,
        "FMPJAAOEFNK": "Gcg_CardBack_AmethystLump",
        "nameTextMapHash": 3084691172,
        "descTextMapHash": 2011411341,
        "KEMBEMMIJNB": 2626177846,
        "order": 10,
        "JFDMGHDNJCM": 4065480724821063734,
        "PPEDFCJEEAL": 11461293823358058568
    },
    {
        "id": 114,
        "itemId": 339014,
        "FMPJAAOEFNK": "Gcg_CardBack_FlamingFlowerStamen",
        "nameTextMapHash": 1082255468,
        "descTextMapHash": 2948085421,
        "KEMBEMMIJNB": 3235168350,
        "order": 11,
        "JFDMGHDNJCM": 5355399110285537242,
        "PPEDFCJEEAL": 7156094550485655906
    },
    {
        "id": 115,
        "itemId": 339015,
        "FMPJAAOEFNK": "Gcg_CardBack_MistFlowerCorolla",
        "nameTextMapHash": 2745316188,
        "descTextMapHash": 3905600909,
        "KEMBEMMIJNB": 2639877110,
        "order": 12,
        "JFDMGHDNJCM": 7955234963937979997,
        "PPEDFCJEEAL": 17551227748477288777
    },
    {
        "id": 116,
        "itemId": 339016,
        "FMPJAAOEFNK": "Gcg_CardBack_ElectroCrystal",
        "nameTextMapHash": 3797431100,
        "descTextMapHash": 1816489677,
        "KEMBEMMIJNB": 86614022,
        "order": 13,
        "JFDMGHDNJCM": 7015149431546231814,
        "PPEDFCJEEAL": 350713544469908220
    },
    {
        "id": 117,
        "itemId": 339017,
        "FMPJAAOEFNK": "Gcg_CardBack_DandelionSeed",
        "nameTextMapHash": 856244868,
        "descTextMapHash": 388291885,
        "KEMBEMMIJNB": 1748351190,
        "order": 14,
        "JFDMGHDNJCM": 3907336587166315354,
        "PPEDFCJEEAL": 17904172385502980206
    },
    {
        "id": 118,
        "itemId": 339018,
        "FMPJAAOEFNK": "Gcg_CardBack_Cecilia",
        "nameTextMapHash": 1506195860,
        "descTextMapHash": 388552781,
        "KEMBEMMIJNB": 3637100366,
        "order": 15,
        "JFDMGHDNJCM": 9329051223372775342,
        "PPEDFCJEEAL": 16765756899808728928
    },
    {
        "id": 119,
        "itemId": 339019,
        "FMPJAAOEFNK": "Gcg_CardBack_GlazeLily",
        "nameTextMapHash": 432382212,
        "descTextMapHash": 2053528661,
        "KEMBEMMIJNB": 154721118,
        "order": 16,
        "JFDMGHDNJCM": 13839908362556897712,
        "PPEDFCJEEAL": 13476174288848302462
    },
    {
        "id": 120,
        "itemId": 339020,
        "FMPJAAOEFNK": "Gcg_CardBack_Dendrobium",
        "nameTextMapHash": 454618260,
        "descTextMapHash": 3270400653,
        "KEMBEMMIJNB": 52960310,
        "order": 17,
        "JFDMGHDNJCM": 8666691502161323654,
        "PPEDFCJEEAL": 2946787137023744804
    },
    {
        "id": 121,
        "itemId": 339021,
        "FMPJAAOEFNK": "Gcg_CardBack_Dvalin",
        "nameTextMapHash": 2768624492,
        "descTextMapHash": 376179413,
        "KEMBEMMIJNB": 3221107606,
        "NJPPOMIEBLO": true,
        "order": 18,
        "JFDMGHDNJCM": 13403849367134704728,
        "PPEDFCJEEAL": 3371523125816103683
    }
]