[
    {
        "id": 1,
        "npcId": 1707,
        "levelId": 40001,
        "NDEEAIHNEHK": []
    },
    {
        "id": 2,
        "npcId": 1708,
        "levelId": 40002,
        "NDEEAIHNEHK": []
    },
    {
        "id": 3,
        "npcId": 1709,
        "levelId": 40003,
        "NDEEAIHNEHK": []
    },
    {
        "id": 4,
        "npcId": 1710,
        "levelId": 40004,
        "NDEEAIHNEHK": []
    },
    {
        "id": 5,
        "npcId": 1711,
        "levelId": 40005,
        "NDEEAIHNEHK": []
    }
]