{
    "PEGAEKCDCPP": "",
    "GNKDILIOOFF": "",
    "isKeyInteraction": false,
    "group": [
        [
            {
                "$type": "ConfigUITriggerInterAction",
                "type": "UI_TRIGGER",
                "contextName": "FungusFighterBackupDialog",
                "param": ""
            }
        ]
    ]
}