{
    "PEGAEKCDCPP": "",
    "GNKDILIOOFF": "",
    "group": [
        [
            {
                "$type": "ConfigUITriggerInterAction",
                "type": "UI_TRIGGER",
                "contextName": "MPPlayPage",
                "param": "MP_PLAY_DRAGON_SPINE"
            },
            {
                "$type": "ConfigCameraMoveInterAction",
                "type": "CAMERA_MOVE",
                "duration": 1.0,
                "camPosOffset": {
                    "x": 1095.4000244140625,
                    "y": 297.6300048828125,
                    "z": -433.8399963378906
                },
                "nearLength": 5.0,
                "camForwardTargetOffset": {
                    "x": 1081.010009765625,
                    "y": 289.30999755859375,
                    "z": -434.010009765625
                },
                "camFov": 40.0,
                "lerpRatio": 5.0,
                "targetNpcAlias": ""
            }
        ],
        [
            {
                "$type": "ConfigCameraMoveInterAction",
                "type": "CAMERA_MOVE",
                "duration": 1.0,
                "cameraPosType": "EXIT",
                "camTargetType": "TO_INTEE",
                "lerpRatio": 5.0,
                "targetNpcAlias": ""
            }
        ]
    ]
}