{
    "PEGAEKCDCPP": "",
    "isSimpleTalk": true,
    "GNKDILIOOFF": "",
    "disableNpcLod": true,
    "startFade": {
        "startFadeOutDuration": 0.0
    },
    "endFade": {
        "startFadeOutDuration": 0.0
    },
    "actors": [
        {
            "alias": "Avatar",
            "visible": true,
            "bornPointName": "",
            "relativePosNpcAlias": ""
        },
        {
            "configID": 1005,
            "alias": "1005",
            "visible": true,
            "bornPointName": "",
            "useRelativePos": true,
            "relativePos": {
                "x": -0.5,
                "z": 0.5
            },
            "removeActorType": "REMOVE_WITH_DISAPPEAR",
            "relativePosNpcAlias": ""
        },
        {
            "configID": 20317,
            "alias": "20317",
            "visible": true,
            "bornPointName": "",
            "removeActorType": "REMOVE",
            "relativePosNpcAlias": ""
        }
    ],
    "group": [
        [
            {
                "$type": "ConfigTimeProtectAction",
                "type": "TIME_PROTECT",
                "duration": 0.10000000149011612
            },
            {
                "$type": "ConfigCameraMoveInterAction",
                "type": "CAMERA_FOCUS",
                "duration": 0.10000000149011612,
                "targetNpcAlias": ""
            }
        ],
        [
            {
                "$type": "ConfigDialogInterAction",
                "type": "DIALOG",
                "aliasList": [
                    "1005"
                ],
                "dialogID": 721130701,
                "protectTime": 0.5
            }
        ],
        [
            {
                "$type": "ConfigDialogInterAction",
                "type": "DIALOG",
                "aliasList": [
                    "1005"
                ],
                "dialogID": 721130702,
                "protectTime": 0.5
            }
        ],
        [
            {
                "$type": "ConfigDialogInterAction",
                "type": "DIALOG",
                "aliasList": [
                    "1005"
                ],
                "dialogID": 721130703,
                "protectTime": 0.5
            }
        ],
        [
            {
                "$type": "ConfigDialogInterAction",
                "type": "DIALOG",
                "aliasList": [
                    "1005"
                ],
                "dialogID": 721130704,
                "protectTime": 0.5
            }
        ],
        [
            {
                "$type": "ConfigDialogInterAction",
                "type": "DIALOG",
                "aliasList": [
                    "20317"
                ],
                "dialogID": 721130705,
                "protectTime": 0.5
            }
        ],
        [
            {
                "$type": "ConfigDialogInterAction",
                "type": "DIALOG",
                "aliasList": [
                    "1005"
                ],
                "dialogID": 721130706,
                "protectTime": 0.5
            }
        ],
        [
            {
                "$type": "ConfigDialogInterAction",
                "type": "DIALOG",
                "aliasList": [
                    "20317"
                ],
                "dialogID": 721130707,
                "protectTime": 0.5
            }
        ],
        [
            {
                "$type": "ConfigDialogInterAction",
                "type": "DIALOG",
                "aliasList": [
                    "1005"
                ],
                "dialogID": 721130708,
                "protectTime": 0.5
            }
        ],
        [
            {
                "$type": "ConfigTimeProtectAction",
                "type": "TIME_PROTECT",
                "duration": 0.10000000149011612
            },
            {
                "$type": "ConfigVisibleInterAction",
                "type": "VISIBLE",
                "delayTime": 0.6000000238418579,
                "aliasList": [
                    "20317"
                ]
            }
        ]
    ],
    "groupId": [
        {
            "grpId": 3054094487,
            "nextGrpId": 3054094488
        },
        {
            "index": 1,
            "grpId": 3054094488,
            "nextGrpId": 3054094489
        },
        {
            "index": 2,
            "grpId": 3054094489,
            "nextGrpId": 3054094490
        },
        {
            "index": 3,
            "grpId": 3054094490,
            "nextGrpId": 3054094491
        },
        {
            "index": 4,
            "grpId": 3054094491,
            "nextGrpId": 3054094492
        },
        {
            "index": 5,
            "grpId": 3054094492,
            "nextGrpId": 3054094493
        },
        {
            "index": 6,
            "grpId": 3054094493,
            "nextGrpId": 3054094494
        },
        {
            "index": 7,
            "grpId": 3054094494,
            "nextGrpId": 3054094495
        },
        {
            "index": 8,
            "grpId": 3054094495,
            "nextGrpId": 187648633
        },
        {
            "index": 9,
            "grpId": 187648633,
            "nextGrpId": 187648634
        }
    ],
    "freeStyleDic": {
        "20317": []
    }
}