{
    "PEGAEKCDCPP": "",
    "startBlackKeepTime": 0.5,
    "GNKDILIOOFF": "",
    "disableNpcLod": true,
    "startFade": {
        "startFadeInDuration": 0.5,
        "startFadeOutDuration": 0.5
    },
    "endFade": {
        "startFadeOutDuration": 0.0
    },
    "actors": [
        {
            "alias": "Avatar",
            "visible": true,
            "bornPointName": "Q2011Player03",
            "relativePosNpcAlias": ""
        },
        {
            "configID": 1033,
            "alias": "1033",
            "visible": true,
            "bornPointName": "Q2011Tuoma01",
            "removeActorType": "REMOVE",
            "relativePosNpcAlias": ""
        },
        {
            "configID": 1005,
            "alias": "1005",
            "visible": true,
            "bornPointName": "Q2011Paimon03",
            "removeActorType": "REMOVE_WITH_DISAPPEAR",
            "relativePosNpcAlias": ""
        },
        {
            "configID": 1031,
            "alias": "1031",
            "visible": true,
            "bornPointName": "Q2011Beidou02",
            "removeActorType": "REMOVE",
            "relativePosNpcAlias": ""
        }
    ],
    "group": [
        [
            {
                "$type": "ConfigSimpleBlackScreenAction",
                "type": "SIMPLE_BLACK_SCREEN",
                "duration": 1.0,
                "durationToBlack": 0.5,
                "durationKeepBlack": 0.5,
                "durationFromBlack": 0.5,
                "textMapID": ""
            },
            {
                "$type": "ConfigTimeProtectAction",
                "type": "TIME_PROTECT",
                "duration": 1.0
            }
        ],
        [
            {
                "$type": "ConfigDialogInterAction",
                "type": "DIALOG",
                "aliasList": [
                    "1033"
                ],
                "dialogID": 20110701,
                "protectTime": 0.5
            }
        ],
        [
            {
                "$type": "ConfigDialogInterAction",
                "type": "DIALOG",
                "aliasList": [
                    "1033"
                ],
                "dialogID": 20110702,
                "protectTime": 0.5
            }
        ],
        [
            {
                "$type": "ConfigDialogInterAction",
                "type": "DIALOG",
                "aliasList": [
                    "1005"
                ],
                "dialogID": 20110703,
                "protectTime": 0.5
            }
        ],
        [
            {
                "$type": "ConfigDialogInterAction",
                "type": "DIALOG",
                "aliasList": [
                    "1031"
                ],
                "dialogID": 20110704,
                "protectTime": 0.5
            }
        ],
        [
            {
                "$type": "ConfigDialogInterAction",
                "type": "DIALOG",
                "aliasList": [
                    "1031"
                ],
                "dialogID": 20110705,
                "protectTime": 0.5
            }
        ],
        [
            {
                "$type": "ConfigDialogInterAction",
                "type": "DIALOG",
                "aliasList": [
                    "1031"
                ],
                "dialogID": 20110706,
                "protectTime": 0.5
            }
        ],
        [
            {
                "$type": "ConfigDialogInterAction",
                "type": "DIALOG",
                "aliasList": [
                    "1033"
                ],
                "dialogID": 20110707,
                "protectTime": 0.5
            }
        ],
        [
            {
                "$type": "ConfigDialogInterAction",
                "type": "DIALOG",
                "aliasList": [
                    "1031"
                ],
                "dialogID": 20110708,
                "protectTime": 0.5
            }
        ],
        [
            {
                "$type": "ConfigDialogSelectAction",
                "type": "DIALOG_SELECT",
                "delayTime": 0.4000000059604645,
                "aliasList": [
                    "Avatar"
                ],
                "dialogIDList": [
                    20110710,
                    20110711
                ],
                "grpIDList": [
                    2464834432,
                    2464834432
                ],
                "useGrpId": true
            },
            {
                "$type": "ConfigDialogInterAction",
                "type": "DIALOG",
                "aliasList": [
                    "1033"
                ],
                "dialogID": 20110709,
                "protectTime": 0.5
            }
        ],
        [
            {
                "$type": "ConfigDialogInterAction",
                "type": "DIALOG",
                "aliasList": [
                    "1005"
                ],
                "dialogID": 20110712,
                "protectTime": 0.5
            }
        ],
        [
            {
                "$type": "ConfigDialogInterAction",
                "type": "DIALOG",
                "aliasList": [
                    "1031"
                ],
                "dialogID": 20110713,
                "protectTime": 0.5
            }
        ],
        [
            {
                "$type": "ConfigDialogInterAction",
                "type": "DIALOG",
                "aliasList": [
                    "1031"
                ],
                "dialogID": 20110714,
                "protectTime": 0.5
            }
        ],
        [
            {
                "$type": "ConfigDialogInterAction",
                "type": "DIALOG",
                "aliasList": [
                    "1031"
                ],
                "dialogID": 20110715,
                "protectTime": 0.5
            }
        ],
        [
            {
                "$type": "ConfigDialogInterAction",
                "type": "DIALOG",
                "aliasList": [
                    "1033"
                ],
                "dialogID": 20110716,
                "protectTime": 0.5
            }
        ],
        [
            {
                "$type": "ConfigDialogInterAction",
                "type": "DIALOG",
                "aliasList": [
                    "1031"
                ],
                "dialogID": 20110717,
                "protectTime": 0.5
            }
        ],
        [
            {
                "$type": "ConfigDialogInterAction",
                "type": "DIALOG",
                "aliasList": [
                    "1005"
                ],
                "dialogID": 20110718,
                "protectTime": 0.5
            }
        ],
        [
            {
                "$type": "ConfigDialogSelectAction",
                "type": "DIALOG_SELECT",
                "delayTime": 0.4000000059604645,
                "aliasList": [
                    "Avatar"
                ],
                "dialogIDList": [
                    20110720,
                    20110721
                ],
                "grpIDList": [
                    2464834440,
                    2464834440
                ],
                "useGrpId": true
            },
            {
                "$type": "ConfigDialogInterAction",
                "type": "DIALOG",
                "aliasList": [
                    "1031"
                ],
                "dialogID": 20110719,
                "protectTime": 0.5
            }
        ],
        [
            {
                "$type": "ConfigDialogInterAction",
                "type": "DIALOG",
                "aliasList": [
                    "1005"
                ],
                "dialogID": 20110722,
                "protectTime": 0.5
            }
        ],
        [
            {
                "$type": "ConfigDialogInterAction",
                "type": "DIALOG",
                "aliasList": [
                    "1033"
                ],
                "dialogID": 20110723,
                "protectTime": 0.5
            }
        ],
        [
            {
                "$type": "ConfigDialogInterAction",
                "type": "DIALOG",
                "aliasList": [
                    "1005"
                ],
                "dialogID": 20110724,
                "protectTime": 0.5
            }
        ],
        [
            {
                "$type": "ConfigDialogInterAction",
                "type": "DIALOG",
                "aliasList": [
                    "1033"
                ],
                "dialogID": 20110725,
                "protectTime": 0.5
            }
        ],
        [
            {
                "$type": "ConfigDialogSelectAction",
                "type": "DIALOG_SELECT",
                "delayTime": 0.4000000059604645,
                "aliasList": [
                    "Avatar"
                ],
                "dialogIDList": [
                    20110727,
                    20110728
                ],
                "grpIDList": [
                    2464834466,
                    2464834466
                ],
                "useGrpId": true
            },
            {
                "$type": "ConfigDialogInterAction",
                "type": "DIALOG",
                "aliasList": [
                    "1033"
                ],
                "dialogID": 20110726,
                "protectTime": 0.5
            }
        ],
        [
            {
                "$type": "ConfigTimeProtectAction",
                "type": "TIME_PROTECT",
                "duration": 0.10000000149011612
            }
        ],
        [
            {
                "$type": "ConfigTimeProtectAction",
                "type": "TIME_PROTECT",
                "duration": 0.10000000149011612
            },
            {
                "$type": "ConfigSimpleBlackScreenAction",
                "type": "SIMPLE_BLACK_SCREEN",
                "durationToBlack": 0.5,
                "durationKeepBlack": 1.0,
                "durationFromBlack": 0.5,
                "textMapID": ""
            },
            {
                "$type": "ConfigTimeProtectAction",
                "type": "TIME_PROTECT",
                "duration": 0.699999988079071
            },
            {
                "$type": "ConfigVisibleInterAction",
                "type": "VISIBLE",
                "delayTime": 0.6000000238418579,
                "aliasList": [
                    "1033"
                ]
            },
            {
                "$type": "ConfigVisibleInterAction",
                "type": "VISIBLE",
                "delayTime": 0.6000000238418579,
                "aliasList": [
                    "1005"
                ]
            },
            {
                "$type": "ConfigVisibleInterAction",
                "type": "VISIBLE",
                "delayTime": 0.6000000238418579,
                "aliasList": [
                    "1031"
                ]
            }
        ]
    ],
    "groupId": [
        {
            "grpId": 2711910097,
            "nextGrpId": 2711910098
        },
        {
            "index": 1,
            "grpId": 2711910098,
            "nextGrpId": 2711910099
        },
        {
            "index": 2,
            "grpId": 2711910099,
            "nextGrpId": 2711910100
        },
        {
            "index": 3,
            "grpId": 2711910100,
            "nextGrpId": 2711910101
        },
        {
            "index": 4,
            "grpId": 2711910101,
            "nextGrpId": 2711910102
        },
        {
            "index": 5,
            "grpId": 2711910102,
            "nextGrpId": 2711910103
        },
        {
            "index": 6,
            "grpId": 2711910103,
            "nextGrpId": 2711910104
        },
        {
            "index": 7,
            "grpId": 2711910104,
            "nextGrpId": 2711910105
        },
        {
            "index": 8,
            "grpId": 2711910105,
            "nextGrpId": 2464834431
        },
        {
            "index": 9,
            "grpId": 2464834431,
            "nextGrpId": 2464834432
        },
        {
            "index": 10,
            "grpId": 2464834432,
            "nextGrpId": 2464834433
        },
        {
            "index": 11,
            "grpId": 2464834433,
            "nextGrpId": 2464834434
        },
        {
            "index": 12,
            "grpId": 2464834434,
            "nextGrpId": 2464834435
        },
        {
            "index": 13,
            "grpId": 2464834435,
            "nextGrpId": 2464834436
        },
        {
            "index": 14,
            "grpId": 2464834436,
            "nextGrpId": 2464834437
        },
        {
            "index": 15,
            "grpId": 2464834437,
            "nextGrpId": 2464834438
        },
        {
            "index": 16,
            "grpId": 2464834438,
            "nextGrpId": 2464834439
        },
        {
            "index": 17,
            "grpId": 2464834439,
            "nextGrpId": 2464834440
        },
        {
            "index": 18,
            "grpId": 2464834440,
            "nextGrpId": 2464834462
        },
        {
            "index": 19,
            "grpId": 2464834462,
            "nextGrpId": 2464834463
        },
        {
            "index": 20,
            "grpId": 2464834463,
            "nextGrpId": 2464834464
        },
        {
            "index": 21,
            "grpId": 2464834464,
            "nextGrpId": 2464834465
        },
        {
            "index": 22,
            "grpId": 2464834465,
            "nextGrpId": 2464834466
        },
        {
            "index": 23,
            "grpId": 2464834466,
            "nextGrpId": 2464834467
        },
        {
            "index": 24,
            "grpId": 2464834467,
            "nextGrpId": 2464834468
        }
    ],
    "freeStyleDic": {
        "1033": [],
        "1031": []
    }
}