{
    "PEGAEKCDCPP": "",
    "startBlackKeepTime": 1.0,
    "GNKDILIOOFF": "",
    "disableNpcLod": true,
    "OJILILCDGAO": true,
    "OBKKGMEKEFJ": 1,
    "startFade": {
        "startFadeInDuration": 0.5,
        "startFadeOutDuration": 0.5
    },
    "endFade": {
        "startFadeOutDuration": 0.0
    },
    "actors": [
        {
            "alias": "Avatar",
            "visible": true,
            "bornPointName": "",
            "relativePosType": "AVATAR_NEW",
            "relativePosNpcAlias": ""
        },
        {
            "configID": 513,
            "alias": "513",
            "visible": true,
            "bornPointName": "Q1917303_N513",
            "removeActorType": "REMOVE",
            "relativePosType": "AVATAR_NEW",
            "relativePosNpcAlias": ""
        },
        {
            "configID": 1050,
            "alias": "1050",
            "visible": true,
            "bornPointName": "Q1917303_N1050",
            "removeActorType": "REMOVE",
            "relativePosType": "AVATAR_NEW",
            "relativePosNpcAlias": ""
        },
        {
            "configID": 1051,
            "alias": "1051",
            "visible": true,
            "bornPointName": "Q1917303_N1051",
            "removeActorType": "REMOVE",
            "relativePosType": "AVATAR_NEW",
            "relativePosNpcAlias": ""
        },
        {
            "configID": 4234,
            "alias": "4234",
            "visible": true,
            "bornPointName": "Q1917303_N4234",
            "removeActorType": "REMOVE",
            "relativePosType": "AVATAR_NEW",
            "relativePosNpcAlias": ""
        }
    ],
    "group": [
        [
            {
                "$type": "ConfigBlackScreenAction",
                "type": "BLACK_SCREEN",
                "actionId": 205,
                "blackScreenType": "KEEP_BLACK",
                "durationToBlack": 0.5,
                "durationKeepBlack": 0.5,
                "durationFromBlack": 0.5,
                "inteePos": "",
                "textMapID": "",
                "useTextFade": true
            },
            {
                "$type": "ConfigVisibleInterAction",
                "type": "VISIBLE",
                "aliasList": [
                    "Avatar"
                ],
                "actionId": 106
            },
            {
                "$type": "ConfigLookAtInterAction",
                "type": "LOOK_AT",
                "aliasList": [
                    "Avatar"
                ],
                "actionId": 219,
                "headTurnTime": 0.5,
                "targetNpcAlias": "",
                "openBackProtect": true
            },
            {
                "$type": "ConfigTeleportToAction",
                "type": "TELEPORT_TO",
                "aliasList": [
                    "Avatar"
                ],
                "actionId": 220,
                "position": {
                    "x": -1056.802978515625,
                    "y": 293.6759948730469,
                    "z": 3211.986083984375
                },
                "forward": {
                    "x": 0.09600000083446503,
                    "z": -1.1130000352859497
                },
                "openLongDisTeleport": true
            },
            {
                "$type": "ConfigLookAtInterAction",
                "type": "LOOK_AT",
                "aliasList": [
                    "513"
                ],
                "actionId": 176,
                "enableAbsolute": true,
                "targetOffset": {
                    "x": 2347.527099609375,
                    "y": 261.25201416015625,
                    "z": -699.9879760742188
                },
                "targetPosition": {
                    "x": 2020.490966796875,
                    "y": 261.9219970703125,
                    "z": -359.2409973144531
                },
                "headTurnTime": 0.30000001192092896,
                "targetNpcAlias": "",
                "lookAtTargetType": "NONE"
            },
            {
                "$type": "ConfigTeleportToAction",
                "type": "TELEPORT_TO",
                "aliasList": [
                    "513"
                ],
                "actionId": 229,
                "position": {
                    "x": -1058.3690185546875,
                    "y": 293.6759948730469,
                    "z": 3206.72412109375
                },
                "forward": {
                    "x": 0.6489999890327454,
                    "z": 0.7680000066757202
                },
                "openLongDisTeleport": true
            },
            {
                "$type": "ConfigLookAtInterAction",
                "type": "LOOK_AT",
                "aliasList": [
                    "1050"
                ],
                "actionId": 177,
                "enableAbsolute": true,
                "targetOffset": {
                    "x": 2347.527099609375,
                    "y": 261.25201416015625,
                    "z": -699.9879760742188
                },
                "targetPosition": {
                    "x": 2020.490966796875,
                    "y": 261.9219970703125,
                    "z": -359.2409973144531
                },
                "headTurnTime": 0.30000001192092896,
                "targetNpcAlias": "",
                "lookAtTargetType": "NONE"
            },
            {
                "$type": "ConfigTeleportToAction",
                "type": "TELEPORT_TO",
                "aliasList": [
                    "1050"
                ],
                "actionId": 201,
                "position": {
                    "x": -1055.8699951171875,
                    "y": 293.6759948730469,
                    "z": 3208.805908203125
                },
                "forward": {
                    "x": -1.0369999408721924,
                    "z": 0.296999990940094
                },
                "openLongDisTeleport": true
            },
            {
                "$type": "ConfigLookAtInterAction",
                "type": "LOOK_AT",
                "aliasList": [
                    "1051"
                ],
                "actionId": 178,
                "enableAbsolute": true,
                "targetOffset": {
                    "x": 2347.527099609375,
                    "y": 261.25201416015625,
                    "z": -699.9879760742188
                },
                "targetPosition": {
                    "x": 2020.490966796875,
                    "y": 261.9219970703125,
                    "z": -359.2409973144531
                },
                "headTurnTime": 0.30000001192092896,
                "targetNpcAlias": "",
                "lookAtTargetType": "NONE"
            },
            {
                "$type": "ConfigTeleportToAction",
                "type": "TELEPORT_TO",
                "aliasList": [
                    "1051"
                ],
                "actionId": 202,
                "position": {
                    "x": -1058.04296875,
                    "y": 293.6759948730469,
                    "z": 3210.9189453125
                },
                "forward": {
                    "x": 0.4819999933242798,
                    "z": -0.5929999947547913
                },
                "openLongDisTeleport": true
            },
            {
                "$type": "ConfigLookAtInterAction",
                "type": "LOOK_AT",
                "aliasList": [
                    "4234"
                ],
                "actionId": 179,
                "enableAbsolute": true,
                "targetOffset": {
                    "x": 2347.527099609375,
                    "y": 261.25201416015625,
                    "z": -699.9879760742188
                },
                "targetPosition": {
                    "x": 2020.490966796875,
                    "y": 261.9219970703125,
                    "z": -359.2409973144531
                },
                "headTurnTime": 0.30000001192092896,
                "targetNpcAlias": "",
                "lookAtTargetType": "NONE"
            },
            {
                "$type": "ConfigTeleportToAction",
                "type": "TELEPORT_TO",
                "aliasList": [
                    "4234"
                ],
                "actionId": 203,
                "position": {
                    "x": -1054.9659423828125,
                    "y": 293.66900634765625,
                    "z": 3214.73095703125
                },
                "forward": {
                    "x": -0.8190000057220459,
                    "z": -0.5740000009536743
                },
                "openLongDisTeleport": true
            },
            {
                "$type": "ConfigCameraMoveInterAction",
                "type": "CAMERA_MOVE",
                "delayTime": 0.10000000149011612,
                "duration": 1.0,
                "actionId": 204,
                "cameraPosType": "RELATIVE_TO_TARGET_ENTITY",
                "camTargetType": "RELATIVE_TO_TARGET_ENTITY",
                "camFov": 30.0,
                "lerpPattern": 6,
                "cameraBlendType": "EaseInOutCubic",
                "cutFrameTrans": {},
                "openCameraDither": false,
                "targetNpcAlias": "513",
                "closeTreeLeafDither": true
            },
            {
                "$type": "ConfigEmotionTemplateAction",
                "type": "EMOTION_TEMPLATE",
                "delayTime": 0.10000000149011612,
                "aliasList": [
                    "513"
                ],
                "actionId": 180,
                "emoTemplateID": 10100
            }
        ],
        [
            {
                "$type": "ConfigCameraMoveInterAction",
                "type": "CAMERA_MOVE",
                "duration": 1.0,
                "actionId": 146,
                "cameraPosType": "RELATIVE_TO_TARGET_ENTITY",
                "camTargetType": "RELATIVE_TO_TARGET_ENTITY",
                "camFov": 30.0,
                "lerpPattern": 6,
                "cameraBlendType": "EaseInOutCubic",
                "cutFrameTrans": {},
                "openCameraDither": false,
                "targetNpcAlias": "513",
                "closeTreeLeafDither": true
            },
            {
                "$type": "ConfigBlackScreenAction",
                "type": "BLACK_SCREEN",
                "actionId": 206,
                "blackScreenType": "FROM_BLACK",
                "durationToBlack": 0.5,
                "durationKeepBlack": 0.5,
                "durationFromBlack": 0.5,
                "inteePos": "",
                "textMapID": "",
                "useTextFade": true
            },
            {
                "$type": "ConfigDialogInterAction",
                "type": "DIALOG",
                "delayTime": 0.5,
                "aliasList": [
                    "513"
                ],
                "actionId": 109,
                "dialogID": 191731701,
                "protectTime": 0.5
            },
            {
                "$type": "ConfigEmoSyncInterAction",
                "type": "EMO_SYNC",
                "delayTime": 0.5,
                "aliasList": [
                    "513"
                ],
                "actionId": 182,
                "dataPath": "Cs_Emo_Avatar_Simple_Common_Set/Cs_Emo_Avatar_Talk/Cs_Emo_Coop_Common/Cs_Emo_Coop_Faruzan_01/Cs_Emo_191731701",
                "phonemePath": "",
                "emotionPath": "",
                "mateDataPath": "",
                "matePhonemePath": "",
                "mateEmotionPath": "",
                "dataPathHashList": [
                    409283536506275622,
                    5276841782735326299,
                    851678666437042485,
                    5722789461640060563
                ]
            }
        ],
        [
            {
                "$type": "ConfigCameraMoveInterAction",
                "type": "CAMERA_MOVE",
                "duration": 1.0,
                "actionId": 147,
                "cameraPosType": "RELATIVE_TO_TARGET_ENTITY",
                "camTargetType": "RELATIVE_TO_TARGET_ENTITY",
                "camFov": 30.0,
                "lerpPattern": 6,
                "cameraBlendType": "EaseInOutCubic",
                "cutFrameTrans": {},
                "openCameraDither": false,
                "targetNpcAlias": "1050",
                "closeTreeLeafDither": true
            },
            {
                "$type": "ConfigDialogInterAction",
                "type": "DIALOG",
                "aliasList": [
                    "1050"
                ],
                "actionId": 111,
                "dialogID": 191731702,
                "protectTime": 0.5
            },
            {
                "$type": "ConfigEmoSyncInterAction",
                "type": "EMO_SYNC",
                "aliasList": [
                    "1050"
                ],
                "actionId": 195,
                "dataPath": "Cs_Emo_Avatar_Simple_Common_Set/Cs_Emo_Avatar_Talk/Cs_Emo_Coop_Common/Cs_Emo_Coop_Faruzan_01/Cs_Emo_191731702",
                "phonemePath": "",
                "emotionPath": "",
                "mateDataPath": "",
                "matePhonemePath": "",
                "mateEmotionPath": "",
                "dataPathHashList": [
                    16644242191331467636,
                    12793256201162895538,
                    15200293233629963734,
                    13098196459698230842
                ]
            },
            {
                "$type": "ConfigBodyLangInterAction",
                "type": "BODY_LANG",
                "aliasList": [
                    "1050"
                ],
                "actionId": 207,
                "bodyLangParam": 1171,
                "forceDoFreeStyle": true,
                "canDoRepeatFreeStyle": false,
                "cantBackToIdleWhenSitLoop": true,
                "eventPatternSuiteKey": ""
            }
        ],
        [
            {
                "$type": "ConfigCameraMoveInterAction",
                "type": "CAMERA_MOVE",
                "duration": 1.0,
                "actionId": 148,
                "cameraPosType": "RELATIVE_TO_TARGET_ENTITY",
                "camTargetType": "RELATIVE_TO_TARGET_ENTITY",
                "camFov": 30.0,
                "lerpPattern": 6,
                "cameraBlendType": "EaseInOutCubic",
                "cutFrameTrans": {},
                "openCameraDither": false,
                "targetNpcAlias": "513",
                "closeTreeLeafDither": true
            },
            {
                "$type": "ConfigDialogInterAction",
                "type": "DIALOG",
                "aliasList": [
                    "513"
                ],
                "actionId": 113,
                "dialogID": 191731703,
                "protectTime": 0.5
            },
            {
                "$type": "ConfigEmotionTemplateAction",
                "type": "EMOTION_TEMPLATE",
                "aliasList": [
                    "513"
                ],
                "actionId": 162,
                "emoTemplateID": 10201
            },
            {
                "$type": "ConfigEmoSyncInterAction",
                "type": "EMO_SYNC",
                "aliasList": [
                    "513"
                ],
                "actionId": 183,
                "dataPath": "Cs_Emo_Avatar_Simple_Common_Set/Cs_Emo_Avatar_Talk/Cs_Emo_Coop_Common/Cs_Emo_Coop_Faruzan_01/Cs_Emo_191731703",
                "phonemePath": "",
                "emotionPath": "",
                "mateDataPath": "",
                "matePhonemePath": "",
                "mateEmotionPath": "",
                "dataPathHashList": [
                    16010037173237668373,
                    4329093169972077221,
                    5115917219575096706,
                    3356490321726336027
                ]
            },
            {
                "$type": "ConfigDialogSelectAction",
                "type": "DIALOG_SELECT",
                "delayTime": 0.4000000059604645,
                "aliasList": [
                    "Avatar"
                ],
                "actionId": 114,
                "dialogIDList": [
                    191731704
                ],
                "grpIDList": [
                    1405921881
                ],
                "useGrpId": true,
                "countDownGrpId": 1405921876
            }
        ],
        [
            {
                "$type": "ConfigDialogInterAction",
                "type": "DIALOG",
                "aliasList": [
                    "513"
                ],
                "actionId": 116,
                "dialogID": 191731705,
                "protectTime": 0.5
            },
            {
                "$type": "ConfigEmotionTemplateAction",
                "type": "EMOTION_TEMPLATE",
                "aliasList": [
                    "513"
                ],
                "actionId": 163,
                "emoTemplateID": 10100
            },
            {
                "$type": "ConfigEmoSyncInterAction",
                "type": "EMO_SYNC",
                "aliasList": [
                    "513"
                ],
                "actionId": 184,
                "dataPath": "Cs_Emo_Avatar_Simple_Common_Set/Cs_Emo_Avatar_Talk/Cs_Emo_Coop_Common/Cs_Emo_Coop_Faruzan_01/Cs_Emo_191731705",
                "phonemePath": "",
                "emotionPath": "",
                "mateDataPath": "",
                "matePhonemePath": "",
                "mateEmotionPath": "",
                "dataPathHashList": [
                    6089976047622859089,
                    3068102804805305439,
                    6524566887082521144,
                    7716782367674085865
                ]
            }
        ],
        [
            {
                "$type": "ConfigCameraMoveInterAction",
                "type": "CAMERA_MOVE",
                "duration": 1.0,
                "actionId": 149,
                "cameraPosType": "RELATIVE_TO_TARGET_ENTITY",
                "camTargetType": "RELATIVE_TO_TARGET_ENTITY",
                "camFov": 30.0,
                "lerpPattern": 6,
                "cameraBlendType": "EaseInOutCubic",
                "cutFrameTrans": {},
                "openCameraDither": false,
                "targetNpcAlias": "1051",
                "closeTreeLeafDither": true
            },
            {
                "$type": "ConfigDialogInterAction",
                "type": "DIALOG",
                "aliasList": [
                    "1051"
                ],
                "actionId": 118,
                "dialogID": 191731706,
                "protectTime": 0.5
            },
            {
                "$type": "ConfigEmoSyncInterAction",
                "type": "EMO_SYNC",
                "aliasList": [
                    "1051"
                ],
                "actionId": 197,
                "dataPath": "Cs_Emo_Avatar_Simple_Common_Set/Cs_Emo_Avatar_Talk/Cs_Emo_Coop_Common/Cs_Emo_Coop_Faruzan_01/Cs_Emo_191731706",
                "phonemePath": "",
                "emotionPath": "",
                "mateDataPath": "",
                "matePhonemePath": "",
                "mateEmotionPath": "",
                "dataPathHashList": [
                    10952464553236456037,
                    16745085740164154464,
                    1434051193742222758,
                    13881726690137612916
                ]
            },
            {
                "$type": "ConfigBodyLangInterAction",
                "type": "BODY_LANG",
                "aliasList": [
                    "1051"
                ],
                "actionId": 208,
                "bodyLangParam": 1190,
                "forceDoFreeStyle": true,
                "canDoRepeatFreeStyle": false,
                "cantBackToIdleWhenSitLoop": true,
                "eventPatternSuiteKey": ""
            }
        ],
        [
            {
                "$type": "ConfigCameraMoveInterAction",
                "type": "CAMERA_MOVE",
                "duration": 1.0,
                "actionId": 150,
                "cameraPosType": "RELATIVE_TO_TARGET_ENTITY",
                "camTargetType": "RELATIVE_TO_TARGET_ENTITY",
                "camFov": 30.0,
                "lerpPattern": 6,
                "cameraBlendType": "EaseInOutCubic",
                "cutFrameTrans": {},
                "openCameraDither": false,
                "targetNpcAlias": "513",
                "closeTreeLeafDither": true
            },
            {
                "$type": "ConfigDialogInterAction",
                "type": "DIALOG",
                "aliasList": [
                    "513"
                ],
                "actionId": 120,
                "dialogID": 191731707,
                "protectTime": 0.5
            },
            {
                "$type": "ConfigEmotionTemplateAction",
                "type": "EMOTION_TEMPLATE",
                "aliasList": [
                    "513"
                ],
                "actionId": 164,
                "emoTemplateID": 10301
            },
            {
                "$type": "ConfigEmoSyncInterAction",
                "type": "EMO_SYNC",
                "aliasList": [
                    "513"
                ],
                "actionId": 185,
                "dataPath": "Cs_Emo_Avatar_Simple_Common_Set/Cs_Emo_Avatar_Talk/Cs_Emo_Coop_Common/Cs_Emo_Coop_Faruzan_01/Cs_Emo_191731707",
                "phonemePath": "",
                "emotionPath": "",
                "mateDataPath": "",
                "matePhonemePath": "",
                "mateEmotionPath": "",
                "dataPathHashList": [
                    13636112216474290147,
                    14617102098535691371,
                    1175137951697648841,
                    10459856000002745756
                ]
            },
            {
                "$type": "ConfigBodyLangInterAction",
                "type": "BODY_LANG",
                "aliasList": [
                    "1051"
                ],
                "actionId": 222,
                "isContinue": true,
                "forceDoFreeStyle": true,
                "canDoRepeatFreeStyle": false,
                "cantBackToIdleWhenSitLoop": true,
                "eventPatternSuiteKey": ""
            }
        ],
        [
            {
                "$type": "ConfigDialogInterAction",
                "type": "DIALOG",
                "aliasList": [
                    "513"
                ],
                "actionId": 122,
                "dialogID": 191731708,
                "protectTime": 0.5
            },
            {
                "$type": "ConfigEmotionTemplateAction",
                "type": "EMOTION_TEMPLATE",
                "aliasList": [
                    "513"
                ],
                "actionId": 165,
                "emoTemplateID": 10100
            },
            {
                "$type": "ConfigEmoSyncInterAction",
                "type": "EMO_SYNC",
                "aliasList": [
                    "513"
                ],
                "actionId": 186,
                "dataPath": "Cs_Emo_Avatar_Simple_Common_Set/Cs_Emo_Avatar_Talk/Cs_Emo_Coop_Common/Cs_Emo_Coop_Faruzan_01/Cs_Emo_191731708",
                "phonemePath": "",
                "emotionPath": "",
                "mateDataPath": "",
                "matePhonemePath": "",
                "mateEmotionPath": "",
                "dataPathHashList": [
                    6073875401681461297,
                    13736399492121625647,
                    9284485824399814889,
                    6826632829289619579
                ]
            }
        ],
        [
            {
                "$type": "ConfigDialogInterAction",
                "type": "DIALOG",
                "aliasList": [
                    "513"
                ],
                "actionId": 124,
                "dialogID": 191731709,
                "protectTime": 0.5
            },
            {
                "$type": "ConfigEmotionTemplateAction",
                "type": "EMOTION_TEMPLATE",
                "aliasList": [
                    "513"
                ],
                "actionId": 166,
                "emoTemplateID": 10601
            },
            {
                "$type": "ConfigEmoSyncInterAction",
                "type": "EMO_SYNC",
                "aliasList": [
                    "513"
                ],
                "actionId": 187,
                "dataPath": "Cs_Emo_Avatar_Simple_Common_Set/Cs_Emo_Avatar_Talk/Cs_Emo_Coop_Common/Cs_Emo_Coop_Faruzan_01/Cs_Emo_191731709",
                "phonemePath": "",
                "emotionPath": "",
                "mateDataPath": "",
                "matePhonemePath": "",
                "mateEmotionPath": "",
                "dataPathHashList": [
                    6379363744857353902,
                    7381399475002781052,
                    16076184894921730160,
                    7609770891151468605
                ]
            }
        ],
        [
            {
                "$type": "ConfigDialogInterAction",
                "type": "DIALOG",
                "aliasList": [
                    "513"
                ],
                "actionId": 126,
                "dialogID": 191731710,
                "protectTime": 0.5
            },
            {
                "$type": "ConfigEmotionTemplateAction",
                "type": "EMOTION_TEMPLATE",
                "aliasList": [
                    "513"
                ],
                "actionId": 167,
                "emoTemplateID": 10100
            },
            {
                "$type": "ConfigEmoSyncInterAction",
                "type": "EMO_SYNC",
                "aliasList": [
                    "513"
                ],
                "actionId": 188,
                "dataPath": "Cs_Emo_Avatar_Simple_Common_Set/Cs_Emo_Avatar_Talk/Cs_Emo_Coop_Common/Cs_Emo_Coop_Faruzan_01/Cs_Emo_191731710",
                "phonemePath": "",
                "emotionPath": "",
                "mateDataPath": "",
                "matePhonemePath": "",
                "mateEmotionPath": "",
                "dataPathHashList": [
                    6675122738407924314,
                    886724354647185933,
                    6287537812210828052,
                    14933145450402547926
                ]
            }
        ],
        [
            {
                "$type": "ConfigDialogInterAction",
                "type": "DIALOG",
                "aliasList": [
                    "513"
                ],
                "actionId": 128,
                "dialogID": 191731711,
                "protectTime": 0.5
            },
            {
                "$type": "ConfigEmotionTemplateAction",
                "type": "EMOTION_TEMPLATE",
                "aliasList": [
                    "513"
                ],
                "actionId": 168,
                "emoTemplateID": 10101
            },
            {
                "$type": "ConfigEmoSyncInterAction",
                "type": "EMO_SYNC",
                "aliasList": [
                    "513"
                ],
                "actionId": 189,
                "dataPath": "Cs_Emo_Avatar_Simple_Common_Set/Cs_Emo_Avatar_Talk/Cs_Emo_Coop_Common/Cs_Emo_Coop_Faruzan_01/Cs_Emo_191731711",
                "phonemePath": "",
                "emotionPath": "",
                "mateDataPath": "",
                "matePhonemePath": "",
                "mateEmotionPath": "",
                "dataPathHashList": [
                    202565479465232569,
                    14982095362634216817,
                    9064356268929760248,
                    13689782281967347860
                ]
            }
        ],
        [
            {
                "$type": "ConfigCameraMoveInterAction",
                "type": "CAMERA_MOVE",
                "duration": 0.5,
                "actionId": 221,
                "camPosOffset": {
                    "x": -1058.333984375,
                    "y": 294.5570068359375,
                    "z": 3212.340087890625
                },
                "camForwardTargetOffset": {
                    "x": -1057.5269775390625,
                    "y": 294.4519958496094,
                    "z": 3212.922119140625
                },
                "lerpPattern": 6,
                "cameraBlendType": "EaseInOutCubic",
                "cutFrameTrans": {},
                "needZAxisRotate": true,
                "openCameraDither": false,
                "targetNpcAlias": "",
                "closeTreeLeafDither": true
            },
            {
                "$type": "ConfigDialogInterAction",
                "type": "DIALOG",
                "aliasList": [
                    "4234"
                ],
                "actionId": 130,
                "dialogID": 191731712,
                "protectTime": 0.5
            },
            {
                "$type": "ConfigEmoSyncInterAction",
                "type": "EMO_SYNC",
                "aliasList": [
                    "4234"
                ],
                "actionId": 199,
                "dataPath": "Cs_Emo_Avatar_Simple_Common_Set/Cs_Emo_Avatar_Talk/Cs_Emo_Coop_Common/Cs_Emo_Coop_Faruzan_01/Cs_Emo_191731712",
                "phonemePath": "",
                "emotionPath": "",
                "mateDataPath": "",
                "matePhonemePath": "",
                "mateEmotionPath": "",
                "dataPathHashList": [
                    11903843992215365848,
                    17464926861490333469,
                    5077318170729161420,
                    4774427329822040280
                ]
            }
        ],
        [
            {
                "$type": "ConfigCameraMoveInterAction",
                "type": "CAMERA_MOVE",
                "duration": 1.0,
                "actionId": 152,
                "cameraPosType": "RELATIVE_TO_TARGET_ENTITY",
                "camTargetType": "RELATIVE_TO_TARGET_ENTITY",
                "camFov": 30.0,
                "lerpPattern": 6,
                "cameraBlendType": "EaseInOutCubic",
                "cutFrameTrans": {},
                "openCameraDither": false,
                "targetNpcAlias": "513",
                "closeTreeLeafDither": true
            },
            {
                "$type": "ConfigDialogInterAction",
                "type": "DIALOG",
                "aliasList": [
                    "513"
                ],
                "actionId": 132,
                "dialogID": 191731713,
                "protectTime": 0.5
            },
            {
                "$type": "ConfigEmotionTemplateAction",
                "type": "EMOTION_TEMPLATE",
                "aliasList": [
                    "513"
                ],
                "actionId": 169,
                "emoTemplateID": 10100
            },
            {
                "$type": "ConfigEmoSyncInterAction",
                "type": "EMO_SYNC",
                "aliasList": [
                    "513"
                ],
                "actionId": 190,
                "dataPath": "Cs_Emo_Avatar_Simple_Common_Set/Cs_Emo_Avatar_Talk/Cs_Emo_Coop_Common/Cs_Emo_Coop_Faruzan_01/Cs_Emo_191731713",
                "phonemePath": "",
                "emotionPath": "",
                "mateDataPath": "",
                "matePhonemePath": "",
                "mateEmotionPath": "",
                "dataPathHashList": [
                    13743524917992643371,
                    11045422850048477056,
                    6684650815680061161,
                    8585009113814219830
                ]
            }
        ],
        [
            {
                "$type": "ConfigDialogInterAction",
                "type": "DIALOG",
                "aliasList": [
                    "513"
                ],
                "actionId": 134,
                "dialogID": 191731714,
                "protectTime": 0.5
            },
            {
                "$type": "ConfigEmotionTemplateAction",
                "type": "EMOTION_TEMPLATE",
                "aliasList": [
                    "513"
                ],
                "actionId": 170,
                "emoTemplateID": 10201
            },
            {
                "$type": "ConfigEmoSyncInterAction",
                "type": "EMO_SYNC",
                "aliasList": [
                    "513"
                ],
                "actionId": 191,
                "dataPath": "Cs_Emo_Avatar_Simple_Common_Set/Cs_Emo_Avatar_Talk/Cs_Emo_Coop_Common/Cs_Emo_Coop_Faruzan_01/Cs_Emo_191731714",
                "phonemePath": "",
                "emotionPath": "",
                "mateDataPath": "",
                "matePhonemePath": "",
                "mateEmotionPath": "",
                "dataPathHashList": [
                    2182731607461617107,
                    4379188104373315975,
                    12727903740862102230,
                    7053099066756615059
                ]
            }
        ],
        [
            {
                "$type": "ConfigCameraMoveInterAction",
                "type": "CAMERA_MOVE",
                "duration": 1.0,
                "actionId": 153,
                "cameraPosType": "RELATIVE_TO_TARGET_ENTITY",
                "camTargetType": "RELATIVE_TO_TARGET_ENTITY",
                "camFov": 30.0,
                "lerpPattern": 6,
                "cameraBlendType": "EaseInOutCubic",
                "cutFrameTrans": {},
                "openCameraDither": false,
                "targetNpcAlias": "1050",
                "closeTreeLeafDither": true
            },
            {
                "$type": "ConfigDialogInterAction",
                "type": "DIALOG",
                "aliasList": [
                    "1050"
                ],
                "actionId": 136,
                "dialogID": 191731715,
                "protectTime": 0.5
            },
            {
                "$type": "ConfigEmoSyncInterAction",
                "type": "EMO_SYNC",
                "aliasList": [
                    "1050"
                ],
                "actionId": 196,
                "dataPath": "Cs_Emo_Avatar_Simple_Common_Set/Cs_Emo_Avatar_Talk/Cs_Emo_Coop_Common/Cs_Emo_Coop_Faruzan_01/Cs_Emo_191731715",
                "phonemePath": "",
                "emotionPath": "",
                "mateDataPath": "",
                "matePhonemePath": "",
                "mateEmotionPath": "",
                "dataPathHashList": [
                    5905933305017012957,
                    13571199280327210526,
                    13054911987592376822,
                    10063015068341211683
                ]
            },
            {
                "$type": "ConfigBodyLangInterAction",
                "type": "BODY_LANG",
                "aliasList": [
                    "1050"
                ],
                "actionId": 210,
                "bodyLangParam": 4030,
                "forceDoFreeStyle": true,
                "canDoRepeatFreeStyle": false,
                "cantBackToIdleWhenSitLoop": true,
                "eventPatternSuiteKey": ""
            },
            {
                "$type": "ConfigBodyLangInterAction",
                "type": "BODY_LANG",
                "aliasList": [
                    "1050"
                ],
                "actionId": 211,
                "bodyLangParam": 1130,
                "forceDoFreeStyle": true,
                "canDoRepeatFreeStyle": false,
                "cantBackToIdleWhenSitLoop": true,
                "eventPatternSuiteKey": ""
            },
            {
                "$type": "ConfigBodyLangInterAction",
                "type": "BODY_LANG",
                "delayTime": 1.6369999647140503,
                "aliasList": [
                    "1050"
                ],
                "actionId": 212,
                "isContinue": true,
                "forceDoFreeStyle": true,
                "canDoRepeatFreeStyle": false,
                "cantBackToIdleWhenSitLoop": true,
                "eventPatternSuiteKey": ""
            }
        ],
        [
            {
                "$type": "ConfigCameraMoveInterAction",
                "type": "CAMERA_MOVE",
                "duration": 1.0,
                "actionId": 154,
                "cameraPosType": "RELATIVE_TO_TARGET_ENTITY",
                "camTargetType": "RELATIVE_TO_TARGET_ENTITY",
                "camFov": 30.0,
                "lerpPattern": 6,
                "cameraBlendType": "EaseInOutCubic",
                "cutFrameTrans": {},
                "openCameraDither": false,
                "targetNpcAlias": "1051",
                "closeTreeLeafDither": true
            },
            {
                "$type": "ConfigBodyLangInterAction",
                "type": "BODY_LANG",
                "aliasList": [
                    "1050"
                ],
                "actionId": 213,
                "isContinue": true,
                "forceDoFreeStyle": true,
                "canDoRepeatFreeStyle": false,
                "cantBackToIdleWhenSitLoop": true,
                "eventPatternSuiteKey": ""
            },
            {
                "$type": "ConfigDialogInterAction",
                "type": "DIALOG",
                "aliasList": [
                    "1051"
                ],
                "actionId": 138,
                "dialogID": 191731716,
                "protectTime": 0.5
            },
            {
                "$type": "ConfigEmoSyncInterAction",
                "type": "EMO_SYNC",
                "aliasList": [
                    "1051"
                ],
                "actionId": 198,
                "dataPath": "Cs_Emo_Avatar_Simple_Common_Set/Cs_Emo_Avatar_Talk/Cs_Emo_Coop_Common/Cs_Emo_Coop_Faruzan_01/Cs_Emo_191731716",
                "phonemePath": "",
                "emotionPath": "",
                "mateDataPath": "",
                "matePhonemePath": "",
                "mateEmotionPath": "",
                "dataPathHashList": [
                    5982882758913141674,
                    4922070857730638648,
                    17244090833510564745,
                    14961735188080088277
                ]
            },
            {
                "$type": "ConfigBodyLangInterAction",
                "type": "BODY_LANG",
                "aliasList": [
                    "1051"
                ],
                "actionId": 214,
                "bodyLangParam": 1060,
                "forceDoFreeStyle": true,
                "canDoRepeatFreeStyle": false,
                "cantBackToIdleWhenSitLoop": true,
                "eventPatternSuiteKey": ""
            },
            {
                "$type": "ConfigDialogSelectAction",
                "type": "DIALOG_SELECT",
                "delayTime": 0.4000000059604645,
                "aliasList": [
                    "Avatar"
                ],
                "actionId": 139,
                "dialogIDList": [
                    191731717
                ],
                "grpIDList": [
                    633905282
                ],
                "useGrpId": true,
                "countDownGrpId": 1405921876
            },
            {
                "$type": "ConfigBodyLangInterAction",
                "type": "BODY_LANG",
                "delayTime": 3.4800000190734863,
                "aliasList": [
                    "1051"
                ],
                "actionId": 223,
                "isContinue": true,
                "forceDoFreeStyle": true,
                "canDoRepeatFreeStyle": false,
                "cantBackToIdleWhenSitLoop": true,
                "eventPatternSuiteKey": ""
            }
        ],
        [
            {
                "$type": "ConfigCameraMoveInterAction",
                "type": "CAMERA_MOVE",
                "duration": 1.0,
                "actionId": 155,
                "cameraPosType": "RELATIVE_TO_TARGET_ENTITY",
                "camTargetType": "RELATIVE_TO_TARGET_ENTITY",
                "camFov": 30.0,
                "lerpPattern": 6,
                "cameraBlendType": "EaseInOutCubic",
                "cutFrameTrans": {},
                "openCameraDither": false,
                "targetNpcAlias": "513",
                "closeTreeLeafDither": true
            },
            {
                "$type": "ConfigDialogInterAction",
                "type": "DIALOG",
                "aliasList": [
                    "513"
                ],
                "actionId": 141,
                "dialogID": 191731718,
                "protectTime": 0.5
            },
            {
                "$type": "ConfigEmoSyncInterAction",
                "type": "EMO_SYNC",
                "aliasList": [
                    "513"
                ],
                "actionId": 192,
                "dataPath": "Cs_Emo_Avatar_Simple_Common_Set/Cs_Emo_Avatar_Talk/Cs_Emo_Coop_Common/Cs_Emo_Coop_Faruzan_01/Cs_Emo_191731718",
                "phonemePath": "",
                "emotionPath": "",
                "mateDataPath": "",
                "matePhonemePath": "",
                "mateEmotionPath": "",
                "dataPathHashList": [
                    13551235218681102594,
                    11590968545139202395,
                    28401951942322664,
                    10808669908865821702
                ]
            },
            {
                "$type": "ConfigBodyLangInterAction",
                "type": "BODY_LANG",
                "aliasList": [
                    "1051"
                ],
                "actionId": 216,
                "isContinue": true,
                "forceDoFreeStyle": true,
                "canDoRepeatFreeStyle": false,
                "cantBackToIdleWhenSitLoop": true,
                "eventPatternSuiteKey": ""
            }
        ],
        [
            {
                "$type": "ConfigDialogInterAction",
                "type": "DIALOG",
                "aliasList": [
                    "513"
                ],
                "actionId": 143,
                "dialogID": 191731719,
                "protectTime": 0.5
            },
            {
                "$type": "ConfigEmotionTemplateAction",
                "type": "EMOTION_TEMPLATE",
                "aliasList": [
                    "513"
                ],
                "actionId": 172,
                "emoTemplateID": 10100
            },
            {
                "$type": "ConfigEmoSyncInterAction",
                "type": "EMO_SYNC",
                "aliasList": [
                    "513"
                ],
                "actionId": 193,
                "dataPath": "Cs_Emo_Avatar_Simple_Common_Set/Cs_Emo_Avatar_Talk/Cs_Emo_Coop_Common/Cs_Emo_Coop_Faruzan_01/Cs_Emo_191731719",
                "phonemePath": "",
                "emotionPath": "",
                "mateDataPath": "",
                "matePhonemePath": "",
                "mateEmotionPath": "",
                "dataPathHashList": [
                    12253766412965724666,
                    15049471188456394606,
                    3525916855149785295,
                    9761663646691022829
                ]
            }
        ],
        [
            {
                "$type": "ConfigDialogInterAction",
                "type": "DIALOG",
                "aliasList": [
                    "513"
                ],
                "actionId": 145,
                "dialogID": 191731720,
                "protectTime": 0.5
            },
            {
                "$type": "ConfigEmotionTemplateAction",
                "type": "EMOTION_TEMPLATE",
                "aliasList": [
                    "513"
                ],
                "actionId": 173,
                "emoTemplateID": 10101
            },
            {
                "$type": "ConfigEmoSyncInterAction",
                "type": "EMO_SYNC",
                "aliasList": [
                    "513"
                ],
                "actionId": 194,
                "dataPath": "Cs_Emo_Avatar_Simple_Common_Set/Cs_Emo_Avatar_Talk/Cs_Emo_Coop_Common/Cs_Emo_Coop_Faruzan_01/Cs_Emo_191731720",
                "phonemePath": "",
                "emotionPath": "",
                "mateDataPath": "",
                "matePhonemePath": "",
                "mateEmotionPath": "",
                "dataPathHashList": [
                    6350345260885665183,
                    3261163326683096333,
                    8602031304853892295,
                    16780332102433382985
                ]
            }
        ],
        [
            {
                "$type": "ConfigSimpleBlackScreenAction",
                "type": "SIMPLE_BLACK_SCREEN",
                "actionId": 104,
                "durationToBlack": 0.5,
                "durationKeepBlack": 2.0,
                "durationFromBlack": 0.5,
                "textMapID": ""
            },
            {
                "$type": "ConfigDialogInterAction",
                "type": "DIALOG_CLEAR",
                "actionId": 105
            },
            {
                "$type": "ConfigCameraMoveInterAction",
                "type": "CAMERA_MOVE",
                "delayTime": 0.6000000238418579,
                "duration": 0.10000000149011612,
                "actionId": 217,
                "cameraPosType": "EXIT",
                "camPosOffset": {
                    "x": -1055.72998046875,
                    "y": 298.46600341796875,
                    "z": 3205.52001953125
                },
                "camTargetType": "Other",
                "camForwardTargetOffset": {
                    "x": 33.38199996948242,
                    "y": 339.3370056152344
                },
                "lerpPattern": 6,
                "cameraBlendType": "EaseInOutCubic",
                "cutFrameTrans": {},
                "needZAxisRotate": true,
                "openCameraDither": false,
                "targetNpcAlias": "",
                "closeTreeLeafDither": true
            },
            {
                "$type": "ConfigVisibleInterAction",
                "type": "VISIBLE",
                "delayTime": 0.6000000238418579,
                "aliasList": [
                    "Avatar"
                ],
                "actionId": 107,
                "isVisible": true
            },
            {
                "$type": "ConfigTeleportToAction",
                "type": "TELEPORT_TO",
                "delayTime": 0.6000000238418579,
                "aliasList": [
                    "Avatar"
                ],
                "actionId": 218,
                "position": {
                    "x": -1057.7239990234375,
                    "y": 293.6759948730469,
                    "z": 3212.4609375
                },
                "forward": {
                    "x": 1.8109999895095825,
                    "z": 1.4570000171661377
                },
                "openLongDisTeleport": true
            },
            {
                "$type": "ConfigVisibleInterAction",
                "type": "VISIBLE",
                "delayTime": 0.6000000238418579,
                "aliasList": [
                    "513"
                ],
                "actionId": 224
            },
            {
                "$type": "ConfigVisibleInterAction",
                "type": "VISIBLE",
                "delayTime": 0.6000000238418579,
                "aliasList": [
                    "1050"
                ],
                "actionId": 225
            },
            {
                "$type": "ConfigVisibleInterAction",
                "type": "VISIBLE",
                "delayTime": 0.6000000238418579,
                "aliasList": [
                    "1051"
                ],
                "actionId": 226
            },
            {
                "$type": "ConfigTeleportToAction",
                "type": "TELEPORT_TO",
                "delayTime": 0.6000000238418579,
                "aliasList": [
                    "1051"
                ],
                "actionId": 228,
                "position": {
                    "x": -1059.405029296875,
                    "y": 293.6759948730469,
                    "z": 3214.819091796875
                },
                "forward": {
                    "x": 0.9750000238418579,
                    "z": 0.22200000286102295
                },
                "openLongDisTeleport": true
            },
            {
                "$type": "ConfigVisibleInterAction",
                "type": "VISIBLE",
                "delayTime": 0.6000000238418579,
                "aliasList": [
                    "4234"
                ],
                "actionId": 227
            }
        ]
    ],
    "groupId": [
        {
            "grpId": 1405921877,
            "nextGrpId": 1405921878
        },
        {
            "index": 1,
            "grpId": 1405921878,
            "nextGrpId": 1405921879
        },
        {
            "index": 2,
            "grpId": 1405921879,
            "nextGrpId": 1405921880
        },
        {
            "index": 3,
            "grpId": 1405921880,
            "nextGrpId": 1405921881
        },
        {
            "index": 4,
            "grpId": 1405921881,
            "nextGrpId": 1405921882
        },
        {
            "index": 5,
            "grpId": 1405921882,
            "nextGrpId": 1405921883
        },
        {
            "index": 6,
            "grpId": 1405921883,
            "nextGrpId": 1405921884
        },
        {
            "index": 7,
            "grpId": 1405921884,
            "nextGrpId": 1405921885
        },
        {
            "index": 8,
            "grpId": 1405921885,
            "nextGrpId": 633905275
        },
        {
            "index": 9,
            "grpId": 633905275,
            "nextGrpId": 633905276
        },
        {
            "index": 10,
            "grpId": 633905276,
            "nextGrpId": 633905277
        },
        {
            "index": 11,
            "grpId": 633905277,
            "nextGrpId": 633905278
        },
        {
            "index": 12,
            "grpId": 633905278,
            "nextGrpId": 633905279
        },
        {
            "index": 13,
            "grpId": 633905279,
            "nextGrpId": 633905280
        },
        {
            "index": 14,
            "grpId": 633905280,
            "nextGrpId": 633905281
        },
        {
            "index": 15,
            "grpId": 633905281,
            "nextGrpId": 633905282
        },
        {
            "index": 16,
            "grpId": 633905282,
            "nextGrpId": 633905283
        },
        {
            "index": 17,
            "grpId": 633905283,
            "nextGrpId": 633905284
        },
        {
            "index": 18,
            "grpId": 633905284,
            "nextGrpId": 633905306
        },
        {
            "index": 19,
            "grpId": 633905306,
            "nextGrpId": 633905307
        }
    ],
    "freeStyleDic": {
        "513": [
            10100,
            10201,
            10301,
            10601,
            10101
        ],
        "1050": [
            1171,
            4030,
            1130
        ],
        "1051": [
            1190,
            1060
        ]
    }
}