{
    "PEGAEKCDCPP": "",
    "GNKDILIOOFF": "",
    "disableNpcLod": true,
    "OJILILCDGAO": true,
    "startFade": {
        "startFadeOutDuration": 0.0
    },
    "endFade": {
        "startFadeOutDuration": 0.0
    },
    "actors": [
        {
            "alias": "Avatar",
            "visible": true,
            "bornPointName": "",
            "relativePosType": "AVATAR_NEW",
            "relativePosNpcAlias": ""
        },
        {
            "configID": 1051,
            "alias": "1051",
            "visible": true,
            "bornPointName": "",
            "relativePosType": "AVATAR_NEW",
            "relativePosNpcAlias": ""
        },
        {
            "configID": 513,
            "alias": "513",
            "visible": true,
            "bornPointName": "",
            "relativePosType": "AVATAR_NEW",
            "relativePosNpcAlias": ""
        },
        {
            "configID": 12922,
            "alias": "12922",
            "visible": true,
            "bornPointName": "",
            "relativePosType": "AVATAR_NEW",
            "relativePosNpcAlias": ""
        }
    ],
    "group": [
        [
            {
                "$type": "ConfigCameraMoveInterAction",
                "type": "CAMERA_MOVE",
                "duration": 1.0,
                "actionId": 152,
                "cameraPosType": "RELATIVE_TO_TARGET_ENTITY",
                "camTargetType": "RELATIVE_TO_TARGET_ENTITY",
                "camFov": 30.0,
                "lerpPattern": 6,
                "cameraBlendType": "EaseInOutCubic",
                "cutFrameTrans": {},
                "openCameraDither": false,
                "targetNpcAlias": "513",
                "closeTreeLeafDither": true
            },
            {
                "$type": "ConfigLookAtInterAction",
                "type": "LOOK_AT",
                "aliasList": [
                    "Avatar"
                ],
                "actionId": 214,
                "headTurnTime": 0.5,
                "targetNpcAlias": "",
                "openBackProtect": true
            },
            {
                "$type": "ConfigLookAtInterAction",
                "type": "LOOK_AT",
                "aliasList": [
                    "1051"
                ],
                "actionId": 213,
                "headTurnTime": 0.5,
                "targetNpcAlias": "",
                "openBackProtect": true
            },
            {
                "$type": "ConfigDialogInterAction",
                "type": "DIALOG",
                "aliasList": [
                    "513"
                ],
                "actionId": 106,
                "dialogID": 191700701,
                "protectTime": 0.5
            },
            {
                "$type": "ConfigEmotionTemplateAction",
                "type": "EMOTION_TEMPLATE",
                "aliasList": [
                    "513"
                ],
                "actionId": 168,
                "emoTemplateID": 10601
            },
            {
                "$type": "ConfigEmoSyncInterAction",
                "type": "EMO_SYNC",
                "aliasList": [
                    "513"
                ],
                "actionId": 186,
                "dataPath": "Cs_Emo_Avatar_Simple_Common_Set/Cs_Emo_Avatar_Talk/Cs_Emo_Coop_Common/Cs_Emo_Coop_Faruzan_01/Cs_Emo_191700701",
                "phonemePath": "",
                "emotionPath": "",
                "mateDataPath": "",
                "matePhonemePath": "",
                "mateEmotionPath": "",
                "dataPathHashList": [
                    17157769084199632360,
                    11007270382953136231,
                    3996828909136935341,
                    10030225543931899883
                ]
            },
            {
                "$type": "ConfigLookAtInterAction",
                "type": "LOOK_AT",
                "aliasList": [
                    "513"
                ],
                "actionId": 212,
                "headTurnTime": 0.5,
                "targetNpcAlias": "",
                "openBackProtect": true
            },
            {
                "$type": "ConfigLookAtInterAction",
                "type": "LOOK_AT",
                "aliasList": [
                    "12922"
                ],
                "actionId": 211,
                "headTurnTime": 0.5,
                "targetNpcAlias": "",
                "openBackProtect": true
            },
            {
                "$type": "ConfigLookAtEyeCtrlInterAction",
                "type": "LOOK_AT_EYECTRL",
                "aliasList": [
                    "12922"
                ],
                "actionId": 223,
                "useTargetPos": false,
                "eyeRotateVecLeft": {
                    "z": 3.0
                },
                "eyeRotateVecRight": {
                    "z": 3.0
                },
                "turnTime": 0.20000000298023224,
                "targetNpcAlias": "",
                "targetPoint": "Face"
            }
        ],
        [
            {
                "$type": "ConfigDialogInterAction",
                "type": "DIALOG",
                "aliasList": [
                    "513"
                ],
                "actionId": 108,
                "dialogID": 191700702,
                "protectTime": 0.5
            },
            {
                "$type": "ConfigEmotionTemplateAction",
                "type": "EMOTION_TEMPLATE",
                "aliasList": [
                    "513"
                ],
                "actionId": 169,
                "emoTemplateID": 10100
            },
            {
                "$type": "ConfigEmoSyncInterAction",
                "type": "EMO_SYNC",
                "aliasList": [
                    "513"
                ],
                "actionId": 187,
                "dataPath": "Cs_Emo_Avatar_Simple_Common_Set/Cs_Emo_Avatar_Talk/Cs_Emo_Coop_Common/Cs_Emo_Coop_Faruzan_01/Cs_Emo_191700702",
                "phonemePath": "",
                "emotionPath": "",
                "mateDataPath": "",
                "matePhonemePath": "",
                "mateEmotionPath": "",
                "dataPathHashList": [
                    16762298687161157262,
                    2588638397239560345,
                    15094433967823022187,
                    2274545669186357349
                ]
            },
            {
                "$type": "ConfigDialogSelectAction",
                "type": "DIALOG_SELECT",
                "delayTime": 0.4000000059604645,
                "aliasList": [
                    "Avatar"
                ],
                "actionId": 109,
                "dialogIDList": [
                    191700703,
                    191700704
                ],
                "grpIDList": [
                    1403121525,
                    1403121525
                ],
                "useGrpId": true,
                "countDownGrpId": 1403121522
            }
        ],
        [
            {
                "$type": "ConfigCameraMoveInterAction",
                "type": "CAMERA_MOVE",
                "duration": 1.0,
                "actionId": 153,
                "cameraPosType": "RELATIVE_TO_TARGET_ENTITY",
                "camTargetType": "RELATIVE_TO_TARGET_ENTITY",
                "camFov": 30.0,
                "lerpPattern": 6,
                "cameraBlendType": "EaseInOutCubic",
                "cutFrameTrans": {},
                "openCameraDither": false,
                "targetNpcAlias": "12922",
                "closeTreeLeafDither": true
            },
            {
                "$type": "ConfigDialogInterAction",
                "type": "DIALOG",
                "aliasList": [
                    "12922"
                ],
                "actionId": 111,
                "dialogID": 191700705,
                "protectTime": 0.5
            },
            {
                "$type": "ConfigEmoSyncInterAction",
                "type": "EMO_SYNC",
                "aliasList": [
                    "12922"
                ],
                "actionId": 199,
                "dataPath": "Cs_Emo_Avatar_Simple_Common_Set/Cs_Emo_Avatar_Talk/Cs_Emo_Coop_Common/Cs_Emo_Coop_Faruzan_01/Cs_Emo_191700705",
                "phonemePath": "",
                "emotionPath": "",
                "mateDataPath": "",
                "matePhonemePath": "",
                "mateEmotionPath": "",
                "dataPathHashList": [
                    3781132886450681301,
                    6139666058255888352,
                    1749214888338977474,
                    17025067869838711178
                ]
            },
            {
                "$type": "ConfigBodyLangInterAction",
                "type": "BODY_LANG",
                "aliasList": [
                    "12922"
                ],
                "actionId": 215,
                "bodyLangParam": 1171,
                "forceDoFreeStyle": true,
                "canDoRepeatFreeStyle": false,
                "cantBackToIdleWhenSitLoop": true,
                "eventPatternSuiteKey": ""
            }
        ],
        [
            {
                "$type": "ConfigCameraMoveInterAction",
                "type": "CAMERA_MOVE",
                "duration": 1.0,
                "actionId": 154,
                "cameraPosType": "RELATIVE_TO_TARGET_ENTITY",
                "camTargetType": "RELATIVE_TO_TARGET_ENTITY",
                "camFov": 30.0,
                "lerpPattern": 6,
                "cameraBlendType": "EaseInOutCubic",
                "cutFrameTrans": {},
                "openCameraDither": false,
                "targetNpcAlias": "513",
                "closeTreeLeafDither": true
            },
            {
                "$type": "ConfigDialogInterAction",
                "type": "DIALOG",
                "aliasList": [
                    "513"
                ],
                "actionId": 113,
                "dialogID": 191700706,
                "protectTime": 0.5
            },
            {
                "$type": "ConfigEmotionTemplateAction",
                "type": "EMOTION_TEMPLATE",
                "aliasList": [
                    "513"
                ],
                "actionId": 170,
                "emoTemplateID": 10501
            },
            {
                "$type": "ConfigEmoSyncInterAction",
                "type": "EMO_SYNC",
                "aliasList": [
                    "513"
                ],
                "actionId": 188,
                "dataPath": "Cs_Emo_Avatar_Simple_Common_Set/Cs_Emo_Avatar_Talk/Cs_Emo_Coop_Common/Cs_Emo_Coop_Faruzan_01/Cs_Emo_191700706",
                "phonemePath": "",
                "emotionPath": "",
                "mateDataPath": "",
                "matePhonemePath": "",
                "mateEmotionPath": "",
                "dataPathHashList": [
                    12450071024848152610,
                    6863917191855833642,
                    3331195281625643243,
                    7675534524464118211
                ]
            }
        ],
        [
            {
                "$type": "ConfigDialogInterAction",
                "type": "DIALOG",
                "aliasList": [
                    "513"
                ],
                "actionId": 115,
                "dialogID": 191700707,
                "protectTime": 0.5
            },
            {
                "$type": "ConfigEmotionTemplateAction",
                "type": "EMOTION_TEMPLATE",
                "aliasList": [
                    "513"
                ],
                "actionId": 171,
                "emoTemplateID": 10100
            },
            {
                "$type": "ConfigEmoSyncInterAction",
                "type": "EMO_SYNC",
                "aliasList": [
                    "513"
                ],
                "actionId": 189,
                "dataPath": "Cs_Emo_Avatar_Simple_Common_Set/Cs_Emo_Avatar_Talk/Cs_Emo_Coop_Common/Cs_Emo_Coop_Faruzan_01/Cs_Emo_191700707",
                "phonemePath": "",
                "emotionPath": "",
                "mateDataPath": "",
                "matePhonemePath": "",
                "mateEmotionPath": "",
                "dataPathHashList": [
                    12960324685995816053,
                    1764972557307808349,
                    3827679261747108911,
                    7609160527621199680
                ]
            }
        ],
        [
            {
                "$type": "ConfigDialogInterAction",
                "type": "DIALOG",
                "aliasList": [
                    "513"
                ],
                "actionId": 117,
                "dialogID": 191700708,
                "protectTime": 0.5
            },
            {
                "$type": "ConfigEmoSyncInterAction",
                "type": "EMO_SYNC",
                "aliasList": [
                    "513"
                ],
                "actionId": 190,
                "dataPath": "Cs_Emo_Avatar_Simple_Common_Set/Cs_Emo_Avatar_Talk/Cs_Emo_Coop_Common/Cs_Emo_Coop_Faruzan_01/Cs_Emo_191700708",
                "phonemePath": "",
                "emotionPath": "",
                "mateDataPath": "",
                "matePhonemePath": "",
                "mateEmotionPath": "",
                "dataPathHashList": [
                    9526658940506224973,
                    11319306078415687631,
                    13588502504195150724,
                    15022596550397574852
                ]
            }
        ],
        [
            {
                "$type": "ConfigCameraMoveInterAction",
                "type": "CAMERA_MOVE",
                "duration": 1.0,
                "actionId": 155,
                "cameraPosType": "RELATIVE_TO_TARGET_ENTITY",
                "camTargetType": "RELATIVE_TO_TARGET_ENTITY",
                "camFov": 30.0,
                "lerpPattern": 6,
                "cameraBlendType": "EaseInOutCubic",
                "cutFrameTrans": {},
                "openCameraDither": false,
                "targetNpcAlias": "12922",
                "closeTreeLeafDither": true
            },
            {
                "$type": "ConfigDialogInterAction",
                "type": "DIALOG",
                "aliasList": [
                    "12922"
                ],
                "actionId": 119,
                "dialogID": 191700709,
                "protectTime": 0.5
            },
            {
                "$type": "ConfigEmoSyncInterAction",
                "type": "EMO_SYNC",
                "aliasList": [
                    "12922"
                ],
                "actionId": 200,
                "dataPath": "Cs_Emo_Avatar_Simple_Common_Set/Cs_Emo_Avatar_Talk/Cs_Emo_Coop_Common/Cs_Emo_Coop_Faruzan_01/Cs_Emo_191700709",
                "phonemePath": "",
                "emotionPath": "",
                "mateDataPath": "",
                "matePhonemePath": "",
                "mateEmotionPath": "",
                "dataPathHashList": [
                    10738027387347124475,
                    4548859974985502795,
                    5322814335246220679,
                    469574420698148722
                ]
            },
            {
                "$type": "ConfigBodyLangInterAction",
                "type": "BODY_LANG",
                "aliasList": [
                    "12922"
                ],
                "actionId": 216,
                "bodyLangParam": 1150,
                "forceDoFreeStyle": true,
                "canDoRepeatFreeStyle": false,
                "cantBackToIdleWhenSitLoop": true,
                "eventPatternSuiteKey": ""
            },
            {
                "$type": "ConfigBodyLangInterAction",
                "type": "BODY_LANG",
                "delayTime": 3.3519999980926514,
                "aliasList": [
                    "12922"
                ],
                "actionId": 217,
                "bodyLangParam": 1172,
                "forceDoFreeStyle": true,
                "canDoRepeatFreeStyle": false,
                "cantBackToIdleWhenSitLoop": true,
                "eventPatternSuiteKey": ""
            }
        ],
        [
            {
                "$type": "ConfigDialogInterAction",
                "type": "DIALOG",
                "aliasList": [
                    "12922"
                ],
                "actionId": 121,
                "dialogID": 191700710,
                "protectTime": 0.5
            },
            {
                "$type": "ConfigEmoSyncInterAction",
                "type": "EMO_SYNC",
                "aliasList": [
                    "12922"
                ],
                "actionId": 201,
                "dataPath": "Cs_Emo_Avatar_Simple_Common_Set/Cs_Emo_Avatar_Talk/Cs_Emo_Coop_Common/Cs_Emo_Coop_Faruzan_01/Cs_Emo_191700710",
                "phonemePath": "",
                "emotionPath": "",
                "mateDataPath": "",
                "matePhonemePath": "",
                "mateEmotionPath": "",
                "dataPathHashList": [
                    4455867699633762546,
                    4213718776797878771,
                    12317733838587127204,
                    1998019068167240802
                ]
            },
            {
                "$type": "ConfigBodyLangInterAction",
                "type": "BODY_LANG",
                "aliasList": [
                    "12922"
                ],
                "actionId": 218,
                "bodyLangParam": 1030,
                "forceDoFreeStyle": true,
                "canDoRepeatFreeStyle": false,
                "cantBackToIdleWhenSitLoop": true,
                "eventPatternSuiteKey": ""
            },
            {
                "$type": "ConfigBodyLangInterAction",
                "type": "BODY_LANG",
                "delayTime": 2.5840001106262207,
                "aliasList": [
                    "12922"
                ],
                "actionId": 219,
                "isContinue": true,
                "forceDoFreeStyle": true,
                "canDoRepeatFreeStyle": false,
                "cantBackToIdleWhenSitLoop": true,
                "eventPatternSuiteKey": ""
            },
            {
                "$type": "ConfigBodyLangInterAction",
                "type": "BODY_LANG",
                "delayTime": 3.3310000896453857,
                "aliasList": [
                    "12922"
                ],
                "actionId": 222,
                "bodyLangParam": 4030,
                "forceDoFreeStyle": true,
                "canDoRepeatFreeStyle": false,
                "cantBackToIdleWhenSitLoop": true,
                "eventPatternSuiteKey": ""
            },
            {
                "$type": "ConfigBodyLangInterAction",
                "type": "BODY_LANG",
                "delayTime": 5.796999931335449,
                "aliasList": [
                    "12922"
                ],
                "actionId": 220,
                "bodyLangParam": 1130,
                "forceDoFreeStyle": true,
                "canDoRepeatFreeStyle": false,
                "cantBackToIdleWhenSitLoop": true,
                "eventPatternSuiteKey": ""
            },
            {
                "$type": "ConfigBodyLangInterAction",
                "type": "BODY_LANG",
                "delayTime": 7.616000175476074,
                "aliasList": [
                    "12922"
                ],
                "actionId": 221,
                "isContinue": true,
                "forceDoFreeStyle": true,
                "canDoRepeatFreeStyle": false,
                "cantBackToIdleWhenSitLoop": true,
                "eventPatternSuiteKey": ""
            }
        ],
        [
            {
                "$type": "ConfigCameraMoveInterAction",
                "type": "CAMERA_MOVE",
                "duration": 1.0,
                "actionId": 156,
                "cameraPosType": "RELATIVE_TO_TARGET_ENTITY",
                "camTargetType": "RELATIVE_TO_TARGET_ENTITY",
                "camFov": 30.0,
                "lerpPattern": 6,
                "cameraBlendType": "EaseInOutCubic",
                "cutFrameTrans": {},
                "openCameraDither": false,
                "targetNpcAlias": "513",
                "closeTreeLeafDither": true
            },
            {
                "$type": "ConfigDialogInterAction",
                "type": "DIALOG",
                "aliasList": [
                    "513"
                ],
                "actionId": 123,
                "dialogID": 191700711,
                "protectTime": 0.5
            },
            {
                "$type": "ConfigEmotionTemplateAction",
                "type": "EMOTION_TEMPLATE",
                "aliasList": [
                    "513"
                ],
                "actionId": 173,
                "emoTemplateID": 10701
            },
            {
                "$type": "ConfigEmoSyncInterAction",
                "type": "EMO_SYNC",
                "aliasList": [
                    "513"
                ],
                "actionId": 191,
                "dataPath": "Cs_Emo_Avatar_Simple_Common_Set/Cs_Emo_Avatar_Talk/Cs_Emo_Coop_Common/Cs_Emo_Coop_Faruzan_01/Cs_Emo_191700711",
                "phonemePath": "",
                "emotionPath": "",
                "mateDataPath": "",
                "matePhonemePath": "",
                "mateEmotionPath": "",
                "dataPathHashList": [
                    3000154736704584829,
                    2167930546887782125,
                    5670180746166322131,
                    3131417218793063155
                ]
            }
        ],
        [
            {
                "$type": "ConfigDialogInterAction",
                "type": "DIALOG",
                "aliasList": [
                    "513"
                ],
                "actionId": 125,
                "dialogID": 191700712,
                "protectTime": 0.5
            },
            {
                "$type": "ConfigEmotionTemplateAction",
                "type": "EMOTION_TEMPLATE",
                "aliasList": [
                    "513"
                ],
                "actionId": 174,
                "emoTemplateID": 10100
            },
            {
                "$type": "ConfigEmoSyncInterAction",
                "type": "EMO_SYNC",
                "aliasList": [
                    "513"
                ],
                "actionId": 192,
                "dataPath": "Cs_Emo_Avatar_Simple_Common_Set/Cs_Emo_Avatar_Talk/Cs_Emo_Coop_Common/Cs_Emo_Coop_Faruzan_01/Cs_Emo_191700712",
                "phonemePath": "",
                "emotionPath": "",
                "mateDataPath": "",
                "matePhonemePath": "",
                "mateEmotionPath": "",
                "dataPathHashList": [
                    16484744039445303449,
                    1155888579663705963,
                    7678672744349041793,
                    16215507732311131664
                ]
            },
            {
                "$type": "ConfigDialogSelectAction",
                "type": "DIALOG_SELECT",
                "delayTime": 0.4000000059604645,
                "aliasList": [
                    "Avatar"
                ],
                "actionId": 126,
                "dialogIDList": [
                    191700713
                ],
                "grpIDList": [
                    547094302
                ],
                "useGrpId": true,
                "countDownGrpId": 1403121522
            }
        ],
        [
            {
                "$type": "ConfigCameraMoveInterAction",
                "type": "CAMERA_MOVE",
                "duration": 1.0,
                "actionId": 157,
                "cameraPosType": "RELATIVE_TO_TARGET_ENTITY",
                "camTargetType": "RELATIVE_TO_TARGET_ENTITY",
                "camFov": 30.0,
                "lerpPattern": 6,
                "cameraBlendType": "EaseInOutCubic",
                "cutFrameTrans": {},
                "openCameraDither": false,
                "targetNpcAlias": "1051",
                "closeTreeLeafDither": true
            },
            {
                "$type": "ConfigDialogInterAction",
                "type": "DIALOG",
                "aliasList": [
                    "1051"
                ],
                "actionId": 128,
                "dialogID": 191700714,
                "protectTime": 0.5
            },
            {
                "$type": "ConfigEmoSyncInterAction",
                "type": "EMO_SYNC",
                "aliasList": [
                    "1051"
                ],
                "actionId": 183,
                "dataPath": "Cs_Emo_Avatar_Simple_Common_Set/Cs_Emo_Avatar_Talk/Cs_Emo_Coop_Common/Cs_Emo_Coop_Faruzan_01/Cs_Emo_191700714",
                "phonemePath": "",
                "emotionPath": "",
                "mateDataPath": "",
                "matePhonemePath": "",
                "mateEmotionPath": "",
                "dataPathHashList": [
                    2262073405131887147,
                    2107925685832493187,
                    8347156375598457400,
                    10927787930346120255
                ]
            },
            {
                "$type": "ConfigBodyLangInterAction",
                "type": "BODY_LANG",
                "aliasList": [
                    "1051"
                ],
                "actionId": 224,
                "bodyLangParam": 1171,
                "forceDoFreeStyle": true,
                "canDoRepeatFreeStyle": false,
                "cantBackToIdleWhenSitLoop": true,
                "eventPatternSuiteKey": ""
            },
            {
                "$type": "ConfigBodyLangInterAction",
                "type": "BODY_LANG",
                "delayTime": 2.130000114440918,
                "aliasList": [
                    "1051"
                ],
                "actionId": 225,
                "bodyLangParam": 4030,
                "forceDoFreeStyle": true,
                "canDoRepeatFreeStyle": false,
                "cantBackToIdleWhenSitLoop": true,
                "eventPatternSuiteKey": ""
            }
        ],
        [
            {
                "$type": "ConfigCameraMoveInterAction",
                "type": "CAMERA_MOVE",
                "duration": 1.0,
                "actionId": 158,
                "cameraPosType": "RELATIVE_TO_TARGET_ENTITY",
                "camTargetType": "RELATIVE_TO_TARGET_ENTITY",
                "camFov": 30.0,
                "lerpPattern": 6,
                "cameraBlendType": "EaseInOutCubic",
                "cutFrameTrans": {},
                "openCameraDither": false,
                "targetNpcAlias": "513",
                "closeTreeLeafDither": true
            },
            {
                "$type": "ConfigDialogInterAction",
                "type": "DIALOG",
                "aliasList": [
                    "513"
                ],
                "actionId": 130,
                "dialogID": 191700715,
                "protectTime": 0.5
            },
            {
                "$type": "ConfigEmotionTemplateAction",
                "type": "EMOTION_TEMPLATE",
                "aliasList": [
                    "513"
                ],
                "actionId": 175,
                "emoTemplateID": 10601
            },
            {
                "$type": "ConfigEmoSyncInterAction",
                "type": "EMO_SYNC",
                "aliasList": [
                    "513"
                ],
                "actionId": 193,
                "dataPath": "Cs_Emo_Avatar_Simple_Common_Set/Cs_Emo_Avatar_Talk/Cs_Emo_Coop_Common/Cs_Emo_Coop_Faruzan_01/Cs_Emo_191700715",
                "phonemePath": "",
                "emotionPath": "",
                "mateDataPath": "",
                "matePhonemePath": "",
                "mateEmotionPath": "",
                "dataPathHashList": [
                    8725095360739934715,
                    10131025688335028933,
                    1071626078388275629,
                    10325832312982418944
                ]
            }
        ],
        [
            {
                "$type": "ConfigCameraMoveInterAction",
                "type": "CAMERA_MOVE",
                "duration": 1.0,
                "actionId": 159,
                "cameraPosType": "RELATIVE_TO_TARGET_ENTITY",
                "camTargetType": "RELATIVE_TO_TARGET_ENTITY",
                "camFov": 30.0,
                "lerpPattern": 6,
                "cameraBlendType": "EaseInOutCubic",
                "cutFrameTrans": {},
                "openCameraDither": false,
                "targetNpcAlias": "12922",
                "closeTreeLeafDither": true
            },
            {
                "$type": "ConfigDialogInterAction",
                "type": "DIALOG",
                "aliasList": [
                    "12922"
                ],
                "actionId": 132,
                "dialogID": 191700716,
                "protectTime": 0.5
            },
            {
                "$type": "ConfigEmoSyncInterAction",
                "type": "EMO_SYNC",
                "aliasList": [
                    "12922"
                ],
                "actionId": 202,
                "dataPath": "Cs_Emo_Avatar_Simple_Common_Set/Cs_Emo_Avatar_Talk/Cs_Emo_Coop_Common/Cs_Emo_Coop_Faruzan_01/Cs_Emo_191700716",
                "phonemePath": "",
                "emotionPath": "",
                "mateDataPath": "",
                "matePhonemePath": "",
                "mateEmotionPath": "",
                "dataPathHashList": [
                    4942717445003740806,
                    848677372611784500,
                    8729795605052900759,
                    14918912607704927139
                ]
            },
            {
                "$type": "ConfigBodyLangInterAction",
                "type": "BODY_LANG",
                "aliasList": [
                    "12922"
                ],
                "actionId": 226,
                "bodyLangParam": 1090,
                "forceDoFreeStyle": true,
                "canDoRepeatFreeStyle": false,
                "cantBackToIdleWhenSitLoop": true,
                "eventPatternSuiteKey": ""
            },
            {
                "$type": "ConfigBodyLangInterAction",
                "type": "BODY_LANG",
                "delayTime": 2.8380000591278076,
                "aliasList": [
                    "12922"
                ],
                "actionId": 227,
                "isContinue": true,
                "forceDoFreeStyle": true,
                "canDoRepeatFreeStyle": false,
                "cantBackToIdleWhenSitLoop": true,
                "eventPatternSuiteKey": ""
            },
            {
                "$type": "ConfigBodyLangInterAction",
                "type": "BODY_LANG",
                "delayTime": 5.359000205993652,
                "aliasList": [
                    "12922"
                ],
                "actionId": 228,
                "bodyLangParam": 1172,
                "forceDoFreeStyle": true,
                "canDoRepeatFreeStyle": false,
                "cantBackToIdleWhenSitLoop": true,
                "eventPatternSuiteKey": ""
            }
        ],
        [
            {
                "$type": "ConfigCameraMoveInterAction",
                "type": "CAMERA_MOVE",
                "duration": 1.0,
                "actionId": 160,
                "cameraPosType": "RELATIVE_TO_TARGET_ENTITY",
                "camTargetType": "RELATIVE_TO_TARGET_ENTITY",
                "camFov": 30.0,
                "lerpPattern": 6,
                "cameraBlendType": "EaseInOutCubic",
                "cutFrameTrans": {},
                "openCameraDither": false,
                "targetNpcAlias": "513",
                "closeTreeLeafDither": true
            },
            {
                "$type": "ConfigDialogInterAction",
                "type": "DIALOG",
                "aliasList": [
                    "513"
                ],
                "actionId": 134,
                "dialogID": 191700717,
                "protectTime": 0.5
            },
            {
                "$type": "ConfigEmotionTemplateAction",
                "type": "EMOTION_TEMPLATE",
                "aliasList": [
                    "513"
                ],
                "actionId": 176,
                "emoTemplateID": 10100
            },
            {
                "$type": "ConfigEmoSyncInterAction",
                "type": "EMO_SYNC",
                "aliasList": [
                    "513"
                ],
                "actionId": 194,
                "dataPath": "Cs_Emo_Avatar_Simple_Common_Set/Cs_Emo_Avatar_Talk/Cs_Emo_Coop_Common/Cs_Emo_Coop_Faruzan_01/Cs_Emo_191700717",
                "phonemePath": "",
                "emotionPath": "",
                "mateDataPath": "",
                "matePhonemePath": "",
                "mateEmotionPath": "",
                "dataPathHashList": [
                    14199625208194411821,
                    14358546274491100264,
                    12804548318393702388,
                    10441334141688662477
                ]
            }
        ],
        [
            {
                "$type": "ConfigCameraMoveInterAction",
                "type": "CAMERA_MOVE",
                "duration": 1.0,
                "actionId": 161,
                "cameraPosType": "RELATIVE_TO_TARGET_ENTITY",
                "camTargetType": "RELATIVE_TO_TARGET_ENTITY",
                "camFov": 30.0,
                "lerpPattern": 6,
                "cameraBlendType": "EaseInOutCubic",
                "cutFrameTrans": {},
                "openCameraDither": false,
                "targetNpcAlias": "12922",
                "closeTreeLeafDither": true
            },
            {
                "$type": "ConfigDialogInterAction",
                "type": "DIALOG",
                "aliasList": [
                    "12922"
                ],
                "actionId": 136,
                "dialogID": 191700718,
                "protectTime": 0.5
            },
            {
                "$type": "ConfigEmoSyncInterAction",
                "type": "EMO_SYNC",
                "aliasList": [
                    "12922"
                ],
                "actionId": 203,
                "dataPath": "Cs_Emo_Avatar_Simple_Common_Set/Cs_Emo_Avatar_Talk/Cs_Emo_Coop_Common/Cs_Emo_Coop_Faruzan_01/Cs_Emo_191700718",
                "phonemePath": "",
                "emotionPath": "",
                "mateDataPath": "",
                "matePhonemePath": "",
                "mateEmotionPath": "",
                "dataPathHashList": [
                    17134974631628419571,
                    9861242793005478412,
                    6450738702727151279,
                    1848557065672647475
                ]
            },
            {
                "$type": "ConfigBodyLangInterAction",
                "type": "BODY_LANG",
                "aliasList": [
                    "12922"
                ],
                "actionId": 229,
                "bodyLangParam": 1171,
                "forceDoFreeStyle": true,
                "canDoRepeatFreeStyle": false,
                "cantBackToIdleWhenSitLoop": true,
                "eventPatternSuiteKey": ""
            },
            {
                "$type": "ConfigBodyLangInterAction",
                "type": "BODY_LANG",
                "delayTime": 1.934000015258789,
                "aliasList": [
                    "12922"
                ],
                "actionId": 230,
                "bodyLangParam": 1060,
                "forceDoFreeStyle": true,
                "canDoRepeatFreeStyle": false,
                "cantBackToIdleWhenSitLoop": true,
                "eventPatternSuiteKey": ""
            },
            {
                "$type": "ConfigBodyLangInterAction",
                "type": "BODY_LANG",
                "delayTime": 3.680999994277954,
                "aliasList": [
                    "12922"
                ],
                "actionId": 233,
                "bodyLangParam": 4030,
                "forceDoFreeStyle": true,
                "canDoRepeatFreeStyle": false,
                "cantBackToIdleWhenSitLoop": true,
                "eventPatternSuiteKey": ""
            },
            {
                "$type": "ConfigBodyLangInterAction",
                "type": "BODY_LANG",
                "delayTime": 5.1620001792907715,
                "aliasList": [
                    "12922"
                ],
                "actionId": 231,
                "isContinue": true,
                "forceDoFreeStyle": true,
                "canDoRepeatFreeStyle": false,
                "cantBackToIdleWhenSitLoop": true,
                "eventPatternSuiteKey": ""
            }
        ],
        [
            {
                "$type": "ConfigCameraMoveInterAction",
                "type": "CAMERA_MOVE",
                "duration": 1.0,
                "actionId": 162,
                "cameraPosType": "RELATIVE_TO_TARGET_ENTITY",
                "camTargetType": "RELATIVE_TO_TARGET_ENTITY",
                "camFov": 30.0,
                "lerpPattern": 6,
                "cameraBlendType": "EaseInOutCubic",
                "cutFrameTrans": {},
                "openCameraDither": false,
                "targetNpcAlias": "513",
                "closeTreeLeafDither": true
            },
            {
                "$type": "ConfigDialogInterAction",
                "type": "DIALOG",
                "aliasList": [
                    "513"
                ],
                "actionId": 138,
                "dialogID": 191700719,
                "protectTime": 0.5
            },
            {
                "$type": "ConfigEmotionTemplateAction",
                "type": "EMOTION_TEMPLATE",
                "aliasList": [
                    "513"
                ],
                "actionId": 177,
                "emoTemplateID": 10201
            },
            {
                "$type": "ConfigEmoSyncInterAction",
                "type": "EMO_SYNC",
                "aliasList": [
                    "513"
                ],
                "actionId": 195,
                "dataPath": "Cs_Emo_Avatar_Simple_Common_Set/Cs_Emo_Avatar_Talk/Cs_Emo_Coop_Common/Cs_Emo_Coop_Faruzan_01/Cs_Emo_191700719",
                "phonemePath": "",
                "emotionPath": "",
                "mateDataPath": "",
                "matePhonemePath": "",
                "mateEmotionPath": "",
                "dataPathHashList": [
                    7851551586583172481,
                    11376278605790830045,
                    2144368960394450359,
                    5257413436133138528
                ]
            },
            {
                "$type": "ConfigBodyLangInterAction",
                "type": "BODY_LANG",
                "aliasList": [
                    "12922"
                ],
                "actionId": 232,
                "isContinue": true,
                "forceDoFreeStyle": true,
                "canDoRepeatFreeStyle": false,
                "cantBackToIdleWhenSitLoop": true,
                "eventPatternSuiteKey": ""
            }
        ],
        [
            {
                "$type": "ConfigCameraMoveInterAction",
                "type": "CAMERA_MOVE",
                "duration": 1.0,
                "actionId": 163,
                "cameraPosType": "RELATIVE_TO_TARGET_ENTITY",
                "camTargetType": "RELATIVE_TO_TARGET_ENTITY",
                "camFov": 30.0,
                "lerpPattern": 6,
                "cameraBlendType": "EaseInOutCubic",
                "cutFrameTrans": {},
                "openCameraDither": false,
                "targetNpcAlias": "1051",
                "closeTreeLeafDither": true
            },
            {
                "$type": "ConfigDialogInterAction",
                "type": "DIALOG",
                "aliasList": [
                    "1051"
                ],
                "actionId": 140,
                "dialogID": 191700720,
                "protectTime": 0.5
            },
            {
                "$type": "ConfigEmoSyncInterAction",
                "type": "EMO_SYNC",
                "aliasList": [
                    "1051"
                ],
                "actionId": 184,
                "dataPath": "Cs_Emo_Avatar_Simple_Common_Set/Cs_Emo_Avatar_Talk/Cs_Emo_Coop_Common/Cs_Emo_Coop_Faruzan_01/Cs_Emo_191700720",
                "phonemePath": "",
                "emotionPath": "",
                "mateDataPath": "",
                "matePhonemePath": "",
                "mateEmotionPath": "",
                "dataPathHashList": [
                    16526220936093563280,
                    3126040114035766234,
                    3279648584102879392,
                    13567990443448122873
                ]
            },
            {
                "$type": "ConfigBodyLangInterAction",
                "type": "BODY_LANG",
                "aliasList": [
                    "1051"
                ],
                "actionId": 234,
                "bodyLangParam": 1190,
                "forceDoFreeStyle": true,
                "canDoRepeatFreeStyle": false,
                "cantBackToIdleWhenSitLoop": true,
                "eventPatternSuiteKey": ""
            }
        ],
        [
            {
                "$type": "ConfigCameraMoveInterAction",
                "type": "CAMERA_MOVE",
                "duration": 1.0,
                "actionId": 164,
                "cameraPosType": "RELATIVE_TO_TARGET_ENTITY",
                "camTargetType": "RELATIVE_TO_TARGET_ENTITY",
                "camFov": 30.0,
                "lerpPattern": 6,
                "cameraBlendType": "EaseInOutCubic",
                "cutFrameTrans": {},
                "openCameraDither": false,
                "targetNpcAlias": "12922",
                "closeTreeLeafDither": true
            },
            {
                "$type": "ConfigDialogInterAction",
                "type": "DIALOG",
                "aliasList": [
                    "12922"
                ],
                "actionId": 142,
                "dialogID": 191700721,
                "protectTime": 0.5
            },
            {
                "$type": "ConfigEmoSyncInterAction",
                "type": "EMO_SYNC",
                "aliasList": [
                    "12922"
                ],
                "actionId": 204,
                "dataPath": "Cs_Emo_Avatar_Simple_Common_Set/Cs_Emo_Avatar_Talk/Cs_Emo_Coop_Common/Cs_Emo_Coop_Faruzan_01/Cs_Emo_191700721",
                "phonemePath": "",
                "emotionPath": "",
                "mateDataPath": "",
                "matePhonemePath": "",
                "mateEmotionPath": "",
                "dataPathHashList": [
                    7163537654751399705,
                    16731781360424496879,
                    4130654144600968836,
                    13122382295285261308
                ]
            },
            {
                "$type": "ConfigBodyLangInterAction",
                "type": "BODY_LANG",
                "aliasList": [
                    "12922"
                ],
                "actionId": 235,
                "bodyLangParam": 1172,
                "forceDoFreeStyle": true,
                "canDoRepeatFreeStyle": false,
                "cantBackToIdleWhenSitLoop": true,
                "eventPatternSuiteKey": ""
            },
            {
                "$type": "ConfigBodyLangInterAction",
                "type": "BODY_LANG",
                "delayTime": 4.994999885559082,
                "aliasList": [
                    "12922"
                ],
                "actionId": 236,
                "bodyLangParam": 1173,
                "forceDoFreeStyle": true,
                "canDoRepeatFreeStyle": false,
                "cantBackToIdleWhenSitLoop": true,
                "eventPatternSuiteKey": ""
            }
        ],
        [
            {
                "$type": "ConfigCameraMoveInterAction",
                "type": "CAMERA_MOVE",
                "duration": 1.0,
                "actionId": 165,
                "cameraPosType": "RELATIVE_TO_TARGET_ENTITY",
                "camTargetType": "RELATIVE_TO_TARGET_ENTITY",
                "camFov": 30.0,
                "lerpPattern": 6,
                "cameraBlendType": "EaseInOutCubic",
                "cutFrameTrans": {},
                "openCameraDither": false,
                "targetNpcAlias": "513",
                "closeTreeLeafDither": true
            },
            {
                "$type": "ConfigDialogInterAction",
                "type": "DIALOG",
                "aliasList": [
                    "513"
                ],
                "actionId": 144,
                "dialogID": 191700722,
                "protectTime": 0.5
            },
            {
                "$type": "ConfigEmotionTemplateAction",
                "type": "EMOTION_TEMPLATE",
                "aliasList": [
                    "513"
                ],
                "actionId": 178,
                "emoTemplateID": 10100
            },
            {
                "$type": "ConfigEmoSyncInterAction",
                "type": "EMO_SYNC",
                "aliasList": [
                    "513"
                ],
                "actionId": 196,
                "dataPath": "Cs_Emo_Avatar_Simple_Common_Set/Cs_Emo_Avatar_Talk/Cs_Emo_Coop_Common/Cs_Emo_Coop_Faruzan_01/Cs_Emo_191700722",
                "phonemePath": "",
                "emotionPath": "",
                "mateDataPath": "",
                "matePhonemePath": "",
                "mateEmotionPath": "",
                "dataPathHashList": [
                    10245722175060482326,
                    11903894233383321029,
                    8942409462394939377,
                    4651894540244960425
                ]
            }
        ],
        [
            {
                "$type": "ConfigCameraMoveInterAction",
                "type": "CAMERA_MOVE",
                "duration": 1.0,
                "actionId": 166,
                "cameraPosType": "RELATIVE_TO_TARGET_ENTITY",
                "camTargetType": "RELATIVE_TO_TARGET_ENTITY",
                "camFov": 30.0,
                "lerpPattern": 6,
                "cameraBlendType": "EaseInOutCubic",
                "cutFrameTrans": {},
                "openCameraDither": false,
                "targetNpcAlias": "1051",
                "closeTreeLeafDither": true
            },
            {
                "$type": "ConfigDialogInterAction",
                "type": "DIALOG",
                "aliasList": [
                    "1051"
                ],
                "actionId": 146,
                "dialogID": 191700723,
                "protectTime": 0.5
            },
            {
                "$type": "ConfigEmoSyncInterAction",
                "type": "EMO_SYNC",
                "aliasList": [
                    "1051"
                ],
                "actionId": 185,
                "dataPath": "Cs_Emo_Avatar_Simple_Common_Set/Cs_Emo_Avatar_Talk/Cs_Emo_Coop_Common/Cs_Emo_Coop_Faruzan_01/Cs_Emo_191700723",
                "phonemePath": "",
                "emotionPath": "",
                "mateDataPath": "",
                "matePhonemePath": "",
                "mateEmotionPath": "",
                "dataPathHashList": [
                    16642340665597351495,
                    2749019054849901102,
                    1389907784154217525,
                    11099518722902283624
                ]
            },
            {
                "$type": "ConfigBodyLangInterAction",
                "type": "BODY_LANG",
                "delayTime": 2.507999897003174,
                "aliasList": [
                    "1051"
                ],
                "actionId": 237,
                "isContinue": true,
                "forceDoFreeStyle": true,
                "canDoRepeatFreeStyle": false,
                "cantBackToIdleWhenSitLoop": true,
                "eventPatternSuiteKey": ""
            },
            {
                "$type": "ConfigBodyLangInterAction",
                "type": "BODY_LANG",
                "delayTime": 4.057000160217285,
                "aliasList": [
                    "1051"
                ],
                "actionId": 238,
                "bodyLangParam": 1130,
                "forceDoFreeStyle": true,
                "canDoRepeatFreeStyle": false,
                "cantBackToIdleWhenSitLoop": true,
                "eventPatternSuiteKey": ""
            },
            {
                "$type": "ConfigBodyLangInterAction",
                "type": "BODY_LANG",
                "delayTime": 7.940999984741211,
                "aliasList": [
                    "1051"
                ],
                "actionId": 239,
                "bodyLangParam": 4040,
                "forceDoFreeStyle": true,
                "canDoRepeatFreeStyle": false,
                "cantBackToIdleWhenSitLoop": true,
                "eventPatternSuiteKey": ""
            },
            {
                "$type": "ConfigBodyLangInterAction",
                "type": "BODY_LANG",
                "delayTime": 8.010000228881836,
                "aliasList": [
                    "1051"
                ],
                "actionId": 240,
                "isContinue": true,
                "forceDoFreeStyle": true,
                "canDoRepeatFreeStyle": false,
                "cantBackToIdleWhenSitLoop": true,
                "eventPatternSuiteKey": ""
            }
        ],
        [
            {
                "$type": "ConfigCameraMoveInterAction",
                "type": "CAMERA_MOVE",
                "duration": 1.0,
                "actionId": 167,
                "cameraPosType": "RELATIVE_TO_TARGET_ENTITY",
                "camTargetType": "RELATIVE_TO_TARGET_ENTITY",
                "camFov": 30.0,
                "lerpPattern": 6,
                "cameraBlendType": "EaseInOutCubic",
                "cutFrameTrans": {},
                "openCameraDither": false,
                "targetNpcAlias": "513",
                "closeTreeLeafDither": true
            },
            {
                "$type": "ConfigBodyLangInterAction",
                "type": "BODY_LANG",
                "aliasList": [
                    "1051"
                ],
                "actionId": 241,
                "isContinue": true,
                "forceDoFreeStyle": true,
                "canDoRepeatFreeStyle": false,
                "cantBackToIdleWhenSitLoop": true,
                "eventPatternSuiteKey": ""
            },
            {
                "$type": "ConfigDialogInterAction",
                "type": "DIALOG",
                "aliasList": [
                    "513"
                ],
                "actionId": 148,
                "dialogID": 191700724,
                "protectTime": 0.5
            },
            {
                "$type": "ConfigEmotionTemplateAction",
                "type": "EMOTION_TEMPLATE",
                "aliasList": [
                    "513"
                ],
                "actionId": 179,
                "emoTemplateID": 10101
            },
            {
                "$type": "ConfigEmoSyncInterAction",
                "type": "EMO_SYNC",
                "aliasList": [
                    "513"
                ],
                "actionId": 197,
                "dataPath": "Cs_Emo_Avatar_Simple_Common_Set/Cs_Emo_Avatar_Talk/Cs_Emo_Coop_Common/Cs_Emo_Coop_Faruzan_01/Cs_Emo_191700724",
                "phonemePath": "",
                "emotionPath": "",
                "mateDataPath": "",
                "matePhonemePath": "",
                "mateEmotionPath": "",
                "dataPathHashList": [
                    7729275296870588370,
                    16300193878397811835,
                    12573819325002015812,
                    11327134150917142010
                ]
            },
            {
                "$type": "ConfigDialogSelectAction",
                "type": "DIALOG_SELECT",
                "delayTime": 0.4000000059604645,
                "aliasList": [
                    "Avatar"
                ],
                "actionId": 149,
                "dialogIDList": [
                    191700725,
                    191700726
                ],
                "grpIDList": [
                    547094334,
                    547094334
                ],
                "useGrpId": true,
                "countDownGrpId": 1403121522
            }
        ],
        [
            {
                "$type": "ConfigDialogInterAction",
                "type": "DIALOG",
                "aliasList": [
                    "513"
                ],
                "actionId": 151,
                "dialogID": 191700727,
                "protectTime": 0.5
            },
            {
                "$type": "ConfigEmotionTemplateAction",
                "type": "EMOTION_TEMPLATE",
                "aliasList": [
                    "513"
                ],
                "actionId": 180,
                "emoTemplateID": 10100
            },
            {
                "$type": "ConfigEmoSyncInterAction",
                "type": "EMO_SYNC",
                "aliasList": [
                    "513"
                ],
                "actionId": 198,
                "dataPath": "Cs_Emo_Avatar_Simple_Common_Set/Cs_Emo_Avatar_Talk/Cs_Emo_Coop_Common/Cs_Emo_Coop_Faruzan_01/Cs_Emo_191700727",
                "phonemePath": "",
                "emotionPath": "",
                "mateDataPath": "",
                "matePhonemePath": "",
                "mateEmotionPath": "",
                "dataPathHashList": [
                    3988652454650471706,
                    13962425966499029394,
                    11056437315683042850,
                    8105084029921496483
                ]
            }
        ],
        [
            {
                "$type": "ConfigSimpleBlackScreenAction",
                "type": "SIMPLE_BLACK_SCREEN",
                "actionId": 102,
                "durationToBlack": 0.5,
                "durationKeepBlack": 2.0,
                "durationFromBlack": 0.5,
                "textMapID": ""
            },
            {
                "$type": "ConfigDialogInterAction",
                "type": "DIALOG_CLEAR",
                "actionId": 103
            },
            {
                "$type": "ConfigTimeProtectAction",
                "type": "TIME_PROTECT",
                "duration": 0.699999988079071,
                "actionId": 209
            },
            {
                "$type": "ConfigEmotionTemplateAction",
                "type": "EMOTION_TEMPLATE",
                "aliasList": [
                    "513"
                ],
                "actionId": 182,
                "emoTemplateID": 10100
            },
            {
                "$type": "ConfigCameraMoveInterAction",
                "type": "CAMERA_MOVE",
                "delayTime": 0.6000000238418579,
                "duration": 0.10000000149011612,
                "actionId": 210,
                "cameraPosType": "EXIT",
                "camForwardTargetOffset": {
                    "z": 1.0
                },
                "lerpPattern": 5,
                "cameraBlendType": "EaseInOutCubic",
                "cutFrameTrans": {},
                "openCameraDither": false,
                "targetNpcAlias": "",
                "closeTreeLeafDither": true
            },
            {
                "$type": "ConfigVisibleInterAction",
                "type": "VISIBLE",
                "delayTime": 0.6000000238418579,
                "aliasList": [
                    "Avatar"
                ],
                "actionId": 104,
                "isVisible": true
            }
        ]
    ],
    "groupId": [
        {
            "grpId": 1403121523,
            "nextGrpId": 1403121524
        },
        {
            "index": 1,
            "grpId": 1403121524,
            "nextGrpId": 1403121525
        },
        {
            "index": 2,
            "grpId": 1403121525,
            "nextGrpId": 1403121526
        },
        {
            "index": 3,
            "grpId": 1403121526,
            "nextGrpId": 1403121527
        },
        {
            "index": 4,
            "grpId": 1403121527,
            "nextGrpId": 1403121528
        },
        {
            "index": 5,
            "grpId": 1403121528,
            "nextGrpId": 1403121529
        },
        {
            "index": 6,
            "grpId": 1403121529,
            "nextGrpId": 1403121530
        },
        {
            "index": 7,
            "grpId": 1403121530,
            "nextGrpId": 1403121531
        },
        {
            "index": 8,
            "grpId": 1403121531,
            "nextGrpId": 547094301
        },
        {
            "index": 9,
            "grpId": 547094301,
            "nextGrpId": 547094302
        },
        {
            "index": 10,
            "grpId": 547094302,
            "nextGrpId": 547094303
        },
        {
            "index": 11,
            "grpId": 547094303,
            "nextGrpId": 547094304
        },
        {
            "index": 12,
            "grpId": 547094304,
            "nextGrpId": 547094305
        },
        {
            "index": 13,
            "grpId": 547094305,
            "nextGrpId": 547094306
        },
        {
            "index": 14,
            "grpId": 547094306,
            "nextGrpId": 547094307
        },
        {
            "index": 15,
            "grpId": 547094307,
            "nextGrpId": 547094308
        },
        {
            "index": 16,
            "grpId": 547094308,
            "nextGrpId": 547094309
        },
        {
            "index": 17,
            "grpId": 547094309,
            "nextGrpId": 547094310
        },
        {
            "index": 18,
            "grpId": 547094310,
            "nextGrpId": 547094332
        },
        {
            "index": 19,
            "grpId": 547094332,
            "nextGrpId": 547094333
        },
        {
            "index": 20,
            "grpId": 547094333,
            "nextGrpId": 547094334
        },
        {
            "index": 21,
            "grpId": 547094334,
            "nextGrpId": 547094335
        },
        {
            "index": 22,
            "grpId": 547094335,
            "nextGrpId": 547094336
        }
    ],
    "freeStyleDic": {
        "1051": [
            1171,
            4030,
            1190,
            1130,
            4040
        ],
        "513": [
            10601,
            10100,
            10501,
            10701,
            10201,
            10101
        ],
        "12922": [
            1171,
            1150,
            1172,
            1030,
            1130,
            4030,
            1090,
            1060,
            1173
        ]
    }
}