{
    "PEGAEKCDCPP": "",
    "startBlackKeepTime": 1.0,
    "GNKDILIOOFF": "",
    "disableNpcLod": true,
    "startFade": {
        "startFadeInDuration": 0.5,
        "startFadeOutDuration": 0.5
    },
    "endFade": {
        "startFadeOutDuration": 0.0
    },
    "actors": [
        {
            "alias": "Avatar",
            "visible": true,
            "bornPointName": "Q1912108born",
            "relativePosNpcAlias": ""
        },
        {
            "configID": 12171,
            "alias": "12171",
            "visible": true,
            "bornPointName": "Q1912108mass1",
            "relativePosNpcAlias": ""
        },
        {
            "configID": 503,
            "alias": "503",
            "visible": true,
            "bornPointName": "Q1912108tuoma",
            "removeActorType": "REMOVE",
            "relativePosNpcAlias": ""
        }
    ],
    "group": [
        [
            {
                "$type": "ConfigVisibleInterAction",
                "type": "VISIBLE",
                "delayTime": 0.30000001192092896,
                "aliasList": [
                    "Avatar"
                ]
            },
            {
                "$type": "ConfigCameraDOFAction",
                "type": "CAMERA_DOF",
                "delayTime": 0.30000001192092896,
                "focusDistance": 6.0,
                "focusRange": 6.0,
                "quality": 3
            }
        ],
        [
            {
                "$type": "ConfigDialogInterAction",
                "type": "DIALOG_CLEAR"
            },
            {
                "$type": "ConfigSimpleBlackScreenAction",
                "type": "SIMPLE_BLACK_SCREEN",
                "durationToBlack": 0.5,
                "durationKeepBlack": 1.0,
                "durationFromBlack": 0.5,
                "textMapID": ""
            },
            {
                "$type": "ConfigVisibleInterAction",
                "type": "VISIBLE",
                "delayTime": 0.30000001192092896,
                "aliasList": [
                    "Avatar"
                ],
                "isVisible": true
            }
        ]
    ],
    "groupId": [
        {
            "grpId": 1279149343,
            "nextGrpId": 1279149344
        },
        {
            "index": 1,
            "grpId": 1279149344,
            "nextGrpId": 1279149345
        }
    ],
    "freeStyleDic": {
        "12171": [],
        "503": []
    }
}