{
    "PEGAEKCDCPP": "",
    "dontUseDefaultFinish": true,
    "GNKDILIOOFF": "",
    "disableNpcLod": true,
    "KNAEEINCCBG": true,
    "OJILILCDGAO": true,
    "startFade": {
        "startFadeOutDuration": 0.0
    },
    "endFade": {
        "startFadeOutDuration": 0.0
    },
    "actors": [
        {
            "alias": "Avatar",
            "visible": true,
            "bornPointName": "",
            "relativePosNpcAlias": ""
        },
        {
            "configID": 511,
            "alias": "511",
            "visible": true,
            "bornPointName": "",
            "relativePosNpcAlias": ""
        },
        {
            "configID": 1005,
            "alias": "1005",
            "visible": true,
            "bornPointName": "",
            "relativePosNpcAlias": ""
        }
    ],
    "group": [
        [
            {
                "$type": "ConfigCameraMoveInterAction",
                "type": "CAMERA_MOVE",
                "duration": 1.0,
                "cameraPosType": "RELATIVE_TO_TARGET_ENTITY",
                "camTargetType": "RELATIVE_TO_TARGET_ENTITY",
                "camFov": 30.0,
                "lerpPattern": 6,
                "cameraBlendType": "EaseInOutCubic",
                "cutFrameTrans": {},
                "openCameraDither": false,
                "targetNpcAlias": "511",
                "closeTreeLeafDither": true
            },
            {
                "$type": "ConfigVisibleInterAction",
                "type": "VISIBLE",
                "aliasList": [
                    "Avatar"
                ],
                "actionId": 119
            },
            {
                "$type": "ConfigTeleportToAction",
                "type": "TELEPORT_TO",
                "aliasList": [
                    "Avatar"
                ],
                "actionId": 123,
                "position": {
                    "x": -3133.759033203125,
                    "y": 254.06100463867188,
                    "z": -4509.85791015625
                },
                "forward": {
                    "x": -0.9020000100135803,
                    "z": -0.4320000112056732
                },
                "openLongDisTeleport": true
            },
            {
                "$type": "ConfigLookAtInterAction",
                "type": "LOOK_AT",
                "aliasList": [
                    "Avatar"
                ],
                "actionId": 125,
                "headTurnTime": 0.5,
                "targetNpcAlias": ""
            },
            {
                "$type": "ConfigDialogInterAction",
                "type": "DIALOG",
                "aliasList": [
                    "511"
                ],
                "dialogID": 190600501,
                "protectTime": 0.5
            },
            {
                "$type": "ConfigEmotionTemplateAction",
                "type": "EMOTION_TEMPLATE",
                "aliasList": [
                    "511"
                ],
                "emoTemplateID": 10100
            },
            {
                "$type": "ConfigEmoSyncInterAction",
                "type": "EMO_SYNC",
                "aliasList": [
                    "511"
                ],
                "dataPath": "Cs_Emo_Avatar_Simple_Common_Set/Cs_Emo_Avatar_Talk/Cs_Emo_Coop_Common/Cs_Emo_Coop_Heizo_01/Cs_Emo_190600501",
                "phonemePath": "",
                "emotionPath": "",
                "mateDataPath": "",
                "matePhonemePath": "",
                "mateEmotionPath": "",
                "dataPathHashList": [
                    3433877810816543434,
                    2988810431393980860,
                    11312874084039181562,
                    17373887272470339576
                ]
            },
            {
                "$type": "ConfigTeleportToAction",
                "type": "TELEPORT_TO",
                "aliasList": [
                    "1005"
                ],
                "actionId": 122,
                "position": {
                    "x": -3134.006103515625,
                    "y": 254.06100463867188,
                    "z": -4508.9521484375
                },
                "forward": {
                    "x": -2.4000000953674316,
                    "z": -1.7929999828338623
                },
                "openLongDisTeleport": true
            },
            {
                "$type": "ConfigLookAtInterAction",
                "type": "LOOK_AT",
                "aliasList": [
                    "1005"
                ],
                "actionId": 124,
                "headTurnTime": 0.5,
                "targetNpcAlias": ""
            },
            {
                "$type": "ConfigVisibleInterAction",
                "type": "VISIBLE",
                "aliasList": [
                    "1005"
                ],
                "actionId": 125
            }
        ],
        [
            {
                "$type": "ConfigDialogInterAction",
                "type": "DIALOG",
                "aliasList": [
                    "511"
                ],
                "dialogID": 190600502,
                "protectTime": 0.5
            },
            {
                "$type": "ConfigEmoSyncInterAction",
                "type": "EMO_SYNC",
                "aliasList": [
                    "511"
                ],
                "dataPath": "Cs_Emo_Avatar_Simple_Common_Set/Cs_Emo_Avatar_Talk/Cs_Emo_Coop_Common/Cs_Emo_Coop_Heizo_01/Cs_Emo_190600502",
                "phonemePath": "",
                "emotionPath": "",
                "mateDataPath": "",
                "matePhonemePath": "",
                "mateEmotionPath": "",
                "dataPathHashList": [
                    5105420661836339570,
                    6359368856394570028,
                    11998905925260835470,
                    2406735942133761365
                ]
            }
        ]
    ],
    "groupId": [
        {
            "grpId": 250175533,
            "nextGrpId": 250175534
        },
        {
            "index": 1,
            "grpId": 250175534,
            "nextGrpId": 250175535
        }
    ],
    "freeStyleDic": {
        "511": [
            10100
        ]
    }
}