{
    "PEGAEKCDCPP": "",
    "GNKDILIOOFF": "",
    "disableNpcLod": true,
    "KNAEEINCCBG": true,
    "startFade": {
        "startFadeOutDuration": 0.0
    },
    "endFade": {
        "startFadeInDuration": 0.5,
        "startFadeOutDuration": 0.5
    },
    "actors": [
        {
            "alias": "Avatar",
            "visible": true,
            "bornPointName": "Q1914309_C1914309_N10000005",
            "relativePosNpcAlias": ""
        },
        {
            "configID": 12276,
            "alias": "12276",
            "visible": true,
            "bornPointName": "Q1914309_C1914309_N12276",
            "relativePosNpcAlias": ""
        },
        {
            "configID": 510,
            "alias": "510",
            "visible": true,
            "bornPointName": "Q1914309_C1914309_N510",
            "removeActorType": "REMOVE",
            "relativePosNpcAlias": ""
        }
    ],
    "group": [
        [
            {
                "$type": "ConfigVisibleInterAction",
                "type": "VISIBLE",
                "aliasList": [
                    "Avatar"
                ]
            },
            {
                "$type": "ConfigTeleportToAction",
                "type": "TELEPORT_TO",
                "aliasList": [
                    "510"
                ],
                "position": {
                    "x": -2972.541015625,
                    "y": 200.1060028076172,
                    "z": -4276.13623046875
                },
                "forward": {
                    "x": -0.492000013589859,
                    "y": -0.013000000268220901,
                    "z": 1.6540000438690186
                },
                "openLongDisTeleport": true
            },
            {
                "$type": "ConfigVisibleInterAction",
                "type": "VISIBLE",
                "aliasList": [
                    "510"
                ]
            }
        ],
        [
            {
                "$type": "ConfigCameraMoveInterAction",
                "type": "CAMERA_MOVE",
                "duration": 1.0,
                "cameraPosType": "RELATIVE_TO_TARGET_ENTITY",
                "camTargetType": "RELATIVE_TO_TARGET_ENTITY",
                "camFov": 30.0,
                "lerpPattern": 6,
                "cameraBlendType": "EaseInOutCubic",
                "cutFrameTrans": {},
                "openCameraDither": false,
                "targetNpcAlias": "12276",
                "closeTreeLeafDither": true
            },
            {
                "$type": "ConfigDialogInterAction",
                "type": "DIALOG",
                "aliasList": [
                    "12276"
                ],
                "dialogID": 191430801,
                "protectTime": 0.5
            },
            {
                "$type": "ConfigBodyLangInterAction",
                "type": "BODY_LANG",
                "aliasList": [
                    "12276"
                ],
                "bodyLangParam": 1250,
                "forceDoFreeStyle": true,
                "canDoRepeatFreeStyle": false,
                "eventPatternSuiteKey": ""
            },
            {
                "$type": "ConfigEmoSyncInterAction",
                "type": "EMO_SYNC",
                "aliasList": [
                    "12276"
                ],
                "dataPath": "Cs_Emo_Avatar_Simple_Common_Set/Cs_Emo_Avatar_Talk/Cs_Emo_Coop_Common/Cs_Emo_Coop_Shinobu_01/Cs_Emo_191430801",
                "phonemePath": "",
                "emotionPath": "",
                "mateDataPath": "",
                "matePhonemePath": "",
                "mateEmotionPath": "",
                "dataPathHashList": [
                    742524683252157809,
                    14491339513281760274,
                    16177848791980244151,
                    17908308527807608258
                ]
            },
            {
                "$type": "ConfigBodyLangInterAction",
                "type": "BODY_LANG",
                "delayTime": 2.1710000038146973,
                "aliasList": [
                    "12276"
                ],
                "isContinue": true,
                "forceDoFreeStyle": true,
                "canDoRepeatFreeStyle": false,
                "eventPatternSuiteKey": ""
            }
        ],
        [
            {
                "$type": "ConfigSimpleBlackScreenAction",
                "type": "SIMPLE_BLACK_SCREEN",
                "durationToBlack": 0.5,
                "durationKeepBlack": 3.0,
                "durationFromBlack": 0.5,
                "textMapID": "",
                "useTextFade": true,
                "dialogID": 191430802
            },
            {
                "$type": "ConfigDialogInterAction",
                "type": "DIALOG_CLEAR"
            },
            {
                "$type": "ConfigTimeProtectAction",
                "type": "TIME_PROTECT",
                "duration": 3.5
            },
            {
                "$type": "ConfigAudioPlayAction",
                "type": "AUDIO_PLAY",
                "audioEventStr": "Play_sfx_quest_CoopShinobu_914302_hide"
            },
            {
                "$type": "ConfigVisibleInterAction",
                "type": "VISIBLE",
                "delayTime": 0.5,
                "aliasList": [
                    "12276"
                ]
            },
            {
                "$type": "ConfigCameraMoveInterAction",
                "type": "CAMERA_MOVE",
                "delayTime": 0.6000000238418579,
                "duration": 1.0,
                "camPosOffset": {
                    "x": -2971.033935546875,
                    "y": 200.8979949951172,
                    "z": -4277.31494140625
                },
                "camForwardTargetOffset": {
                    "x": -2971.785888671875,
                    "y": 200.71200561523438,
                    "z": -4276.68310546875
                },
                "camFov": 25.0,
                "lerpPattern": 6,
                "cameraBlendType": "EaseInOutCubic",
                "cutFrameTrans": {},
                "needZAxisRotate": true,
                "openCameraDither": false,
                "targetNpcAlias": "",
                "closeTreeLeafDither": true
            },
            {
                "$type": "ConfigLocalGadgetOP",
                "type": "LOCAL_GADGET_OP",
                "delayTime": 1.25,
                "aliasList": [
                    "12276"
                ],
                "gadgetId": 71700365,
                "subKey": 321,
                "oprCode": 1,
                "slotName": "",
                "position": {
                    "x": -2973.35302734375,
                    "y": 200.04400634765625,
                    "z": -4274.40087890625
                },
                "euler": {
                    "y": 91.05500030517578
                },
                "gvKey": ""
            }
        ],
        [
            {
                "$type": "ConfigCameraMoveInterAction",
                "type": "CAMERA_MOVE",
                "duration": 13.23900032043457,
                "camPosOffset": {
                    "x": -2970.81494140625,
                    "y": 201.01100158691406,
                    "z": -4277.02001953125
                },
                "camForwardTargetOffset": {
                    "x": -2971.56396484375,
                    "y": 200.80499267578125,
                    "z": -4276.39111328125
                },
                "camFov": 25.0,
                "cameraBlendType": "EaseOutQuad",
                "cutFrameTrans": {},
                "needZAxisRotate": true,
                "openCameraDither": false,
                "targetNpcAlias": "",
                "closeTreeLeafDither": true
            },
            {
                "$type": "ConfigLocalGadgetOP",
                "type": "LOCAL_GADGET_OP",
                "gadgetId": 70710716,
                "subKey": 123,
                "oprCode": 1,
                "slotName": "",
                "position": {
                    "x": -2973.263916015625,
                    "y": 201.21299743652344,
                    "z": -4273.216796875
                },
                "euler": {
                    "y": 269.0050048828125
                },
                "gvKey": ""
            },
            {
                "$type": "ConfigDialogInterAction",
                "type": "DIALOG",
                "aliasList": [
                    "12276"
                ],
                "dialogID": 191430803,
                "protectTime": 0.5
            },
            {
                "$type": "ConfigEmoSyncInterAction",
                "type": "EMO_SYNC",
                "aliasList": [
                    "12276"
                ],
                "dataPath": "Cs_Emo_Avatar_Simple_Common_Set/Cs_Emo_Avatar_Talk/Cs_Emo_Coop_Common/Cs_Emo_Coop_Shinobu_01/Cs_Emo_191430803",
                "phonemePath": "",
                "emotionPath": "",
                "mateDataPath": "",
                "matePhonemePath": "",
                "mateEmotionPath": "",
                "dataPathHashList": [
                    14818336479332310167,
                    1924695676031058966,
                    4495755488648062403,
                    1456595879524686538
                ]
            }
        ],
        [
            {
                "$type": "ConfigCameraMoveInterAction",
                "type": "CAMERA_MOVE",
                "duration": 1.0,
                "camPosOffset": {
                    "x": -2973.85107421875,
                    "y": 201.88299560546875,
                    "z": -4274.5439453125
                },
                "camForwardTargetOffset": {
                    "x": -2973.508056640625,
                    "y": 201.45799255371094,
                    "z": -4273.7060546875
                },
                "camFov": 25.0,
                "lerpPattern": 6,
                "cameraBlendType": "EaseInOutCubic",
                "cutFrameTrans": {},
                "needZAxisRotate": true,
                "openCameraDither": false,
                "targetNpcAlias": "",
                "closeTreeLeafDither": true
            },
            {
                "$type": "ConfigDialogInterAction",
                "type": "DIALOG",
                "aliasList": [
                    "12276"
                ],
                "dialogID": 191430804,
                "protectTime": 0.5
            },
            {
                "$type": "ConfigEmoSyncInterAction",
                "type": "EMO_SYNC",
                "aliasList": [
                    "12276"
                ],
                "dataPath": "Cs_Emo_Avatar_Simple_Common_Set/Cs_Emo_Avatar_Talk/Cs_Emo_Coop_Common/Cs_Emo_Coop_Shinobu_01/Cs_Emo_191430804",
                "phonemePath": "",
                "emotionPath": "",
                "mateDataPath": "",
                "matePhonemePath": "",
                "mateEmotionPath": "",
                "dataPathHashList": [
                    6911555357900883699,
                    5580847746464065201,
                    756797488701220671,
                    11016920831030681705
                ]
            },
            {
                "$type": "ConfigCameraMoveInterAction",
                "type": "CAMERA_MOVE",
                "delayTime": 0.10000000149011612,
                "duration": 12.619999885559082,
                "camPosOffset": {
                    "x": -2973.804931640625,
                    "y": 201.86300659179688,
                    "z": -4274.42919921875
                },
                "camForwardTargetOffset": {
                    "x": -2973.4619140625,
                    "y": 201.43800354003906,
                    "z": -4273.5908203125
                },
                "camFov": 25.0,
                "cameraBlendType": "EaseOutQuad",
                "cutFrameTrans": {},
                "needZAxisRotate": true,
                "openCameraDither": false,
                "targetNpcAlias": "",
                "closeTreeLeafDither": true
            }
        ],
        [
            {
                "$type": "ConfigCameraMoveInterAction",
                "type": "CAMERA_MOVE",
                "duration": 1.0,
                "camPosOffset": {
                    "x": -2975.489013671875,
                    "y": 202.02699279785156,
                    "z": -4276.7978515625
                },
                "camForwardTargetOffset": {
                    "x": -2975.0029296875,
                    "y": 201.74200439453125,
                    "z": -4275.97216796875
                },
                "camFov": 25.0,
                "lerpPattern": 6,
                "cameraBlendType": "EaseInOutCubic",
                "cutFrameTrans": {},
                "needZAxisRotate": true,
                "openCameraDither": false,
                "targetNpcAlias": "",
                "closeTreeLeafDither": true
            },
            {
                "$type": "ConfigDialogInterAction",
                "type": "DIALOG",
                "aliasList": [
                    "12276"
                ],
                "dialogID": 191430805,
                "protectTime": 0.5
            },
            {
                "$type": "ConfigEmoSyncInterAction",
                "type": "EMO_SYNC",
                "aliasList": [
                    "12276"
                ],
                "dataPath": "Cs_Emo_Avatar_Simple_Common_Set/Cs_Emo_Avatar_Talk/Cs_Emo_Coop_Common/Cs_Emo_Coop_Shinobu_01/Cs_Emo_191430805",
                "phonemePath": "",
                "emotionPath": "",
                "mateDataPath": "",
                "matePhonemePath": "",
                "mateEmotionPath": "",
                "dataPathHashList": [
                    3212108421358169191,
                    5720065300799721616,
                    1663782160731625380,
                    12234231792722659610
                ]
            },
            {
                "$type": "ConfigCameraMoveInterAction",
                "type": "CAMERA_MOVE",
                "delayTime": 0.10000000149011612,
                "duration": 33.0359992980957,
                "camPosOffset": {
                    "x": -2975.20703125,
                    "y": 201.86199951171875,
                    "z": -4276.32080078125
                },
                "camForwardTargetOffset": {
                    "x": -2974.720947265625,
                    "y": 201.57699584960938,
                    "z": -4275.4951171875
                },
                "camFov": 25.0,
                "cameraBlendType": "EaseOutQuad",
                "cutFrameTrans": {},
                "needZAxisRotate": true,
                "openCameraDither": false,
                "targetNpcAlias": "",
                "closeTreeLeafDither": true
            }
        ],
        [
            {
                "$type": "ConfigDialogInterAction",
                "type": "DIALOG",
                "aliasList": [
                    "12276"
                ],
                "dialogID": 191430806,
                "protectTime": 0.5
            },
            {
                "$type": "ConfigEmoSyncInterAction",
                "type": "EMO_SYNC",
                "aliasList": [
                    "12276"
                ],
                "dataPath": "Cs_Emo_Avatar_Simple_Common_Set/Cs_Emo_Avatar_Talk/Cs_Emo_Coop_Common/Cs_Emo_Coop_Shinobu_01/Cs_Emo_191430806",
                "phonemePath": "",
                "emotionPath": "",
                "mateDataPath": "",
                "matePhonemePath": "",
                "mateEmotionPath": "",
                "dataPathHashList": [
                    8819088745023359397,
                    7683895232544287530,
                    3590804378409800341,
                    17102180715582174405
                ]
            },
            {
                "$type": "ConfigDialogSelectAction",
                "type": "DIALOG_SELECT",
                "delayTime": 0.4000000059604645,
                "aliasList": [
                    "Avatar"
                ],
                "dialogIDList": [
                    191430807
                ],
                "grpIDList": [
                    318012417
                ],
                "useGrpId": true
            }
        ],
        [
            {
                "$type": "ConfigDialogInterAction",
                "type": "DIALOG",
                "aliasList": [
                    "12276"
                ],
                "dialogID": 191430808,
                "protectTime": 0.5
            },
            {
                "$type": "ConfigEmoSyncInterAction",
                "type": "EMO_SYNC",
                "aliasList": [
                    "12276"
                ],
                "dataPath": "Cs_Emo_Avatar_Simple_Common_Set/Cs_Emo_Avatar_Talk/Cs_Emo_Coop_Common/Cs_Emo_Coop_Shinobu_01/Cs_Emo_191430808",
                "phonemePath": "",
                "emotionPath": "",
                "mateDataPath": "",
                "matePhonemePath": "",
                "mateEmotionPath": "",
                "dataPathHashList": [
                    17958949715013808,
                    7448548410387654165,
                    1000898382224499130,
                    9525094878216034746
                ]
            }
        ],
        [
            {
                "$type": "ConfigDialogInterAction",
                "type": "DIALOG",
                "aliasList": [
                    "12276"
                ],
                "dialogID": 191430809,
                "protectTime": 0.5
            },
            {
                "$type": "ConfigEmoSyncInterAction",
                "type": "EMO_SYNC",
                "aliasList": [
                    "12276"
                ],
                "dataPath": "Cs_Emo_Avatar_Simple_Common_Set/Cs_Emo_Avatar_Talk/Cs_Emo_Coop_Common/Cs_Emo_Coop_Shinobu_01/Cs_Emo_191430809",
                "phonemePath": "",
                "emotionPath": "",
                "mateDataPath": "",
                "matePhonemePath": "",
                "mateEmotionPath": "",
                "dataPathHashList": [
                    9777604502633320623,
                    2034752508031340462,
                    8583000765420392215,
                    3939089106891107833
                ]
            }
        ],
        [
            {
                "$type": "ConfigTimeProtectAction",
                "type": "TIME_PROTECT",
                "duration": 0.699999988079071
            },
            {
                "$type": "ConfigSimpleBlackScreenAction",
                "type": "SIMPLE_BLACK_SCREEN",
                "duration": 0.0,
                "durationToBlack": 0.5,
                "durationKeepBlack": 2.0,
                "durationFromBlack": 0.5,
                "textMapID": "",
                "useTextFade": true
            },
            {
                "$type": "ConfigDialogInterAction",
                "type": "DIALOG_CLEAR",
                "dialogID": 191430809
            },
            {
                "$type": "ConfigCameraMoveInterAction",
                "type": "CAMERA_MOVE",
                "delayTime": 0.5,
                "duration": 0.10000000149011612,
                "camPosOffset": {
                    "x": -2974.7939453125,
                    "y": 201.86900329589844,
                    "z": -4278.85791015625
                },
                "camForwardTargetOffset": {
                    "x": -2974.787109375,
                    "y": 201.56700134277344,
                    "z": -4277.90478515625
                },
                "lerpPattern": 6,
                "cameraBlendType": "EaseInOutCubic",
                "cutFrameTrans": {},
                "needZAxisRotate": true,
                "openCameraDither": false,
                "targetNpcAlias": "",
                "closeTreeLeafDither": true
            },
            {
                "$type": "ConfigVisibleInterAction",
                "type": "VISIBLE",
                "delayTime": 0.5,
                "aliasList": [
                    "Avatar"
                ],
                "isVisible": true
            },
            {
                "$type": "ConfigLocalGadgetOP",
                "type": "LOCAL_GADGET_OP",
                "delayTime": 0.6000000238418579,
                "gadgetId": 70710716,
                "subKey": 123,
                "oprCode": 2,
                "slotName": "",
                "position": {
                    "x": -2973.263916015625,
                    "y": 201.21299743652344,
                    "z": -4273.216796875
                },
                "euler": {
                    "y": 269.0050048828125
                },
                "gvKey": ""
            },
            {
                "$type": "ConfigLocalGadgetOP",
                "type": "LOCAL_GADGET_OP",
                "delayTime": 0.6000000238418579,
                "aliasList": [
                    "12276"
                ],
                "gadgetId": 71700365,
                "subKey": 321,
                "oprCode": 2,
                "slotName": "",
                "position": {
                    "x": -2973.35302734375,
                    "y": 200.04400634765625,
                    "z": -4274.40087890625
                },
                "euler": {
                    "y": 91.05500030517578
                },
                "gvKey": ""
            }
        ]
    ],
    "groupId": [
        {
            "grpId": 318012410,
            "nextGrpId": 318012411
        },
        {
            "index": 1,
            "grpId": 318012411,
            "nextGrpId": 318012412
        },
        {
            "index": 2,
            "grpId": 318012412,
            "nextGrpId": 318012413
        },
        {
            "index": 3,
            "grpId": 318012413,
            "nextGrpId": 318012414
        },
        {
            "index": 4,
            "grpId": 318012414,
            "nextGrpId": 318012415
        },
        {
            "index": 5,
            "grpId": 318012415,
            "nextGrpId": 318012416
        },
        {
            "index": 6,
            "grpId": 318012416,
            "nextGrpId": 318012417
        },
        {
            "index": 7,
            "grpId": 318012417,
            "nextGrpId": 318012418
        },
        {
            "index": 8,
            "grpId": 318012418,
            "nextGrpId": 1268450166
        },
        {
            "index": 9,
            "grpId": 1268450166,
            "nextGrpId": 1268450167
        }
    ],
    "freeStyleDic": {
        "12276": [
            1250
        ],
        "510": []
    }
}