{
    "PEGAEKCDCPP": "",
    "startBlackKeepTime": 1.0,
    "GNKDILIOOFF": "",
    "disableNpcLod": true,
    "startFade": {
        "startFadeInDuration": 0.5,
        "startFadeOutDuration": 0.5
    },
    "endFade": {
        "startFadeOutDuration": 0.0
    },
    "actors": [
        {
            "alias": "Avatar",
            "visible": true,
            "bornPointName": "",
            "relativePosNpcAlias": ""
        },
        {
            "configID": 509,
            "alias": "509",
            "visible": true,
            "bornPointName": "Q1904704_C1904702_N509",
            "relativePosNpcAlias": ""
        }
    ],
    "group": [
        [
            {
                "$type": "ConfigLookAtInterAction",
                "type": "LOOK_AT",
                "aliasList": [
                    "Avatar"
                ],
                "headTurnTime": 0.5,
                "targetNpcAlias": ""
            },
            {
                "$type": "ConfigVisibleInterAction",
                "type": "VISIBLE",
                "aliasList": [
                    "Avatar"
                ]
            },
            {
                "$type": "ConfigLookAtInterAction",
                "type": "LOOK_AT",
                "aliasList": [
                    "509"
                ],
                "headTurnTime": 0.5,
                "targetNpcAlias": ""
            },
            {
                "$type": "ConfigEmotionTemplateAction",
                "type": "EMOTION_TEMPLATE",
                "aliasList": [
                    "509"
                ],
                "emoTemplateID": 10100
            },
            {
                "$type": "ConfigCameraMoveInterAction",
                "type": "CAMERA_MOVE",
                "duration": 1.0,
                "cameraPosType": "RELATIVE_TO_TARGET_ENTITY",
                "camTargetType": "RELATIVE_TO_TARGET_ENTITY",
                "camFov": 30.0,
                "lerpPattern": 6,
                "cameraBlendType": "EaseInOutCubic",
                "cutFrameTrans": {},
                "openCameraDither": false,
                "targetNpcAlias": "509",
                "closeTreeLeafDither": true
            },
            {
                "$type": "ConfigCameraDOFAction",
                "type": "CAMERA_DOF",
                "focusDistance": 6.0,
                "focusRange": 6.0,
                "quality": 3
            },
            {
                "$type": "ConfigTimeProtectAction",
                "type": "TIME_PROTECT",
                "duration": 0.20000000298023224
            },
            {
                "$type": "ConfigBlackScreenAction",
                "type": "BLACK_SCREEN",
                "blackScreenType": "KEEP_BLACK",
                "durationKeepBlack": 0.5,
                "inteePos": "",
                "textMapID": "",
                "useTextFade": true
            }
        ],
        [
            {
                "$type": "ConfigEmotionTemplateAction",
                "type": "EMOTION_TEMPLATE",
                "aliasList": [
                    "509"
                ],
                "emoTemplateID": 10100
            },
            {
                "$type": "ConfigEmoSyncInterAction",
                "type": "EMO_SYNC",
                "aliasList": [
                    "509"
                ],
                "dataPath": "Cs_Emo_Avatar_Simple_Common_Set/Cs_Emo_Avatar_Talk/Cs_Emo_Coop_Common/Cs_Emo_Coop_Yunjin_01/Cs_Emo_190470201",
                "phonemePath": "",
                "emotionPath": "",
                "mateDataPath": "",
                "matePhonemePath": "",
                "mateEmotionPath": "",
                "dataPathHashList": [
                    2418914092983444024,
                    11004351313119494412,
                    15210299737913434249,
                    15794841649302873719
                ]
            },
            {
                "$type": "ConfigDialogInterAction",
                "type": "DIALOG",
                "aliasList": [
                    "509"
                ],
                "dialogID": 190470201,
                "protectTime": 0.5
            },
            {
                "$type": "ConfigCameraMoveInterAction",
                "type": "CAMERA_MOVE",
                "duration": 1.0,
                "cameraPosType": "RELATIVE_TO_TARGET_ENTITY",
                "camTargetType": "RELATIVE_TO_TARGET_ENTITY",
                "camFov": 30.0,
                "lerpPattern": 6,
                "cameraBlendType": "EaseInOutCubic",
                "cutFrameTrans": {},
                "openCameraDither": false,
                "targetNpcAlias": "509",
                "closeTreeLeafDither": true
            },
            {
                "$type": "ConfigBlackScreenAction",
                "type": "BLACK_SCREEN",
                "blackScreenType": "FROM_BLACK",
                "durationFromBlack": 0.5,
                "inteePos": "",
                "textMapID": "",
                "useTextFade": true
            }
        ],
        [
            {
                "$type": "ConfigEmoSyncInterAction",
                "type": "EMO_SYNC",
                "aliasList": [
                    "509"
                ],
                "dataPath": "Cs_Emo_Avatar_Simple_Common_Set/Cs_Emo_Avatar_Talk/Cs_Emo_Coop_Common/Cs_Emo_Coop_Yunjin_01/Cs_Emo_190470202",
                "phonemePath": "",
                "emotionPath": "",
                "mateDataPath": "",
                "matePhonemePath": "",
                "mateEmotionPath": "",
                "dataPathHashList": [
                    3260327272271868966,
                    14378309743351017534,
                    5019852941062106015,
                    4984729283055949402
                ]
            },
            {
                "$type": "ConfigEmotionTemplateAction",
                "type": "EMOTION_TEMPLATE",
                "aliasList": [
                    "509"
                ],
                "emoTemplateID": 10101
            },
            {
                "$type": "ConfigDialogInterAction",
                "type": "DIALOG",
                "aliasList": [
                    "509"
                ],
                "dialogID": 190470202,
                "protectTime": 0.5
            }
        ],
        [
            {
                "$type": "ConfigEmotionTemplateAction",
                "type": "EMOTION_TEMPLATE",
                "aliasList": [
                    "509"
                ],
                "emoTemplateID": 10100
            },
            {
                "$type": "ConfigEmoSyncInterAction",
                "type": "EMO_SYNC",
                "aliasList": [
                    "509"
                ],
                "dataPath": "Cs_Emo_Avatar_Simple_Common_Set/Cs_Emo_Avatar_Talk/Cs_Emo_Coop_Common/Cs_Emo_Coop_Yunjin_01/Cs_Emo_190470203",
                "phonemePath": "",
                "emotionPath": "",
                "mateDataPath": "",
                "matePhonemePath": "",
                "mateEmotionPath": "",
                "dataPathHashList": [
                    6066133148965273929,
                    4659643598166369013,
                    7822481829285877520,
                    15953538354699808213
                ]
            },
            {
                "$type": "ConfigDialogInterAction",
                "type": "DIALOG",
                "aliasList": [
                    "509"
                ],
                "dialogID": 190470203,
                "protectTime": 0.5
            },
            {
                "$type": "ConfigDialogSelectAction",
                "type": "DIALOG_SELECT",
                "delayTime": 0.4000000059604645,
                "aliasList": [
                    "Avatar"
                ],
                "dialogIDList": [
                    190470204
                ],
                "grpIDList": [
                    4234722972
                ],
                "useGrpId": true
            }
        ],
        [
            {
                "$type": "ConfigEmoSyncInterAction",
                "type": "EMO_SYNC",
                "aliasList": [
                    "509"
                ],
                "dataPath": "Cs_Emo_Avatar_Simple_Common_Set/Cs_Emo_Avatar_Talk/Cs_Emo_Coop_Common/Cs_Emo_Coop_Yunjin_01/Cs_Emo_190470205",
                "phonemePath": "",
                "emotionPath": "",
                "mateDataPath": "",
                "matePhonemePath": "",
                "mateEmotionPath": "",
                "dataPathHashList": [
                    1024258992976538796,
                    6604449031860281916,
                    18005256040376887429,
                    12254936995712304741
                ]
            },
            {
                "$type": "ConfigDialogInterAction",
                "type": "DIALOG",
                "aliasList": [
                    "509"
                ],
                "dialogID": 190470205,
                "protectTime": 0.5
            }
        ],
        [
            {
                "$type": "ConfigEmoSyncInterAction",
                "type": "EMO_SYNC",
                "aliasList": [
                    "509"
                ],
                "dataPath": "Cs_Emo_Avatar_Simple_Common_Set/Cs_Emo_Avatar_Talk/Cs_Emo_Coop_Common/Cs_Emo_Coop_Yunjin_01/Cs_Emo_190470206",
                "phonemePath": "",
                "emotionPath": "",
                "mateDataPath": "",
                "matePhonemePath": "",
                "mateEmotionPath": "",
                "dataPathHashList": [
                    1257522506881797281,
                    18049704845673889765,
                    15240551512893917683,
                    15484772615278828609
                ]
            },
            {
                "$type": "ConfigEmotionTemplateAction",
                "type": "EMOTION_TEMPLATE",
                "aliasList": [
                    "509"
                ],
                "emoTemplateID": 10601
            },
            {
                "$type": "ConfigDialogInterAction",
                "type": "DIALOG",
                "aliasList": [
                    "509"
                ],
                "dialogID": 190470206,
                "protectTime": 0.5
            }
        ],
        [
            {
                "$type": "ConfigEmotionTemplateAction",
                "type": "EMOTION_TEMPLATE",
                "aliasList": [
                    "509"
                ],
                "emoTemplateID": 10100
            },
            {
                "$type": "ConfigEmoSyncInterAction",
                "type": "EMO_SYNC",
                "aliasList": [
                    "509"
                ],
                "dataPath": "Cs_Emo_Avatar_Simple_Common_Set/Cs_Emo_Avatar_Talk/Cs_Emo_Coop_Common/Cs_Emo_Coop_Yunjin_01/Cs_Emo_190470207",
                "phonemePath": "",
                "emotionPath": "",
                "mateDataPath": "",
                "matePhonemePath": "",
                "mateEmotionPath": "",
                "dataPathHashList": [
                    18001111094089845059,
                    16670429714562030604,
                    2074328079718005876,
                    16715606870842098242
                ]
            },
            {
                "$type": "ConfigDialogInterAction",
                "type": "DIALOG",
                "aliasList": [
                    "509"
                ],
                "dialogID": 190470207,
                "protectTime": 0.5
            },
            {
                "$type": "ConfigDialogSelectAction",
                "type": "DIALOG_SELECT",
                "delayTime": 0.4000000059604645,
                "aliasList": [
                    "Avatar"
                ],
                "dialogIDList": [
                    190470208
                ],
                "grpIDList": [
                    4234722975
                ],
                "useGrpId": true
            }
        ],
        [
            {
                "$type": "ConfigEmoSyncInterAction",
                "type": "EMO_SYNC",
                "aliasList": [
                    "509"
                ],
                "dataPath": "Cs_Emo_Avatar_Simple_Common_Set/Cs_Emo_Avatar_Talk/Cs_Emo_Coop_Common/Cs_Emo_Coop_Yunjin_01/Cs_Emo_190470209",
                "phonemePath": "",
                "emotionPath": "",
                "mateDataPath": "",
                "matePhonemePath": "",
                "mateEmotionPath": "",
                "dataPathHashList": [
                    6668391874098530901,
                    13396003381629071701,
                    12352030235356599875,
                    7860551709234567340
                ]
            },
            {
                "$type": "ConfigEmotionTemplateAction",
                "type": "EMOTION_TEMPLATE",
                "aliasList": [
                    "509"
                ],
                "emoTemplateID": 10201
            },
            {
                "$type": "ConfigDialogInterAction",
                "type": "DIALOG",
                "aliasList": [
                    "509"
                ],
                "dialogID": 190470209,
                "protectTime": 0.5
            }
        ],
        [
            {
                "$type": "ConfigEmoSyncInterAction",
                "type": "EMO_SYNC",
                "aliasList": [
                    "509"
                ],
                "dataPath": "Cs_Emo_Avatar_Simple_Common_Set/Cs_Emo_Avatar_Talk/Cs_Emo_Coop_Common/Cs_Emo_Coop_Yunjin_01/Cs_Emo_190470210",
                "phonemePath": "",
                "emotionPath": "",
                "mateDataPath": "",
                "matePhonemePath": "",
                "mateEmotionPath": "",
                "dataPathHashList": [
                    9495636379069917815,
                    17957311018145436188,
                    9103753167988177637,
                    9300742659024241786
                ]
            },
            {
                "$type": "ConfigEmotionTemplateAction",
                "type": "EMOTION_TEMPLATE",
                "aliasList": [
                    "509"
                ],
                "emoTemplateID": 10100
            },
            {
                "$type": "ConfigDialogInterAction",
                "type": "DIALOG",
                "aliasList": [
                    "509"
                ],
                "dialogID": 190470210,
                "protectTime": 0.5
            }
        ],
        [
            {
                "$type": "ConfigEmoSyncInterAction",
                "type": "EMO_SYNC",
                "aliasList": [
                    "509"
                ],
                "dataPath": "Cs_Emo_Avatar_Simple_Common_Set/Cs_Emo_Avatar_Talk/Cs_Emo_Coop_Common/Cs_Emo_Coop_Yunjin_01/Cs_Emo_190470211",
                "phonemePath": "",
                "emotionPath": "",
                "mateDataPath": "",
                "matePhonemePath": "",
                "mateEmotionPath": "",
                "dataPathHashList": [
                    11935337980595321376,
                    1821428016912012364,
                    4634695168510166607,
                    10982953237212178584
                ]
            },
            {
                "$type": "ConfigEmotionTemplateAction",
                "type": "EMOTION_TEMPLATE",
                "aliasList": [
                    "509"
                ],
                "emoTemplateID": 10601
            },
            {
                "$type": "ConfigDialogInterAction",
                "type": "DIALOG",
                "aliasList": [
                    "509"
                ],
                "dialogID": 190470211,
                "protectTime": 0.5
            }
        ],
        [
            {
                "$type": "ConfigEmoSyncInterAction",
                "type": "EMO_SYNC",
                "aliasList": [
                    "509"
                ],
                "dataPath": "Cs_Emo_Avatar_Simple_Common_Set/Cs_Emo_Avatar_Talk/Cs_Emo_Coop_Common/Cs_Emo_Coop_Yunjin_01/Cs_Emo_190470212",
                "phonemePath": "",
                "emotionPath": "",
                "mateDataPath": "",
                "matePhonemePath": "",
                "mateEmotionPath": "",
                "dataPathHashList": [
                    10819601374722177694,
                    13172335063293517596,
                    11751368173569692145,
                    1484696040951240179
                ]
            },
            {
                "$type": "ConfigEmotionTemplateAction",
                "type": "EMOTION_TEMPLATE",
                "aliasList": [
                    "509"
                ],
                "emoTemplateID": 10100
            },
            {
                "$type": "ConfigDialogInterAction",
                "type": "DIALOG",
                "aliasList": [
                    "509"
                ],
                "dialogID": 190470212,
                "protectTime": 0.5
            }
        ],
        [
            {
                "$type": "ConfigTimeProtectAction",
                "type": "TIME_PROTECT",
                "duration": 1.5
            },
            {
                "$type": "ConfigDialogInterAction",
                "type": "DIALOG_CLEAR",
                "dialogID": 190470212
            },
            {
                "$type": "ConfigSimpleBlackScreenAction",
                "type": "SIMPLE_BLACK_SCREEN",
                "durationToBlack": 0.5,
                "durationKeepBlack": 1.0,
                "durationFromBlack": 0.5,
                "textMapID": ""
            },
            {
                "$type": "ConfigTeleportToAction",
                "type": "TELEPORT_TO",
                "delayTime": 0.6000000238418579,
                "aliasList": [
                    "Avatar"
                ],
                "position": {
                    "x": -148.90199279785156,
                    "y": 288.00201416015625,
                    "z": 15.989999771118164
                },
                "forward": {
                    "x": 0.3100000023841858,
                    "z": -0.9509999752044678
                },
                "openLongDisTeleport": true
            },
            {
                "$type": "ConfigSteerInterAction",
                "type": "STEER_TO",
                "delayTime": 0.6000000238418579,
                "duration": 0.10000000149011612,
                "aliasList": [
                    "509"
                ],
                "steerType": "ABSOLUTE",
                "steerDir": {
                    "x": -147.57699584960938,
                    "y": 288.61700439453125,
                    "z": 15.954000473022461
                },
                "useSteerAnim": true,
                "targetNpcAlias": ""
            },
            {
                "$type": "ConfigCameraMoveInterAction",
                "type": "CAMERA_MOVE",
                "delayTime": 0.6000000238418579,
                "duration": 0.10000000149011612,
                "camPosOffset": {
                    "x": -149.30999755859375,
                    "y": 289.8609924316406,
                    "z": 18.02899932861328
                },
                "camForwardTargetOffset": {
                    "x": -149.1490020751953,
                    "y": 289.45599365234375,
                    "z": 17.128999710083008
                },
                "lerpPattern": 6,
                "cameraBlendType": "EaseInOutCubic",
                "cutFrameTrans": {},
                "needZAxisRotate": true,
                "openCameraDither": false,
                "targetNpcAlias": "",
                "closeTreeLeafDither": true
            },
            {
                "$type": "ConfigVisibleInterAction",
                "type": "VISIBLE",
                "delayTime": 0.6000000238418579,
                "aliasList": [
                    "Avatar"
                ],
                "isVisible": true
            }
        ]
    ],
    "groupId": [
        {
            "grpId": 4234722968,
            "nextGrpId": 4234722969
        },
        {
            "index": 1,
            "grpId": 4234722969,
            "nextGrpId": 4234722970
        },
        {
            "index": 2,
            "grpId": 4234722970,
            "nextGrpId": 4234722971
        },
        {
            "index": 3,
            "grpId": 4234722971,
            "nextGrpId": 4234722972
        },
        {
            "index": 4,
            "grpId": 4234722972,
            "nextGrpId": 4234722973
        },
        {
            "index": 5,
            "grpId": 4234722973,
            "nextGrpId": 4234722974
        },
        {
            "index": 6,
            "grpId": 4234722974,
            "nextGrpId": 4234722975
        },
        {
            "index": 7,
            "grpId": 4234722975,
            "nextGrpId": 4234722976
        },
        {
            "index": 8,
            "grpId": 4234722976,
            "nextGrpId": 2427393176
        },
        {
            "index": 9,
            "grpId": 2427393176,
            "nextGrpId": 2427393177
        },
        {
            "index": 10,
            "grpId": 2427393177,
            "nextGrpId": 2427393178
        },
        {
            "index": 11,
            "grpId": 2427393178,
            "nextGrpId": 2427393179
        }
    ],
    "freeStyleDic": {
        "509": [
            10100,
            10101,
            10601,
            10201
        ]
    }
}