{
    "PEGAEKCDCPP": "",
    "GNKDILIOOFF": "",
    "disableNpcLod": true,
    "startFade": {
        "startFadeOutDuration": 0.0
    },
    "endFade": {
        "startFadeOutDuration": 0.0
    },
    "actors": [
        {
            "alias": "Avatar",
            "visible": true,
            "bornPointName": "Q1913301_C1913301Player",
            "relativePosNpcAlias": ""
        },
        {
            "configID": 12306,
            "alias": "12306",
            "visible": true,
            "bornPointName": "Q1913704_C1913703Stalker",
            "relativePosNpcAlias": ""
        }
    ],
    "group": [
        [
            {
                "$type": "ConfigDialogInterAction",
                "type": "DIALOG_CLEAR"
            },
            {
                "$type": "ConfigUITriggerInterAction",
                "type": "UI_TRIGGER",
                "duration": 1.5,
                "contextName": "CoopDefeatDialog",
                "param": "102701 COOP_Message_Ningguang_fail"
            },
            {
                "$type": "ConfigTimeProtectAction",
                "type": "TIME_PROTECT",
                "duration": 0.5
            },
            {
                "$type": "ConfigVisibleInterAction",
                "type": "VISIBLE",
                "delayTime": 0.32499998807907104,
                "aliasList": [
                    "Avatar"
                ],
                "isVisible": true
            }
        ]
    ],
    "groupId": [
        {
            "grpId": 1841718201,
            "nextGrpId": 1841718202
        }
    ],
    "freeStyleDic": {
        "12306": []
    }
}