{
    "PEGAEKCDCPP": "",
    "startBlackKeepTime": 1.0,
    "GNKDILIOOFF": "",
    "disableNpcLod": true,
    "startFade": {
        "startFadeInDuration": 0.5,
        "startFadeOutDuration": 0.5
    },
    "endFade": {
        "startFadeOutDuration": 0.0
    },
    "actors": [
        {
            "alias": "Avatar",
            "visible": true,
            "bornPointName": "Q1913201Player",
            "relativePosNpcAlias": ""
        },
        {
            "configID": 507,
            "alias": "507",
            "visible": true,
            "bornPointName": "Q1913201Ningguang",
            "relativePosNpcAlias": ""
        }
    ],
    "group": [
        [
            {
                "$type": "ConfigVisibleInterAction",
                "type": "VISIBLE",
                "aliasList": [
                    "Avatar"
                ]
            },
            {
                "$type": "ConfigEmotionTemplateAction",
                "type": "EMOTION_TEMPLATE",
                "aliasList": [
                    "507"
                ],
                "emoTemplateID": 10100
            },
            {
                "$type": "ConfigLookAtInterAction",
                "type": "LOOK_AT",
                "aliasList": [
                    "507"
                ],
                "headTurnTime": 0.5,
                "targetNpcAlias": ""
            },
            {
                "$type": "ConfigTimeProtectAction",
                "type": "TIME_PROTECT",
                "duration": 0.10000000149011612
            },
            {
                "$type": "ConfigBlackScreenAction",
                "type": "BLACK_SCREEN",
                "duration": 0.10000000149011612,
                "blackScreenType": "KEEP_BLACK",
                "durationKeepBlack": 0.5,
                "inteePos": "",
                "textMapID": "",
                "useTextFade": true
            },
            {
                "$type": "ConfigCameraMoveInterAction",
                "type": "CAMERA_MOVE",
                "duration": 1.0,
                "cameraPosType": "RELATIVE_TO_TARGET_ENTITY",
                "camTargetType": "RELATIVE_TO_TARGET_ENTITY",
                "camFov": 30.0,
                "lerpPattern": 6,
                "cameraBlendType": "EaseInOutCubic",
                "cutFrameTrans": {},
                "openCameraDither": false,
                "targetNpcAlias": "507",
                "closeTreeLeafDither": true
            }
        ],
        [
            {
                "$type": "ConfigDialogInterAction",
                "type": "DIALOG",
                "aliasList": [
                    "507"
                ],
                "dialogID": 191320101,
                "protectTime": 0.5
            },
            {
                "$type": "ConfigEmotionTemplateAction",
                "type": "EMOTION_TEMPLATE",
                "aliasList": [
                    "507"
                ],
                "emoTemplateID": 10100
            },
            {
                "$type": "ConfigEmoSyncInterAction",
                "type": "EMO_SYNC",
                "aliasList": [
                    "507"
                ],
                "dataPath": "Cs_Emo_Avatar_Simple_Common_Set/Cs_Emo_Avatar_Talk/Cs_Emo_Coop_Common/Cs_Emo_Coop_Ningguang_01/Cs_Emo_191320101",
                "phonemePath": "",
                "emotionPath": "",
                "mateDataPath": "",
                "matePhonemePath": "",
                "mateEmotionPath": "",
                "dataPathHashList": [
                    2840413528697540160,
                    15116027147980623746,
                    14694774304672484373,
                    8473292912925068594
                ]
            },
            {
                "$type": "ConfigCameraMoveInterAction",
                "type": "CAMERA_MOVE",
                "duration": 1.0,
                "cameraPosType": "RELATIVE_TO_TARGET_ENTITY",
                "camTargetType": "RELATIVE_TO_TARGET_ENTITY",
                "camFov": 30.0,
                "lerpPattern": 6,
                "cameraBlendType": "EaseInOutCubic",
                "cutFrameTrans": {},
                "openCameraDither": false,
                "targetNpcAlias": "507",
                "closeTreeLeafDither": true
            },
            {
                "$type": "ConfigBlackScreenAction",
                "type": "BLACK_SCREEN",
                "blackScreenType": "FROM_BLACK",
                "durationFromBlack": 0.5,
                "inteePos": "",
                "textMapID": "",
                "useTextFade": true
            },
            {
                "$type": "ConfigDialogSelectAction",
                "type": "DIALOG_SELECT",
                "delayTime": 0.4000000059604645,
                "aliasList": [
                    "Avatar"
                ],
                "dialogIDList": [
                    191320102,
                    191320104,
                    191320106
                ],
                "grpIDList": [
                    1837063119,
                    1837063120,
                    1837063121
                ],
                "useGrpId": true
            }
        ],
        [
            {
                "$type": "ConfigEmoSyncInterAction",
                "type": "EMO_SYNC",
                "aliasList": [
                    "507"
                ],
                "dataPath": "Cs_Emo_Avatar_Simple_Common_Set/Cs_Emo_Avatar_Talk/Cs_Emo_Coop_Common/Cs_Emo_Coop_Ningguang_01/Cs_Emo_191320103",
                "phonemePath": "",
                "emotionPath": "",
                "mateDataPath": "",
                "matePhonemePath": "",
                "mateEmotionPath": "",
                "dataPathHashList": [
                    8614330676186557165,
                    15162146418844647092,
                    522764332265988742,
                    8285678254648424144
                ]
            },
            {
                "$type": "ConfigEmotionTemplateAction",
                "type": "EMOTION_TEMPLATE",
                "aliasList": [
                    "507"
                ],
                "emoTemplateID": 10101
            },
            {
                "$type": "ConfigDialogInterAction",
                "type": "DIALOG",
                "aliasList": [
                    "507"
                ],
                "dialogID": 191320103,
                "protectTime": 0.5
            }
        ],
        [
            {
                "$type": "ConfigEmoSyncInterAction",
                "type": "EMO_SYNC",
                "aliasList": [
                    "507"
                ],
                "dataPath": "Cs_Emo_Avatar_Simple_Common_Set/Cs_Emo_Avatar_Talk/Cs_Emo_Coop_Common/Cs_Emo_Coop_Ningguang_01/Cs_Emo_191320105",
                "phonemePath": "",
                "emotionPath": "",
                "mateDataPath": "",
                "matePhonemePath": "",
                "mateEmotionPath": "",
                "dataPathHashList": [
                    3498217999165212689,
                    4515652149275670009,
                    555172503165540035,
                    11852520698706422824
                ]
            },
            {
                "$type": "ConfigEmotionTemplateAction",
                "type": "EMOTION_TEMPLATE",
                "aliasList": [
                    "507"
                ],
                "emoTemplateID": 10101
            },
            {
                "$type": "ConfigDialogInterAction",
                "type": "DIALOG",
                "aliasList": [
                    "507"
                ],
                "dialogID": 191320105,
                "protectTime": 0.5
            }
        ],
        [
            {
                "$type": "ConfigEmoSyncInterAction",
                "type": "EMO_SYNC",
                "aliasList": [
                    "507"
                ],
                "dataPath": "Cs_Emo_Avatar_Simple_Common_Set/Cs_Emo_Avatar_Talk/Cs_Emo_Coop_Common/Cs_Emo_Coop_Ningguang_01/Cs_Emo_191320107",
                "phonemePath": "",
                "emotionPath": "",
                "mateDataPath": "",
                "matePhonemePath": "",
                "mateEmotionPath": "",
                "dataPathHashList": [
                    7456867646982359657,
                    1182984027793287380,
                    14721479036007027078,
                    11317174723160734494
                ]
            },
            {
                "$type": "ConfigEmotionTemplateAction",
                "type": "EMOTION_TEMPLATE",
                "aliasList": [
                    "507"
                ],
                "emoTemplateID": 10101
            },
            {
                "$type": "ConfigDialogInterAction",
                "type": "DIALOG",
                "aliasList": [
                    "507"
                ],
                "dialogID": 191320107,
                "protectTime": 0.5
            }
        ],
        [
            {
                "$type": "ConfigEmoSyncInterAction",
                "type": "EMO_SYNC",
                "aliasList": [
                    "507"
                ],
                "dataPath": "Cs_Emo_Avatar_Simple_Common_Set/Cs_Emo_Avatar_Talk/Cs_Emo_Coop_Common/Cs_Emo_Coop_Ningguang_01/Cs_Emo_191320108",
                "phonemePath": "",
                "emotionPath": "",
                "mateDataPath": "",
                "matePhonemePath": "",
                "mateEmotionPath": "",
                "dataPathHashList": [
                    17193973767811415829,
                    10732743779176730243,
                    18090467709225301532,
                    5038425636550185513
                ]
            },
            {
                "$type": "ConfigEmotionTemplateAction",
                "type": "EMOTION_TEMPLATE",
                "aliasList": [
                    "507"
                ],
                "emoTemplateID": 10100
            },
            {
                "$type": "ConfigDialogInterAction",
                "type": "DIALOG",
                "aliasList": [
                    "507"
                ],
                "dialogID": 191320108,
                "protectTime": 0.5
            }
        ],
        [
            {
                "$type": "ConfigEmoSyncInterAction",
                "type": "EMO_SYNC",
                "aliasList": [
                    "507"
                ],
                "dataPath": "Cs_Emo_Avatar_Simple_Common_Set/Cs_Emo_Avatar_Talk/Cs_Emo_Coop_Common/Cs_Emo_Coop_Ningguang_01/Cs_Emo_191320109",
                "phonemePath": "",
                "emotionPath": "",
                "mateDataPath": "",
                "matePhonemePath": "",
                "mateEmotionPath": "",
                "dataPathHashList": [
                    14957344061221321520,
                    2836022472759248093,
                    6516389103343927535,
                    7555065298019821957
                ]
            },
            {
                "$type": "ConfigEmotionTemplateAction",
                "type": "EMOTION_TEMPLATE",
                "aliasList": [
                    "507"
                ],
                "emoTemplateID": 10601
            },
            {
                "$type": "ConfigDialogInterAction",
                "type": "DIALOG",
                "aliasList": [
                    "507"
                ],
                "dialogID": 191320109,
                "protectTime": 0.5
            }
        ],
        [
            {
                "$type": "ConfigEmotionTemplateAction",
                "type": "EMOTION_TEMPLATE",
                "aliasList": [
                    "507"
                ],
                "emoTemplateID": 10100
            },
            {
                "$type": "ConfigEmoSyncInterAction",
                "type": "EMO_SYNC",
                "aliasList": [
                    "507"
                ],
                "dataPath": "Cs_Emo_Avatar_Simple_Common_Set/Cs_Emo_Avatar_Talk/Cs_Emo_Coop_Common/Cs_Emo_Coop_Ningguang_01/Cs_Emo_191320110",
                "phonemePath": "",
                "emotionPath": "",
                "mateDataPath": "",
                "matePhonemePath": "",
                "mateEmotionPath": "",
                "dataPathHashList": [
                    2802989791348699507,
                    3989369632506035355,
                    4089350968229548543,
                    12536666171945750839
                ]
            },
            {
                "$type": "ConfigDialogInterAction",
                "type": "DIALOG",
                "aliasList": [
                    "507"
                ],
                "dialogID": 191320110,
                "protectTime": 0.5
            },
            {
                "$type": "ConfigDialogSelectAction",
                "type": "DIALOG_SELECT",
                "delayTime": 0.4000000059604645,
                "aliasList": [
                    "Avatar"
                ],
                "dialogIDList": [
                    191320111
                ],
                "grpIDList": [
                    1837063125
                ],
                "useGrpId": true
            }
        ],
        [
            {
                "$type": "ConfigEmoSyncInterAction",
                "type": "EMO_SYNC",
                "aliasList": [
                    "507"
                ],
                "dataPath": "Cs_Emo_Avatar_Simple_Common_Set/Cs_Emo_Avatar_Talk/Cs_Emo_Coop_Common/Cs_Emo_Coop_Ningguang_01/Cs_Emo_191320112",
                "phonemePath": "",
                "emotionPath": "",
                "mateDataPath": "",
                "matePhonemePath": "",
                "mateEmotionPath": "",
                "dataPathHashList": [
                    4869871965990750291,
                    16740658050347965350,
                    12800705132813912595,
                    13397863166614608820
                ]
            },
            {
                "$type": "ConfigDialogInterAction",
                "type": "DIALOG",
                "aliasList": [
                    "507"
                ],
                "dialogID": 191320112,
                "protectTime": 0.5
            },
            {
                "$type": "ConfigDialogSelectAction",
                "type": "DIALOG_SELECT",
                "delayTime": 0.4000000059604645,
                "aliasList": [
                    "Avatar"
                ],
                "dialogIDList": [
                    191320113
                ],
                "grpIDList": [
                    1114381827
                ],
                "useGrpId": true
            }
        ],
        [
            {
                "$type": "ConfigEmoSyncInterAction",
                "type": "EMO_SYNC",
                "aliasList": [
                    "507"
                ],
                "dataPath": "Cs_Emo_Avatar_Simple_Common_Set/Cs_Emo_Avatar_Talk/Cs_Emo_Coop_Common/Cs_Emo_Coop_Ningguang_01/Cs_Emo_191320114",
                "phonemePath": "",
                "emotionPath": "",
                "mateDataPath": "",
                "matePhonemePath": "",
                "mateEmotionPath": "",
                "dataPathHashList": [
                    4119194881371333698,
                    10854103928144318987,
                    1853804778147903361,
                    1838560726961411349
                ]
            },
            {
                "$type": "ConfigEmotionTemplateAction",
                "type": "EMOTION_TEMPLATE",
                "aliasList": [
                    "507"
                ],
                "emoTemplateID": 10101
            },
            {
                "$type": "ConfigDialogInterAction",
                "type": "DIALOG",
                "aliasList": [
                    "507"
                ],
                "dialogID": 191320114,
                "protectTime": 0.5
            }
        ],
        [
            {
                "$type": "ConfigEmotionTemplateAction",
                "type": "EMOTION_TEMPLATE",
                "aliasList": [
                    "507"
                ],
                "emoTemplateID": 10100
            },
            {
                "$type": "ConfigEmoSyncInterAction",
                "type": "EMO_SYNC",
                "aliasList": [
                    "507"
                ],
                "dataPath": "Cs_Emo_Avatar_Simple_Common_Set/Cs_Emo_Avatar_Talk/Cs_Emo_Coop_Common/Cs_Emo_Coop_Ningguang_01/Cs_Emo_191320115",
                "phonemePath": "",
                "emotionPath": "",
                "mateDataPath": "",
                "matePhonemePath": "",
                "mateEmotionPath": "",
                "dataPathHashList": [
                    17696471633626435429,
                    15986158693557299786,
                    912102049728324243,
                    8091843346679303120
                ]
            },
            {
                "$type": "ConfigDialogInterAction",
                "type": "DIALOG",
                "aliasList": [
                    "507"
                ],
                "dialogID": 191320115,
                "protectTime": 0.5
            },
            {
                "$type": "ConfigDialogSelectAction",
                "type": "DIALOG_SELECT",
                "delayTime": 0.4000000059604645,
                "aliasList": [
                    "Avatar"
                ],
                "dialogIDList": [
                    191320116
                ],
                "grpIDList": [
                    1114381829
                ],
                "useGrpId": true
            }
        ],
        [
            {
                "$type": "ConfigEmoSyncInterAction",
                "type": "EMO_SYNC",
                "aliasList": [
                    "507"
                ],
                "dataPath": "Cs_Emo_Avatar_Simple_Common_Set/Cs_Emo_Avatar_Talk/Cs_Emo_Coop_Common/Cs_Emo_Coop_Ningguang_01/Cs_Emo_191320117",
                "phonemePath": "",
                "emotionPath": "",
                "mateDataPath": "",
                "matePhonemePath": "",
                "mateEmotionPath": "",
                "dataPathHashList": [
                    5889710402659929740,
                    17473872146696382498,
                    14820538252520021876,
                    1917470183560233916
                ]
            },
            {
                "$type": "ConfigEmotionTemplateAction",
                "type": "EMOTION_TEMPLATE",
                "aliasList": [
                    "507"
                ],
                "emoTemplateID": 10201
            },
            {
                "$type": "ConfigDialogInterAction",
                "type": "DIALOG",
                "aliasList": [
                    "507"
                ],
                "dialogID": 191320117,
                "protectTime": 0.5
            }
        ],
        [
            {
                "$type": "ConfigEmoSyncInterAction",
                "type": "EMO_SYNC",
                "aliasList": [
                    "507"
                ],
                "dataPath": "Cs_Emo_Avatar_Simple_Common_Set/Cs_Emo_Avatar_Talk/Cs_Emo_Coop_Common/Cs_Emo_Coop_Ningguang_01/Cs_Emo_191320118",
                "phonemePath": "",
                "emotionPath": "",
                "mateDataPath": "",
                "matePhonemePath": "",
                "mateEmotionPath": "",
                "dataPathHashList": [
                    538589782548667075,
                    14470091219886916393,
                    9072402173366472756,
                    12934863720260340658
                ]
            },
            {
                "$type": "ConfigDialogInterAction",
                "type": "DIALOG",
                "aliasList": [
                    "507"
                ],
                "dialogID": 191320118,
                "protectTime": 0.5
            }
        ],
        [
            {
                "$type": "ConfigEmoSyncInterAction",
                "type": "EMO_SYNC",
                "aliasList": [
                    "507"
                ],
                "dataPath": "Cs_Emo_Avatar_Simple_Common_Set/Cs_Emo_Avatar_Talk/Cs_Emo_Coop_Common/Cs_Emo_Coop_Ningguang_01/Cs_Emo_191320119",
                "phonemePath": "",
                "emotionPath": "",
                "mateDataPath": "",
                "matePhonemePath": "",
                "mateEmotionPath": "",
                "dataPathHashList": [
                    2321891936969052149,
                    14528192223393935633,
                    15365497370003985693,
                    8885618061529833691
                ]
            },
            {
                "$type": "ConfigEmotionTemplateAction",
                "type": "EMOTION_TEMPLATE",
                "aliasList": [
                    "507"
                ],
                "emoTemplateID": 10100
            },
            {
                "$type": "ConfigDialogInterAction",
                "type": "DIALOG",
                "aliasList": [
                    "507"
                ],
                "dialogID": 191320119,
                "protectTime": 0.5
            }
        ],
        [
            {
                "$type": "ConfigEmoSyncInterAction",
                "type": "EMO_SYNC",
                "aliasList": [
                    "507"
                ],
                "dataPath": "Cs_Emo_Avatar_Simple_Common_Set/Cs_Emo_Avatar_Talk/Cs_Emo_Coop_Common/Cs_Emo_Coop_Ningguang_01/Cs_Emo_191320120",
                "phonemePath": "",
                "emotionPath": "",
                "mateDataPath": "",
                "matePhonemePath": "",
                "mateEmotionPath": "",
                "dataPathHashList": [
                    11935771223531632339,
                    13878317836574815453,
                    4285348203152955346,
                    7840749898563090816
                ]
            },
            {
                "$type": "ConfigDialogInterAction",
                "type": "DIALOG",
                "aliasList": [
                    "507"
                ],
                "dialogID": 191320120,
                "protectTime": 0.5
            },
            {
                "$type": "ConfigDialogSelectAction",
                "type": "DIALOG_SELECT",
                "delayTime": 0.4000000059604645,
                "aliasList": [
                    "Avatar"
                ],
                "dialogIDList": [
                    191320121
                ],
                "grpIDList": [
                    1114381833
                ],
                "useGrpId": true
            }
        ],
        [
            {
                "$type": "ConfigEmoSyncInterAction",
                "type": "EMO_SYNC",
                "aliasList": [
                    "507"
                ],
                "dataPath": "Cs_Emo_Avatar_Simple_Common_Set/Cs_Emo_Avatar_Talk/Cs_Emo_Coop_Common/Cs_Emo_Coop_Ningguang_01/Cs_Emo_191320122",
                "phonemePath": "",
                "emotionPath": "",
                "mateDataPath": "",
                "matePhonemePath": "",
                "mateEmotionPath": "",
                "dataPathHashList": [
                    2639574749049440458,
                    13726329503815004095,
                    2836315269721039375,
                    10874755202575051523
                ]
            },
            {
                "$type": "ConfigEmotionTemplateAction",
                "type": "EMOTION_TEMPLATE",
                "aliasList": [
                    "507"
                ],
                "emoTemplateID": 10101
            },
            {
                "$type": "ConfigDialogInterAction",
                "type": "DIALOG",
                "aliasList": [
                    "507"
                ],
                "dialogID": 191320122,
                "protectTime": 0.5
            }
        ],
        [
            {
                "$type": "ConfigEmoSyncInterAction",
                "type": "EMO_SYNC",
                "aliasList": [
                    "507"
                ],
                "dataPath": "Cs_Emo_Avatar_Simple_Common_Set/Cs_Emo_Avatar_Talk/Cs_Emo_Coop_Common/Cs_Emo_Coop_Ningguang_01/Cs_Emo_191320123",
                "phonemePath": "",
                "emotionPath": "",
                "mateDataPath": "",
                "matePhonemePath": "",
                "mateEmotionPath": "",
                "dataPathHashList": [
                    4740958081723748830,
                    15538369221216227132,
                    6679127948187376944,
                    12565064886174203813
                ]
            },
            {
                "$type": "ConfigEmotionTemplateAction",
                "type": "EMOTION_TEMPLATE",
                "aliasList": [
                    "507"
                ],
                "emoTemplateID": 10100
            },
            {
                "$type": "ConfigDialogInterAction",
                "type": "DIALOG",
                "aliasList": [
                    "507"
                ],
                "dialogID": 191320123,
                "protectTime": 0.5
            }
        ],
        [
            {
                "$type": "ConfigEmoSyncInterAction",
                "type": "EMO_SYNC",
                "aliasList": [
                    "507"
                ],
                "dataPath": "Cs_Emo_Avatar_Simple_Common_Set/Cs_Emo_Avatar_Talk/Cs_Emo_Coop_Common/Cs_Emo_Coop_Ningguang_01/Cs_Emo_191320124",
                "phonemePath": "",
                "emotionPath": "",
                "mateDataPath": "",
                "matePhonemePath": "",
                "mateEmotionPath": "",
                "dataPathHashList": [
                    16015196069196799445,
                    12933770360874567156,
                    17455645446892803738,
                    3805937457597780640
                ]
            },
            {
                "$type": "ConfigDialogInterAction",
                "type": "DIALOG",
                "aliasList": [
                    "507"
                ],
                "dialogID": 191320124,
                "protectTime": 0.5
            },
            {
                "$type": "ConfigDialogSelectAction",
                "type": "DIALOG_SELECT",
                "delayTime": 0.4000000059604645,
                "aliasList": [
                    "Avatar"
                ],
                "dialogIDList": [
                    191320125
                ],
                "grpIDList": [
                    1114381836
                ],
                "useGrpId": true
            }
        ],
        [
            {
                "$type": "ConfigEmoSyncInterAction",
                "type": "EMO_SYNC",
                "aliasList": [
                    "507"
                ],
                "dataPath": "Cs_Emo_Avatar_Simple_Common_Set/Cs_Emo_Avatar_Talk/Cs_Emo_Coop_Common/Cs_Emo_Coop_Ningguang_01/Cs_Emo_191320126",
                "phonemePath": "",
                "emotionPath": "",
                "mateDataPath": "",
                "matePhonemePath": "",
                "mateEmotionPath": "",
                "dataPathHashList": [
                    5140648991276579213,
                    5809977496307327570,
                    9058736386169699836,
                    14349225542636391893
                ]
            },
            {
                "$type": "ConfigEmotionTemplateAction",
                "type": "EMOTION_TEMPLATE",
                "aliasList": [
                    "507"
                ],
                "emoTemplateID": 10101
            },
            {
                "$type": "ConfigDialogInterAction",
                "type": "DIALOG",
                "aliasList": [
                    "507"
                ],
                "dialogID": 191320126,
                "protectTime": 0.5
            }
        ],
        [
            {
                "$type": "ConfigEmoSyncInterAction",
                "type": "EMO_SYNC",
                "aliasList": [
                    "507"
                ],
                "dataPath": "Cs_Emo_Avatar_Simple_Common_Set/Cs_Emo_Avatar_Talk/Cs_Emo_Coop_Common/Cs_Emo_Coop_Ningguang_01/Cs_Emo_191320127",
                "phonemePath": "",
                "emotionPath": "",
                "mateDataPath": "",
                "matePhonemePath": "",
                "mateEmotionPath": "",
                "dataPathHashList": [
                    13516530000251954064,
                    11847784977957416975,
                    14986258843381419345,
                    12963436214260079326
                ]
            },
            {
                "$type": "ConfigDialogInterAction",
                "type": "DIALOG",
                "aliasList": [
                    "507"
                ],
                "dialogID": 191320127,
                "protectTime": 0.5
            },
            {
                "$type": "ConfigDialogSelectAction",
                "type": "DIALOG_SELECT",
                "delayTime": 0.4000000059604645,
                "aliasList": [
                    "Avatar"
                ],
                "dialogIDList": [
                    191320128,
                    191320129
                ],
                "grpIDList": [
                    1114381859,
                    1114381859
                ],
                "useGrpId": true
            }
        ],
        [
            {
                "$type": "ConfigEmoSyncInterAction",
                "type": "EMO_SYNC",
                "aliasList": [
                    "507"
                ],
                "dataPath": "Cs_Emo_Avatar_Simple_Common_Set/Cs_Emo_Avatar_Talk/Cs_Emo_Coop_Common/Cs_Emo_Coop_Ningguang_01/Cs_Emo_191320130",
                "phonemePath": "",
                "emotionPath": "",
                "mateDataPath": "",
                "matePhonemePath": "",
                "mateEmotionPath": "",
                "dataPathHashList": [
                    6632620971516785417,
                    575809540121788664,
                    9220908950720358805,
                    5045960921708356060
                ]
            },
            {
                "$type": "ConfigEmotionTemplateAction",
                "type": "EMOTION_TEMPLATE",
                "aliasList": [
                    "507"
                ],
                "emoTemplateID": 10100
            },
            {
                "$type": "ConfigDialogInterAction",
                "type": "DIALOG",
                "aliasList": [
                    "507"
                ],
                "dialogID": 191320130,
                "protectTime": 0.5
            }
        ],
        [
            {
                "$type": "ConfigDialogInterAction",
                "type": "DIALOG_CLEAR",
                "dialogID": 191320130
            },
            {
                "$type": "ConfigEmotionTemplateAction",
                "type": "EMOTION_TEMPLATE",
                "aliasList": [
                    "507"
                ],
                "emoTemplateID": 10100
            },
            {
                "$type": "ConfigSimpleBlackScreenAction",
                "type": "SIMPLE_BLACK_SCREEN",
                "durationToBlack": 0.5,
                "durationKeepBlack": 1.0,
                "durationFromBlack": 0.5,
                "textMapID": "",
                "useTextFade": true
            },
            {
                "$type": "ConfigTimeProtectAction",
                "type": "TIME_PROTECT",
                "duration": 0.699999988079071
            },
            {
                "$type": "ConfigVisibleInterAction",
                "type": "VISIBLE",
                "delayTime": 0.6000000238418579,
                "aliasList": [
                    "Avatar"
                ],
                "isVisible": true
            },
            {
                "$type": "ConfigCameraMoveInterAction",
                "type": "CAMERA_MOVE",
                "delayTime": 0.6000000238418579,
                "duration": 0.10000000149011612,
                "camPosOffset": {
                    "x": 1.9950000047683716,
                    "y": -6.604000091552734,
                    "z": 18.003999710083008
                },
                "camForwardTargetOffset": {
                    "x": 1.6729999780654907,
                    "y": -6.791999816894531,
                    "z": 18.93199920654297
                },
                "lerpPattern": 6,
                "cameraBlendType": "EaseInOutCubic",
                "cutFrameTrans": {},
                "needZAxisRotate": true,
                "openCameraDither": false,
                "targetNpcAlias": "",
                "closeTreeLeafDither": true
            },
            {
                "$type": "ConfigTeleportToAction",
                "type": "TELEPORT_TO",
                "delayTime": 0.6000000238418579,
                "aliasList": [
                    "Avatar"
                ],
                "position": {
                    "x": 1.2170000076293945,
                    "y": -7.886000156402588,
                    "z": 20.172000885009766
                },
                "forward": {
                    "x": -0.39100000262260437,
                    "z": 0.9200000166893005
                },
                "openLongDisTeleport": true
            }
        ]
    ],
    "groupId": [
        {
            "grpId": 1837063117,
            "nextGrpId": 1837063118
        },
        {
            "index": 1,
            "grpId": 1837063118,
            "nextGrpId": 1837063119
        },
        {
            "index": 2,
            "grpId": 1837063119,
            "nextGrpId": 1837063122
        },
        {
            "index": 3,
            "grpId": 1837063120,
            "nextGrpId": 1837063122
        },
        {
            "index": 4,
            "grpId": 1837063121,
            "nextGrpId": 1837063122
        },
        {
            "index": 5,
            "grpId": 1837063122,
            "nextGrpId": 1837063123
        },
        {
            "index": 6,
            "grpId": 1837063123,
            "nextGrpId": 1837063124
        },
        {
            "index": 7,
            "grpId": 1837063124,
            "nextGrpId": 1837063125
        },
        {
            "index": 8,
            "grpId": 1837063125,
            "nextGrpId": 1114381827
        },
        {
            "index": 9,
            "grpId": 1114381827,
            "nextGrpId": 1114381828
        },
        {
            "index": 10,
            "grpId": 1114381828,
            "nextGrpId": 1114381829
        },
        {
            "index": 11,
            "grpId": 1114381829,
            "nextGrpId": 1114381830
        },
        {
            "index": 12,
            "grpId": 1114381830,
            "nextGrpId": 1114381831
        },
        {
            "index": 13,
            "grpId": 1114381831,
            "nextGrpId": 1114381832
        },
        {
            "index": 14,
            "grpId": 1114381832,
            "nextGrpId": 1114381833
        },
        {
            "index": 15,
            "grpId": 1114381833,
            "nextGrpId": 1114381834
        },
        {
            "index": 16,
            "grpId": 1114381834,
            "nextGrpId": 1114381835
        },
        {
            "index": 17,
            "grpId": 1114381835,
            "nextGrpId": 1114381836
        },
        {
            "index": 18,
            "grpId": 1114381836,
            "nextGrpId": 1114381858
        },
        {
            "index": 19,
            "grpId": 1114381858,
            "nextGrpId": 1114381859
        },
        {
            "index": 20,
            "grpId": 1114381859,
            "nextGrpId": 1114381860
        },
        {
            "index": 21,
            "grpId": 1114381860,
            "nextGrpId": 1114381861
        }
    ],
    "freeStyleDic": {
        "507": [
            10100,
            10101,
            10601,
            10201
        ]
    }
}