{
    "buttonSequence": [
        {
            "button": "Left_Down",
            "time": 8125
        },
        {
            "button": "Left_Down",
            "time": 9583
        },
        {
            "button": "Left_Down",
            "time": 10000,
            "LMLNLEPCEBB": true,
            "BJHLAHPEFDE": 830
        },
        {
            "button": "Left_Down",
            "time": 50833
        },
        {
            "button": "Left_Down",
            "time": 52916
        },
        {
            "button": "Left_Down",
            "time": 55833
        },
        {
            "button": "Left_Down",
            "time": 57291
        },
        {
            "button": "Left_Down",
            "time": 57708
        },
        {
            "button": "Left_Down",
            "time": 59583
        },
        {
            "button": "Left_Down",
            "time": 61875
        },
        {
            "button": "Left_Down",
            "time": 62291
        },
        {
            "button": "Left_Down",
            "time": 65416
        },
        {
            "button": "Left_Down",
            "time": 65833
        },
        {
            "button": "Left_Down",
            "time": 68541
        },
        {
            "button": "Left_Down",
            "time": 68750
        },
        {
            "button": "Left_Down",
            "time": 69166
        },
        {
            "button": "Left_Down",
            "time": 71875
        },
        {
            "button": "Left_Down",
            "time": 72083
        },
        {
            "button": "Left_Down",
            "time": 72500
        },
        {
            "button": "Left_Down",
            "time": 72708
        },
        {
            "button": "Left_Down",
            "time": 76666
        },
        {
            "button": "Left_Down",
            "time": 76875
        },
        {
            "button": "Left_Down",
            "time": 77500
        },
        {
            "button": "Left_Down",
            "time": 77708
        },
        {
            "button": "Left_Right",
            "time": 6250
        },
        {
            "button": "Left_Right",
            "time": 6666,
            "LMLNLEPCEBB": true,
            "BJHLAHPEFDE": 1041
        },
        {
            "button": "Left_Right",
            "time": 11666
        },
        {
            "button": "Left_Right",
            "time": 11875
        },
        {
            "button": "Left_Right",
            "time": 13333
        },
        {
            "button": "Left_Right",
            "time": 13541
        },
        {
            "button": "Left_Right",
            "time": 15000
        },
        {
            "button": "Left_Right",
            "time": 15208
        },
        {
            "button": "Left_Right",
            "time": 16666
        },
        {
            "button": "Left_Right",
            "time": 16875
        },
        {
            "button": "Left_Right",
            "time": 18333,
            "LMLNLEPCEBB": true,
            "BJHLAHPEFDE": 417
        },
        {
            "button": "Left_Right",
            "time": 19166,
            "LMLNLEPCEBB": true,
            "BJHLAHPEFDE": 834
        },
        {
            "button": "Left_Right",
            "time": 20833
        },
        {
            "button": "Left_Right",
            "time": 21041
        },
        {
            "button": "Left_Right",
            "time": 22083,
            "LMLNLEPCEBB": true,
            "BJHLAHPEFDE": 417
        },
        {
            "button": "Left_Right",
            "time": 23333
        },
        {
            "button": "Left_Right",
            "time": 23541
        },
        {
            "button": "Left_Right",
            "time": 24166
        },
        {
            "button": "Left_Right",
            "time": 24583
        },
        {
            "button": "Left_Right",
            "time": 25000,
            "LMLNLEPCEBB": true,
            "BJHLAHPEFDE": 416
        },
        {
            "button": "Left_Right",
            "time": 25833,
            "LMLNLEPCEBB": true,
            "BJHLAHPEFDE": 416
        },
        {
            "button": "Left_Right",
            "time": 28333
        },
        {
            "button": "Left_Right",
            "time": 28541
        },
        {
            "button": "Left_Right",
            "time": 29583,
            "LMLNLEPCEBB": true,
            "BJHLAHPEFDE": 417
        },
        {
            "button": "Left_Right",
            "time": 30416,
            "LMLNLEPCEBB": true,
            "BJHLAHPEFDE": 416
        },
        {
            "button": "Left_Right",
            "time": 31250,
            "LMLNLEPCEBB": true,
            "BJHLAHPEFDE": 1250
        },
        {
            "button": "Left_Right",
            "time": 32916,
            "LMLNLEPCEBB": true,
            "BJHLAHPEFDE": 1666
        },
        {
            "button": "Left_Right",
            "time": 35833
        },
        {
            "button": "Left_Right",
            "time": 37500
        },
        {
            "button": "Left_Right",
            "time": 37708
        },
        {
            "button": "Left_Right",
            "time": 38333,
            "LMLNLEPCEBB": true,
            "BJHLAHPEFDE": 416
        },
        {
            "button": "Left_Right",
            "time": 39166,
            "LMLNLEPCEBB": true,
            "BJHLAHPEFDE": 416
        },
        {
            "button": "Left_Right",
            "time": 41666
        },
        {
            "button": "Left_Right",
            "time": 41875
        },
        {
            "button": "Left_Right",
            "time": 42916,
            "LMLNLEPCEBB": true,
            "BJHLAHPEFDE": 417
        },
        {
            "button": "Left_Right",
            "time": 43750,
            "LMLNLEPCEBB": true,
            "BJHLAHPEFDE": 416
        },
        {
            "button": "Left_Right",
            "time": 44583,
            "LMLNLEPCEBB": true,
            "BJHLAHPEFDE": 1250
        },
        {
            "button": "Left_Right",
            "time": 46458,
            "LMLNLEPCEBB": true,
            "BJHLAHPEFDE": 625
        },
        {
            "button": "Left_Right",
            "time": 47500
        },
        {
            "button": "Left_Right",
            "time": 49166
        },
        {
            "button": "Left_Right",
            "time": 49375
        },
        {
            "button": "Left_Right",
            "time": 52500
        },
        {
            "button": "Left_Right",
            "time": 54166
        },
        {
            "button": "Left_Right",
            "time": 54791
        },
        {
            "button": "Left_Right",
            "time": 55416
        },
        {
            "button": "Left_Right",
            "time": 56458
        },
        {
            "button": "Left_Right",
            "time": 56875
        },
        {
            "button": "Left_Right",
            "time": 58125
        },
        {
            "button": "Left_Right",
            "time": 59166
        },
        {
            "button": "Left_Right",
            "time": 60833
        },
        {
            "button": "Left_Right",
            "time": 61458
        },
        {
            "button": "Left_Right",
            "time": 63125
        },
        {
            "button": "Left_Right",
            "time": 63750,
            "LMLNLEPCEBB": true,
            "BJHLAHPEFDE": 416
        },
        {
            "button": "Left_Right",
            "time": 65000
        },
        {
            "button": "Left_Right",
            "time": 66250
        },
        {
            "button": "Left_Right",
            "time": 68333
        },
        {
            "button": "Left_Right",
            "time": 69583
        },
        {
            "button": "Left_Right",
            "time": 71666
        },
        {
            "button": "Left_Right",
            "time": 72916
        },
        {
            "button": "Left_Right",
            "time": 75000
        },
        {
            "button": "Left_Right",
            "time": 75208
        },
        {
            "button": "Left_Right",
            "time": 75833
        },
        {
            "button": "Left_Right",
            "time": 76041
        },
        {
            "button": "Left_Right",
            "time": 78333,
            "LMLNLEPCEBB": true,
            "BJHLAHPEFDE": 3333
        },
        {
            "button": "Right_Left",
            "time": 5000,
            "LMLNLEPCEBB": true,
            "BJHLAHPEFDE": 1041
        },
        {
            "button": "Right_Left",
            "time": 6458
        },
        {
            "button": "Right_Left",
            "time": 12500
        },
        {
            "button": "Right_Left",
            "time": 12708
        },
        {
            "button": "Right_Left",
            "time": 14166
        },
        {
            "button": "Right_Left",
            "time": 14375
        },
        {
            "button": "Right_Left",
            "time": 15833
        },
        {
            "button": "Right_Left",
            "time": 16041
        },
        {
            "button": "Right_Left",
            "time": 17500
        },
        {
            "button": "Right_Left",
            "time": 17708
        },
        {
            "button": "Right_Left",
            "time": 18750,
            "LMLNLEPCEBB": true,
            "BJHLAHPEFDE": 416
        },
        {
            "button": "Right_Left",
            "time": 20000
        },
        {
            "button": "Right_Left",
            "time": 20208
        },
        {
            "button": "Right_Left",
            "time": 21666,
            "LMLNLEPCEBB": true,
            "BJHLAHPEFDE": 417
        },
        {
            "button": "Right_Left",
            "time": 22500,
            "LMLNLEPCEBB": true,
            "BJHLAHPEFDE": 833
        },
        {
            "button": "Right_Left",
            "time": 23958
        },
        {
            "button": "Right_Left",
            "time": 24375
        },
        {
            "button": "Right_Left",
            "time": 24791
        },
        {
            "button": "Right_Left",
            "time": 26666,
            "LMLNLEPCEBB": true,
            "BJHLAHPEFDE": 1250
        },
        {
            "button": "Right_Left",
            "time": 29166,
            "LMLNLEPCEBB": true,
            "BJHLAHPEFDE": 417
        },
        {
            "button": "Right_Left",
            "time": 30000,
            "LMLNLEPCEBB": true,
            "BJHLAHPEFDE": 416
        },
        {
            "button": "Right_Left",
            "time": 30833,
            "LMLNLEPCEBB": true,
            "BJHLAHPEFDE": 416
        },
        {
            "button": "Right_Left",
            "time": 31666,
            "LMLNLEPCEBB": true,
            "BJHLAHPEFDE": 833
        },
        {
            "button": "Right_Left",
            "time": 33333,
            "LMLNLEPCEBB": true,
            "BJHLAHPEFDE": 1250
        },
        {
            "button": "Right_Left",
            "time": 35000
        },
        {
            "button": "Right_Left",
            "time": 35208
        },
        {
            "button": "Right_Left",
            "time": 36666
        },
        {
            "button": "Right_Left",
            "time": 36875
        },
        {
            "button": "Right_Left",
            "time": 37916
        },
        {
            "button": "Right_Left",
            "time": 38125
        },
        {
            "button": "Right_Left",
            "time": 40000,
            "LMLNLEPCEBB": true,
            "BJHLAHPEFDE": 1250
        },
        {
            "button": "Right_Left",
            "time": 42500,
            "LMLNLEPCEBB": true,
            "BJHLAHPEFDE": 416
        },
        {
            "button": "Right_Left",
            "time": 43333,
            "LMLNLEPCEBB": true,
            "BJHLAHPEFDE": 416
        },
        {
            "button": "Right_Left",
            "time": 44166,
            "LMLNLEPCEBB": true,
            "BJHLAHPEFDE": 416
        },
        {
            "button": "Right_Left",
            "time": 45000,
            "LMLNLEPCEBB": true,
            "BJHLAHPEFDE": 833
        },
        {
            "button": "Right_Left",
            "time": 46666,
            "LMLNLEPCEBB": true,
            "BJHLAHPEFDE": 416
        },
        {
            "button": "Right_Left",
            "time": 47500
        },
        {
            "button": "Right_Left",
            "time": 48333
        },
        {
            "button": "Right_Left",
            "time": 48541
        },
        {
            "button": "Right_Left",
            "time": 50000
        },
        {
            "button": "Right_Left",
            "time": 50208
        },
        {
            "button": "Right_Left",
            "time": 51666
        },
        {
            "button": "Right_Left",
            "time": 53333
        },
        {
            "button": "Right_Left",
            "time": 54583
        },
        {
            "button": "Right_Left",
            "time": 55000
        },
        {
            "button": "Right_Left",
            "time": 56250
        },
        {
            "button": "Right_Left",
            "time": 56666
        },
        {
            "button": "Right_Left",
            "time": 57916
        },
        {
            "button": "Right_Left",
            "time": 60000
        },
        {
            "button": "Right_Left",
            "time": 61250
        },
        {
            "button": "Right_Left",
            "time": 62500
        },
        {
            "button": "Right_Left",
            "time": 62916
        },
        {
            "button": "Right_Left",
            "time": 63333,
            "LMLNLEPCEBB": true,
            "BJHLAHPEFDE": 416
        },
        {
            "button": "Right_Left",
            "time": 64166,
            "LMLNLEPCEBB": true,
            "BJHLAHPEFDE": 416
        },
        {
            "button": "Right_Left",
            "time": 66666
        },
        {
            "button": "Right_Left",
            "time": 67916
        },
        {
            "button": "Right_Left",
            "time": 70000
        },
        {
            "button": "Right_Left",
            "time": 71250
        },
        {
            "button": "Right_Left",
            "time": 73333
        },
        {
            "button": "Right_Left",
            "time": 74583
        },
        {
            "button": "Right_Left",
            "time": 75416
        },
        {
            "button": "Right_Left",
            "time": 75625
        },
        {
            "button": "Right_Left",
            "time": 76250
        },
        {
            "button": "Right_Left",
            "time": 76458
        },
        {
            "button": "Right_Left",
            "time": 80000,
            "LMLNLEPCEBB": true,
            "BJHLAHPEFDE": 1666
        },
        {
            "button": "Right_Down",
            "time": 7916
        },
        {
            "button": "Right_Down",
            "time": 8333,
            "LMLNLEPCEBB": true,
            "BJHLAHPEFDE": 1041
        },
        {
            "button": "Right_Down",
            "time": 9791
        },
        {
            "button": "Right_Down",
            "time": 10833
        },
        {
            "button": "Right_Down",
            "time": 50833
        },
        {
            "button": "Right_Down",
            "time": 52083
        },
        {
            "button": "Right_Down",
            "time": 53750
        },
        {
            "button": "Right_Down",
            "time": 57083
        },
        {
            "button": "Right_Down",
            "time": 57500
        },
        {
            "button": "Right_Down",
            "time": 60416
        },
        {
            "button": "Right_Down",
            "time": 61666
        },
        {
            "button": "Right_Down",
            "time": 62083
        },
        {
            "button": "Right_Down",
            "time": 67083
        },
        {
            "button": "Right_Down",
            "time": 67500
        },
        {
            "button": "Right_Down",
            "time": 70208
        },
        {
            "button": "Right_Down",
            "time": 70416
        },
        {
            "button": "Right_Down",
            "time": 70833
        },
        {
            "button": "Right_Down",
            "time": 73541
        },
        {
            "button": "Right_Down",
            "time": 73750
        },
        {
            "button": "Right_Down",
            "time": 74166
        },
        {
            "button": "Right_Down",
            "time": 74375
        },
        {
            "button": "Right_Down",
            "time": 77083
        },
        {
            "button": "Right_Down",
            "time": 77291
        },
        {
            "button": "Right_Down",
            "time": 77916
        },
        {
            "button": "Right_Down",
            "time": 78125
        }
    ],
    "instrument": -508589841,
    "playMusicEvent": {
        "text": "Play_ui_feedback_musicgame_char_leishen"
    },
    "stopMusicEvent": {
        "text": "Stop_ui_feedback_musicgame_char_leishen"
    },
    "pauseMusicEvent": {
        "text": "Pause_ui_feedback_musicgame_char_leishen"
    },
    "resumeMusicEvent": {
        "text": "Resume_ui_feedback_musicgame_char_leishen"
    },
    "DKCCJEGFKDB": {
        "text": "Play_ui_feedback_musicgame_char_leishen_show"
    },
    "DKGGAMFCNGI": {
        "text": "Stop_ui_feedback_musicgame_char_leishen_show"
    }
}