{
    "crowdSpawnInfos": [
        {
            "crowdTypeID": 159,
            "animConfigID": 1,
            "spawnPosition": {
                "x": -3109.884033203125,
                "y": 253.18890380859375,
                "z": -4451.98681640625
            },
            "spawnFaceFwd": {
                "x": 0.8824627995491028,
                "z": 0.4703822135925293
            },
            "hairColor": {
                "r": 0.4274509847164154,
                "g": 0.37254902720451355,
                "b": 0.3019607961177826,
                "a": 1.0
            },
            "bodyColors": [
                {
                    "r": 0.9058823585510254,
                    "g": 0.7882353067398071,
                    "b": 0.7333333492279053,
                    "a": 1.0
                },
                {
                    "r": 0.545098066329956,
                    "g": 0.3529411852359772,
                    "b": 0.37254902720451355,
                    "a": 1.0
                },
                {
                    "r": 0.7411764860153198,
                    "g": 0.686274528503418,
                    "b": 0.615686297416687,
                    "a": 1.0
                },
                {
                    "r": 0.3176470696926117,
                    "g": 0.2666666805744171,
                    "b": 0.23137255012989044,
                    "a": 1.0
                }
            ],
            "CEADMLBENDH": 160001
        },
        {
            "crowdTypeID": 147,
            "animConfigID": 1,
            "spawnPosition": {
                "x": -3108.694091796875,
                "y": 253.18890380859375,
                "z": -4451.3349609375
            },
            "spawnFaceFwd": {
                "x": -0.9296266436576843,
                "z": -0.3685028553009033
            },
            "hairColor": {
                "r": 0.4274509847164154,
                "g": 0.37254902720451355,
                "b": 0.3019607961177826,
                "a": 1.0
            },
            "bodyColors": [
                {
                    "r": 0.9333333373069763,
                    "g": 0.8666666746139526,
                    "b": 0.843137264251709,
                    "a": 1.0
                },
                {
                    "r": 0.545098066329956,
                    "g": 0.3529411852359772,
                    "b": 0.37254902720451355,
                    "a": 1.0
                },
                {
                    "r": 0.7411764860153198,
                    "g": 0.686274528503418,
                    "b": 0.615686297416687,
                    "a": 1.0
                },
                {
                    "r": 0.3176470696926117,
                    "g": 0.2666666805744171,
                    "b": 0.23137255012989044,
                    "a": 1.0
                }
            ],
            "CEADMLBENDH": 160002
        }
    ]
}