{
    "crowdSpawnInfos": [
        {
            "crowdTypeID": 136,
            "animConfigID": 1,
            "spawnPosition": {
                "x": -3028.2548828125,
                "y": 236.01040649414062,
                "z": -4436.6171875
            },
            "spawnFaceFwd": {
                "x": -0.45633232593536377,
                "z": -0.8898094892501831
            },
            "hairColor": {
                "r": 0.3960784375667572,
                "g": 0.27843138575553894,
                "b": 0.1882352977991104,
                "a": 1.0
            },
            "bodyColors": [
                {
                    "r": 0.9333333373069763,
                    "g": 0.8666666746139526,
                    "b": 0.843137264251709,
                    "a": 1.0
                },
                {
                    "r": 0.5529412031173706,
                    "g": 0.615686297416687,
                    "b": 0.7137255072593689,
                    "a": 1.0
                },
                {
                    "r": 0.250980406999588,
                    "g": 0.2549019753932953,
                    "b": 0.32156863808631897,
                    "a": 1.0
                },
                {
                    "r": 0.5607843399047852,
                    "g": 0.4941176474094391,
                    "b": 0.4313725531101227,
                    "a": 1.0
                }
            ],
            "CEADMLBENDH": 190001
        },
        {
            "crowdTypeID": 153,
            "spawnPosition": {
                "x": -3027.56396484375,
                "y": 236.01040649414062,
                "z": -4437.328125
            },
            "spawnFaceFwd": {
                "x": -0.8154199719429016,
                "z": -0.5788697004318237
            },
            "hairColor": {
                "r": 0.29019609093666077,
                "g": 0.3176470696926117,
                "b": 0.3529411852359772,
                "a": 1.0
            },
            "bodyColors": [
                {
                    "r": 0.9058823585510254,
                    "g": 0.7882353067398071,
                    "b": 0.7333333492279053,
                    "a": 1.0
                },
                {
                    "r": 0.7450980544090271,
                    "g": 0.6941176652908325,
                    "b": 0.6431372761726379,
                    "a": 1.0
                },
                {
                    "r": 0.34117648005485535,
                    "g": 0.2666666805744171,
                    "b": 0.24705882370471954,
                    "a": 1.0
                },
                {
                    "r": 0.48627451062202454,
                    "g": 0.38823530077934265,
                    "b": 0.3019607961177826,
                    "a": 1.0
                }
            ],
            "CEADMLBENDH": 190002
        },
        {
            "crowdTypeID": 164,
            "spawnPosition": {
                "x": -3020.222900390625,
                "y": 236.01040649414062,
                "z": -4441.42919921875
            },
            "spawnFaceFwd": {
                "x": -0.9976667165756226,
                "z": -0.06827139854431152
            },
            "hairColor": {
                "r": 0.25882354378700256,
                "g": 0.25882354378700256,
                "b": 0.25882354378700256,
                "a": 1.0
            },
            "bodyColors": [
                {
                    "r": 1.0,
                    "g": 1.0,
                    "b": 1.0,
                    "a": 1.0
                },
                {
                    "r": 1.0,
                    "g": 1.0,
                    "b": 1.0,
                    "a": 1.0
                },
                {
                    "r": 1.0,
                    "g": 1.0,
                    "b": 1.0,
                    "a": 1.0
                },
                {
                    "r": 1.0,
                    "g": 1.0,
                    "b": 1.0,
                    "a": 1.0
                }
            ],
            "CEADMLBENDH": 190005
        },
        {
            "crowdTypeID": 134,
            "spawnPosition": {
                "x": -3027.366943359375,
                "y": 236.01040649414062,
                "z": -4432.52685546875
            },
            "spawnFaceFwd": {
                "x": -0.3329050838947296,
                "z": -0.9429603815078735
            },
            "hairColor": {
                "r": 0.29019609093666077,
                "g": 0.3176470696926117,
                "b": 0.3529411852359772,
                "a": 1.0
            },
            "bodyColors": [
                {
                    "r": 1.0,
                    "g": 1.0,
                    "b": 1.0,
                    "a": 1.0
                },
                {
                    "r": 1.0,
                    "g": 1.0,
                    "b": 1.0,
                    "a": 1.0
                },
                {
                    "r": 1.0,
                    "g": 1.0,
                    "b": 1.0,
                    "a": 1.0
                },
                {
                    "r": 1.0,
                    "g": 1.0,
                    "b": 1.0,
                    "a": 1.0
                }
            ],
            "CEADMLBENDH": 190006
        }
    ]
}