{
    "crowdSpawnInfos": [
        {
            "crowdTypeID": 134,
            "spawnPosition": {
                "x": -3966.43798828125,
                "y": 200.4185028076172,
                "z": -2915.597900390625
            },
            "spawnFaceFwd": {
                "x": 0.16436250507831573,
                "z": -0.9864000082015991
            },
            "hairColor": {
                "r": 0.5,
                "g": 0.5,
                "b": 0.5,
                "a": 1.0
            },
            "bodyColors": [
                {
                    "r": 1.0,
                    "g": 1.0,
                    "b": 1.0,
                    "a": 1.0
                },
                {
                    "r": 1.0,
                    "g": 1.0,
                    "b": 1.0,
                    "a": 1.0
                },
                {
                    "r": 1.0,
                    "g": 1.0,
                    "b": 1.0,
                    "a": 1.0
                },
                {
                    "r": 1.0,
                    "g": 1.0,
                    "b": 1.0,
                    "a": 1.0
                }
            ],
            "CEADMLBENDH": 20001
        },
        {
            "crowdTypeID": 134,
            "spawnPosition": {
                "x": -3961.887939453125,
                "y": 200.4185028076172,
                "z": -2916.135986328125
            },
            "spawnFaceFwd": {
                "x": -0.16086483001708984,
                "z": -0.9869763851165771
            },
            "hairColor": {
                "r": 0.5,
                "g": 0.5,
                "b": 0.5,
                "a": 1.0
            },
            "bodyColors": [
                {
                    "r": 1.0,
                    "g": 1.0,
                    "b": 1.0,
                    "a": 1.0
                },
                {
                    "r": 1.0,
                    "g": 1.0,
                    "b": 1.0,
                    "a": 1.0
                },
                {
                    "r": 1.0,
                    "g": 1.0,
                    "b": 1.0,
                    "a": 1.0
                },
                {
                    "r": 1.0,
                    "g": 1.0,
                    "b": 1.0,
                    "a": 1.0
                }
            ],
            "CEADMLBENDH": 20002
        },
        {
            "crowdTypeID": 134,
            "spawnPosition": {
                "x": -3957.304931640625,
                "y": 200.4185028076172,
                "z": -2916.89501953125
            },
            "spawnFaceFwd": {
                "x": 0.25449231266975403,
                "z": -0.9670748710632324
            },
            "hairColor": {
                "r": 0.5,
                "g": 0.5,
                "b": 0.5,
                "a": 1.0
            },
            "bodyColors": [
                {
                    "r": 1.0,
                    "g": 1.0,
                    "b": 1.0,
                    "a": 1.0
                },
                {
                    "r": 1.0,
                    "g": 1.0,
                    "b": 1.0,
                    "a": 1.0
                },
                {
                    "r": 1.0,
                    "g": 1.0,
                    "b": 1.0,
                    "a": 1.0
                },
                {
                    "r": 1.0,
                    "g": 1.0,
                    "b": 1.0,
                    "a": 1.0
                }
            ],
            "CEADMLBENDH": 20003
        },
        {
            "crowdTypeID": 134,
            "spawnPosition": {
                "x": -3952.972900390625,
                "y": 200.4185028076172,
                "z": -2916.090087890625
            },
            "spawnFaceFwd": {
                "x": -0.1383986622095108,
                "z": -0.9903765916824341
            },
            "hairColor": {
                "r": 0.5,
                "g": 0.5,
                "b": 0.5,
                "a": 1.0
            },
            "bodyColors": [
                {
                    "r": 1.0,
                    "g": 1.0,
                    "b": 1.0,
                    "a": 1.0
                },
                {
                    "r": 1.0,
                    "g": 1.0,
                    "b": 1.0,
                    "a": 1.0
                },
                {
                    "r": 1.0,
                    "g": 1.0,
                    "b": 1.0,
                    "a": 1.0
                },
                {
                    "r": 1.0,
                    "g": 1.0,
                    "b": 1.0,
                    "a": 1.0
                }
            ],
            "CEADMLBENDH": 20004
        },
        {
            "crowdTypeID": 135,
            "spawnPosition": {
                "x": -3951.72705078125,
                "y": 200.4185028076172,
                "z": -2886.9970703125
            },
            "spawnFaceFwd": {
                "x": -0.4966651499271393,
                "z": 0.867942214012146
            },
            "hairColor": {
                "r": 0.5,
                "g": 0.5,
                "b": 0.5,
                "a": 1.0
            },
            "bodyColors": [
                {
                    "r": 1.0,
                    "g": 1.0,
                    "b": 1.0,
                    "a": 1.0
                },
                {
                    "r": 1.0,
                    "g": 1.0,
                    "b": 1.0,
                    "a": 1.0
                },
                {
                    "r": 1.0,
                    "g": 1.0,
                    "b": 1.0,
                    "a": 1.0
                },
                {
                    "r": 1.0,
                    "g": 1.0,
                    "b": 1.0,
                    "a": 1.0
                }
            ],
            "CEADMLBENDH": 20005
        },
        {
            "crowdTypeID": 135,
            "spawnPosition": {
                "x": -3954.47802734375,
                "y": 200.40789794921875,
                "z": -2887.324951171875
            },
            "spawnFaceFwd": {
                "z": 1.0
            },
            "hairColor": {
                "r": 0.5,
                "g": 0.5,
                "b": 0.5,
                "a": 1.0
            },
            "bodyColors": [
                {
                    "r": 1.0,
                    "g": 1.0,
                    "b": 1.0,
                    "a": 1.0
                },
                {
                    "r": 1.0,
                    "g": 1.0,
                    "b": 1.0,
                    "a": 1.0
                },
                {
                    "r": 1.0,
                    "g": 1.0,
                    "b": 1.0,
                    "a": 1.0
                },
                {
                    "r": 1.0,
                    "g": 1.0,
                    "b": 1.0,
                    "a": 1.0
                }
            ],
            "CEADMLBENDH": 20006
        },
        {
            "crowdTypeID": 135,
            "spawnPosition": {
                "x": -3962.845947265625,
                "y": 200.41749572753906,
                "z": -2887.97900390625
            },
            "spawnFaceFwd": {
                "x": -0.2070889174938202,
                "z": 0.9783221483230591
            },
            "hairColor": {
                "r": 0.5,
                "g": 0.5,
                "b": 0.5,
                "a": 1.0
            },
            "bodyColors": [
                {
                    "r": 1.0,
                    "g": 1.0,
                    "b": 1.0,
                    "a": 1.0
                },
                {
                    "r": 1.0,
                    "g": 1.0,
                    "b": 1.0,
                    "a": 1.0
                },
                {
                    "r": 1.0,
                    "g": 1.0,
                    "b": 1.0,
                    "a": 1.0
                },
                {
                    "r": 1.0,
                    "g": 1.0,
                    "b": 1.0,
                    "a": 1.0
                }
            ],
            "CEADMLBENDH": 20007
        },
        {
            "crowdTypeID": 135,
            "spawnPosition": {
                "x": -3965.593994140625,
                "y": 200.4167022705078,
                "z": -2887.944091796875
            },
            "spawnFaceFwd": {
                "x": 0.3173973262310028,
                "z": 0.94829261302948
            },
            "hairColor": {
                "r": 0.5,
                "g": 0.5,
                "b": 0.5,
                "a": 1.0
            },
            "bodyColors": [
                {
                    "r": 1.0,
                    "g": 1.0,
                    "b": 1.0,
                    "a": 1.0
                },
                {
                    "r": 1.0,
                    "g": 1.0,
                    "b": 1.0,
                    "a": 1.0
                },
                {
                    "r": 1.0,
                    "g": 1.0,
                    "b": 1.0,
                    "a": 1.0
                },
                {
                    "r": 1.0,
                    "g": 1.0,
                    "b": 1.0,
                    "a": 1.0
                }
            ],
            "CEADMLBENDH": 20008
        }
    ]
}