{
    "crowdSpawnInfos": [
        {
            "crowdTypeID": 63,
            "animConfigID": 2,
            "spawnPosition": {
                "x": -403.8584899902344,
                "y": 207.54469299316406,
                "z": -1142.2359619140625
            },
            "spawnFaceFwd": {
                "x": -0.19372116029262543,
                "z": 0.9810566306114197
            },
            "hairColor": {
                "r": 0.32156863808631897,
                "g": 0.21568627655506134,
                "b": 0.18039216101169586,
                "a": 1.0
            },
            "bodyColors": [
                {
                    "r": 0.7921568751335144,
                    "g": 0.6549019813537598,
                    "b": 0.5843137502670288,
                    "a": 1.0
                },
                {
                    "r": 0.6470588445663452,
                    "g": 0.6470588445663452,
                    "b": 0.6470588445663452,
                    "a": 1.0
                },
                {
                    "r": 0.2666666805744171,
                    "g": 0.29411765933036804,
                    "b": 0.3019607961177826,
                    "a": 1.0
                },
                {
                    "r": 0.4941176474094391,
                    "g": 0.2980392277240753,
                    "b": 0.2980392277240753,
                    "a": 1.0
                }
            ],
            "CEADMLBENDH": 40001
        },
        {
            "crowdTypeID": 73,
            "animConfigID": 4,
            "spawnPosition": {
                "x": -404.65740966796875,
                "y": 207.589599609375,
                "z": -1142.0469970703125
            },
            "spawnFaceFwd": {
                "x": 0.08246033638715744,
                "z": 0.9965943694114685
            },
            "hairColor": {
                "r": 0.29019609093666077,
                "g": 0.3176470696926117,
                "b": 0.3529411852359772,
                "a": 1.0
            },
            "bodyColors": [
                {
                    "r": 0.9058823585510254,
                    "g": 0.7882353067398071,
                    "b": 0.7333333492279053,
                    "a": 1.0
                },
                {
                    "r": 0.6470588445663452,
                    "g": 0.6470588445663452,
                    "b": 0.6470588445663452,
                    "a": 1.0
                },
                {
                    "r": 0.2666666805744171,
                    "g": 0.29411765933036804,
                    "b": 0.3019607961177826,
                    "a": 1.0
                },
                {
                    "r": 0.4941176474094391,
                    "g": 0.2980392277240753,
                    "b": 0.2980392277240753,
                    "a": 1.0
                }
            ],
            "CEADMLBENDH": 40002
        },
        {
            "crowdTypeID": 77,
            "spawnPosition": {
                "x": -405.4093933105469,
                "y": 207.589599609375,
                "z": -1141.5140380859375
            },
            "spawnFaceFwd": {
                "x": 0.4075337052345276,
                "z": 0.9131901860237122
            },
            "hairColor": {
                "r": 0.29019609093666077,
                "g": 0.3176470696926117,
                "b": 0.3529411852359772,
                "a": 1.0
            },
            "bodyColors": [
                {
                    "r": 0.9058823585510254,
                    "g": 0.7882353067398071,
                    "b": 0.7333333492279053,
                    "a": 1.0
                },
                {
                    "r": 0.6470588445663452,
                    "g": 0.6470588445663452,
                    "b": 0.6470588445663452,
                    "a": 1.0
                },
                {
                    "r": 0.2666666805744171,
                    "g": 0.29411765933036804,
                    "b": 0.3019607961177826,
                    "a": 1.0
                },
                {
                    "r": 0.4941176474094391,
                    "g": 0.2980392277240753,
                    "b": 0.2980392277240753,
                    "a": 1.0
                }
            ],
            "CEADMLBENDH": 40003
        }
    ]
}