{
    "crowdSpawnInfos": [
        {
            "crowdTypeID": 130,
            "spawnPosition": {
                "x": -2567.8291015625,
                "y": 214.2126007080078,
                "z": -3842.447021484375
            },
            "spawnFaceFwd": {
                "x": -0.8731867671012878,
                "z": -0.487385630607605
            },
            "hairColor": {
                "r": 0.8392156958580017,
                "g": 0.8392156958580017,
                "b": 0.8392156958580017,
                "a": 1.0
            },
            "bodyColors": [
                {
                    "r": 0.9058823585510254,
                    "g": 0.7882353067398071,
                    "b": 0.7333333492279053,
                    "a": 1.0
                },
                {
                    "r": 0.5372549295425415,
                    "g": 0.364705890417099,
                    "b": 0.34117648005485535,
                    "a": 1.0
                },
                {
                    "r": 0.5372549295425415,
                    "g": 0.364705890417099,
                    "b": 0.34117648005485535,
                    "a": 1.0
                },
                {
                    "r": 0.26274511218070984,
                    "g": 0.2078431397676468,
                    "b": 0.18039216101169586,
                    "a": 1.0
                }
            ],
            "CEADMLBENDH": 40001
        },
        {
            "crowdTypeID": 146,
            "spawnPosition": {
                "x": -2568.9541015625,
                "y": 214.2126007080078,
                "z": -3843.77197265625
            },
            "spawnFaceFwd": {
                "x": 0.5603383183479309,
                "z": 0.8282638192176819
            },
            "hairColor": {
                "r": 0.29019609093666077,
                "g": 0.3176470696926117,
                "b": 0.3529411852359772,
                "a": 1.0
            },
            "bodyColors": [
                {
                    "r": 0.9333333373069763,
                    "g": 0.8666666746139526,
                    "b": 0.843137264251709,
                    "a": 1.0
                },
                {
                    "r": 0.7450980544090271,
                    "g": 0.6941176652908325,
                    "b": 0.6431372761726379,
                    "a": 1.0
                },
                {
                    "r": 0.34117648005485535,
                    "g": 0.2666666805744171,
                    "b": 0.24705882370471954,
                    "a": 1.0
                },
                {
                    "r": 0.48627451062202454,
                    "g": 0.38823530077934265,
                    "b": 0.3019607961177826,
                    "a": 1.0
                }
            ],
            "CEADMLBENDH": 40002
        },
        {
            "crowdTypeID": 127,
            "spawnPosition": {
                "x": -2569.5458984375,
                "y": 214.2126007080078,
                "z": -3843.071044921875
            },
            "spawnFaceFwd": {
                "x": 0.868659257888794,
                "z": 0.49541008472442627
            },
            "hairColor": {
                "r": 0.29019609093666077,
                "g": 0.3176470696926117,
                "b": 0.3529411852359772,
                "a": 1.0
            },
            "bodyColors": [
                {
                    "r": 0.9333333373069763,
                    "g": 0.8666666746139526,
                    "b": 0.843137264251709,
                    "a": 1.0
                },
                {
                    "r": 0.250980406999588,
                    "g": 0.2549019753932953,
                    "b": 0.32156863808631897,
                    "a": 1.0
                },
                {
                    "r": 0.5529412031173706,
                    "g": 0.615686297416687,
                    "b": 0.7137255072593689,
                    "a": 1.0
                },
                {
                    "r": 0.5607843399047852,
                    "g": 0.4941176474094391,
                    "b": 0.4313725531101227,
                    "a": 1.0
                }
            ],
            "CEADMLBENDH": 40003
        },
        {
            "crowdTypeID": 136,
            "spawnPosition": {
                "x": -2607.27099609375,
                "y": 208.52769470214844,
                "z": -3806.22607421875
            },
            "spawnFaceFwd": {
                "x": -0.40385377407073975,
                "z": 0.9148235321044922
            },
            "hairColor": {
                "r": 0.32156863808631897,
                "g": 0.21568627655506134,
                "b": 0.18039216101169586,
                "a": 1.0
            },
            "bodyColors": [
                {
                    "r": 0.9333333373069763,
                    "g": 0.8666666746139526,
                    "b": 0.843137264251709,
                    "a": 1.0
                },
                {
                    "r": 0.5803921818733215,
                    "g": 0.5803921818733215,
                    "b": 0.48627451062202454,
                    "a": 1.0
                },
                {
                    "r": 0.35686275362968445,
                    "g": 0.29411765933036804,
                    "b": 0.239215686917305,
                    "a": 1.0
                },
                {
                    "r": 0.2980392277240753,
                    "g": 0.2823529541492462,
                    "b": 0.27843138575553894,
                    "a": 1.0
                }
            ],
            "CEADMLBENDH": 40004
        },
        {
            "crowdTypeID": 128,
            "spawnPosition": {
                "x": -2607.5458984375,
                "y": 208.56190490722656,
                "z": -3804.013916015625
            },
            "spawnFaceFwd": {
                "x": -0.8110464811325073,
                "z": -0.5849815607070923
            },
            "hairColor": {
                "r": 0.32156863808631897,
                "g": 0.21568627655506134,
                "b": 0.18039216101169586,
                "a": 1.0
            },
            "bodyColors": [
                {
                    "r": 0.9333333373069763,
                    "g": 0.8666666746139526,
                    "b": 0.843137264251709,
                    "a": 1.0
                },
                {
                    "r": 0.7450980544090271,
                    "g": 0.6941176652908325,
                    "b": 0.6431372761726379,
                    "a": 1.0
                },
                {
                    "r": 0.34117648005485535,
                    "g": 0.2666666805744171,
                    "b": 0.24705882370471954,
                    "a": 1.0
                },
                {
                    "r": 0.48627451062202454,
                    "g": 0.38823530077934265,
                    "b": 0.3019607961177826,
                    "a": 1.0
                }
            ],
            "CEADMLBENDH": 40005
        },
        {
            "crowdTypeID": 127,
            "spawnPosition": {
                "x": -2607.176025390625,
                "y": 208.52769470214844,
                "z": -3804.537109375
            },
            "spawnFaceFwd": {
                "x": -0.9999328851699829,
                "z": 0.011584997177124023
            },
            "hairColor": {
                "r": 0.25882354378700256,
                "g": 0.25882354378700256,
                "b": 0.25882354378700256,
                "a": 1.0
            },
            "bodyColors": [
                {
                    "r": 0.9333333373069763,
                    "g": 0.8666666746139526,
                    "b": 0.843137264251709,
                    "a": 1.0
                },
                {
                    "r": 0.4156862795352936,
                    "g": 0.45490196347236633,
                    "b": 0.4745098054409027,
                    "a": 1.0
                },
                {
                    "r": 0.6352941393852234,
                    "g": 0.6117647290229797,
                    "b": 0.5921568870544434,
                    "a": 1.0
                },
                {
                    "r": 0.2980392277240753,
                    "g": 0.27450981736183167,
                    "b": 0.25882354378700256,
                    "a": 1.0
                }
            ],
            "CEADMLBENDH": 40006
        },
        {
            "crowdTypeID": 103,
            "spawnPosition": {
                "x": -2581.27001953125,
                "y": 210.877197265625,
                "z": -3789.239990234375
            },
            "spawnFaceFwd": {
                "x": -0.37468579411506653,
                "z": -0.9271519184112549
            },
            "hairColor": {
                "r": 0.4274509847164154,
                "g": 0.37254902720451355,
                "b": 0.3019607961177826,
                "a": 1.0
            },
            "bodyColors": [
                {
                    "r": 0.9333333373069763,
                    "g": 0.8666666746139526,
                    "b": 0.843137264251709,
                    "a": 1.0
                },
                {
                    "r": 0.3686274588108063,
                    "g": 0.24313725531101227,
                    "b": 0.24313725531101227,
                    "a": 1.0
                },
                {
                    "r": 0.8235294222831726,
                    "g": 0.8235294222831726,
                    "b": 0.8235294222831726,
                    "a": 1.0
                },
                {
                    "r": 0.3686274588108063,
                    "g": 0.24313725531101227,
                    "b": 0.24313725531101227,
                    "a": 1.0
                }
            ],
            "CEADMLBENDH": 40007
        },
        {
            "crowdTypeID": 112,
            "spawnPosition": {
                "x": -2580.97509765625,
                "y": 210.877197265625,
                "z": -3790.10009765625
            },
            "spawnFaceFwd": {
                "x": -0.85349440574646,
                "z": 0.5211019515991211
            },
            "hairColor": {
                "r": 0.5215686559677124,
                "g": 0.40392157435417175,
                "b": 0.2549019753932953,
                "a": 1.0
            },
            "bodyColors": [
                {
                    "r": 0.9058823585510254,
                    "g": 0.7882353067398071,
                    "b": 0.7333333492279053,
                    "a": 1.0
                },
                {
                    "r": 0.3686274588108063,
                    "g": 0.24313725531101227,
                    "b": 0.24313725531101227,
                    "a": 1.0
                },
                {
                    "r": 0.4431372582912445,
                    "g": 0.3960784375667572,
                    "b": 0.4941176474094391,
                    "a": 1.0
                },
                {
                    "r": 0.8235294222831726,
                    "g": 0.8235294222831726,
                    "b": 0.8235294222831726,
                    "a": 1.0
                }
            ],
            "CEADMLBENDH": 40008
        },
        {
            "crowdTypeID": 148,
            "animConfigID": 9,
            "spawnPosition": {
                "x": -2591.85009765625,
                "y": 211.1300048828125,
                "z": -3806.330078125
            },
            "spawnFaceFwd": {
                "z": 1.0
            },
            "hairColor": {
                "r": 0.25882354378700256,
                "g": 0.25882354378700256,
                "b": 0.25882354378700256,
                "a": 1.0
            },
            "bodyColors": [
                {
                    "r": 0.9058823585510254,
                    "g": 0.7882353067398071,
                    "b": 0.7333333492279053,
                    "a": 1.0
                },
                {
                    "r": 0.2549019753932953,
                    "g": 0.30980393290519714,
                    "b": 0.3921568691730499,
                    "a": 1.0
                },
                {
                    "r": 0.6313725709915161,
                    "g": 0.6274510025978088,
                    "b": 0.658823549747467,
                    "a": 1.0
                },
                {
                    "r": 0.34117648005485535,
                    "g": 0.3529411852359772,
                    "b": 0.4000000059604645,
                    "a": 1.0
                }
            ],
            "CEADMLBENDH": 40009
        },
        {
            "crowdTypeID": 137,
            "spawnPosition": {
                "x": -2591.176025390625,
                "y": 211.1300048828125,
                "z": -3805.76904296875
            },
            "spawnFaceFwd": {
                "x": -0.888207197189331,
                "z": -0.45944344997406006
            },
            "hairColor": {
                "r": 0.32156863808631897,
                "g": 0.21568627655506134,
                "b": 0.18039216101169586,
                "a": 1.0
            },
            "bodyColors": [
                {
                    "r": 0.9333333373069763,
                    "g": 0.8666666746139526,
                    "b": 0.843137264251709,
                    "a": 1.0
                },
                {
                    "r": 0.45098039507865906,
                    "g": 0.3843137323856354,
                    "b": 0.34117648005485535,
                    "a": 1.0
                },
                {
                    "r": 0.239215686917305,
                    "g": 0.2549019753932953,
                    "b": 0.3294117748737335,
                    "a": 1.0
                },
                {
                    "r": 0.4117647111415863,
                    "g": 0.40392157435417175,
                    "b": 0.4274509847164154,
                    "a": 1.0
                }
            ],
            "CEADMLBENDH": 40010
        }
    ]
}