{
    "crowdSpawnInfos": [
        {
            "crowdTypeID": 85,
            "animConfigID": 1,
            "spawnPosition": {
                "x": -294.5683898925781,
                "y": 200.0,
                "z": -651.75537109375
            },
            "spawnFaceFwd": {
                "x": -0.933603048324585,
                "z": 0.3583090305328369
            },
            "hairColor": {
                "r": 0.3960784375667572,
                "g": 0.27843138575553894,
                "b": 0.1882352977991104,
                "a": 1.0
            },
            "bodyColors": [
                {
                    "r": 0.9333333373069763,
                    "g": 0.8666666746139526,
                    "b": 0.843137264251709,
                    "a": 1.0
                },
                {
                    "r": 0.2235294133424759,
                    "g": 0.2705882489681244,
                    "b": 0.3607843220233917,
                    "a": 1.0
                },
                {
                    "r": 0.5686274766921997,
                    "g": 0.572549045085907,
                    "b": 0.6117647290229797,
                    "a": 1.0
                },
                {
                    "r": 0.3137255012989044,
                    "g": 0.38823530077934265,
                    "b": 0.47843137383461,
                    "a": 1.0
                }
            ],
            "CEADMLBENDH": 80001
        },
        {
            "crowdTypeID": 90,
            "animConfigID": 1,
            "spawnPosition": {
                "x": -295.9526062011719,
                "y": 200.0,
                "z": -651.3787231445312
            },
            "spawnFaceFwd": {
                "x": 0.9501115083694458,
                "z": -0.31191039085388184
            },
            "hairColor": {
                "r": 0.8392156958580017,
                "g": 0.8392156958580017,
                "b": 0.8392156958580017,
                "a": 1.0
            },
            "bodyColors": [
                {
                    "r": 0.9333333373069763,
                    "g": 0.8666666746139526,
                    "b": 0.843137264251709,
                    "a": 1.0
                },
                {
                    "r": 0.4117647111415863,
                    "g": 0.35686275362968445,
                    "b": 0.3960784375667572,
                    "a": 1.0
                },
                {
                    "r": 0.5647059082984924,
                    "g": 0.5490196347236633,
                    "b": 0.5607843399047852,
                    "a": 1.0
                },
                {
                    "r": 0.2666666805744171,
                    "g": 0.2078431397676468,
                    "b": 0.23529411852359772,
                    "a": 1.0
                }
            ],
            "CEADMLBENDH": 80002
        },
        {
            "crowdTypeID": 65,
            "animConfigID": 2,
            "spawnPosition": {
                "x": -297.4710998535156,
                "y": 200.0865020751953,
                "z": -663.2407836914062
            },
            "spawnFaceFwd": {
                "x": -0.6120420694351196,
                "z": 0.7908251881599426
            },
            "hairColor": {
                "r": 0.25882354378700256,
                "g": 0.25882354378700256,
                "b": 0.25882354378700256,
                "a": 1.0
            },
            "bodyColors": [
                {
                    "r": 0.9333333373069763,
                    "g": 0.8666666746139526,
                    "b": 0.843137264251709,
                    "a": 1.0
                },
                {
                    "r": 0.42352941632270813,
                    "g": 0.4627451002597809,
                    "b": 0.5647059082984924,
                    "a": 1.0
                },
                {
                    "r": 0.6745098233222961,
                    "g": 0.6666666865348816,
                    "b": 0.6549019813537598,
                    "a": 1.0
                },
                {
                    "r": 0.2980392277240753,
                    "g": 0.27843138575553894,
                    "b": 0.3176470696926117,
                    "a": 1.0
                }
            ],
            "CEADMLBENDH": 80004
        }
    ]
}