{
    "crowdSpawnInfos": [
        {
            "crowdTypeID": 281,
            "spawnPosition": {
                "x": -2016.06103515625,
                "y": 201.18299865722656,
                "z": 2484.8369140625
            },
            "spawnFaceFwd": {
                "x": -0.9481340050697327,
                "z": 0.3178709149360657
            },
            "hairColor": {
                "r": 0.32156863808631897,
                "g": 0.21568627655506134,
                "b": 0.18039216101169586,
                "a": 1.0
            },
            "bodyColors": [
                {
                    "r": 0.7921568751335144,
                    "g": 0.6549019813537598,
                    "b": 0.5843137502670288,
                    "a": 1.0
                },
                {
                    "r": 0.3686274588108063,
                    "g": 0.4588235318660736,
                    "b": 0.3294117748737335,
                    "a": 1.0
                },
                {
                    "r": 0.33725491166114807,
                    "g": 0.3019607961177826,
                    "b": 0.09019608050584793,
                    "a": 1.0
                },
                {
                    "r": 0.729411780834198,
                    "g": 0.7372549176216125,
                    "b": 0.5921568870544434,
                    "a": 1.0
                }
            ],
            "CEADMLBENDH": 10008
        },
        {
            "crowdTypeID": 301,
            "spawnPosition": {
                "x": -2017.5,
                "y": 201.18299865722656,
                "z": 2485.39599609375
            },
            "spawnFaceFwd": {
                "x": 0.9631057977676392,
                "z": -0.2691233158111572
            },
            "hairColor": {
                "r": 0.25882354378700256,
                "g": 0.25882354378700256,
                "b": 0.25882354378700256,
                "a": 1.0
            },
            "bodyColors": [
                {
                    "r": 0.7921568751335144,
                    "g": 0.6549019813537598,
                    "b": 0.5843137502670288,
                    "a": 1.0
                },
                {
                    "r": 0.7803921699523926,
                    "g": 0.7215686440467834,
                    "b": 0.6666666865348816,
                    "a": 1.0
                },
                {
                    "r": 0.3490196168422699,
                    "g": 0.25882354378700256,
                    "b": 0.20392157137393951,
                    "a": 1.0
                },
                {
                    "r": 0.572549045085907,
                    "g": 0.4000000059604645,
                    "b": 0.25882354378700256,
                    "a": 1.0
                }
            ],
            "CEADMLBENDH": 10009
        },
        {
            "crowdTypeID": 289,
            "spawnPosition": {
                "x": -2026.54296875,
                "y": 201.39450073242188,
                "z": 2445.48388671875
            },
            "spawnFaceFwd": {
                "x": -0.29592517018318176,
                "z": 0.9552111029624939
            },
            "hairColor": {
                "r": 0.25882354378700256,
                "g": 0.25882354378700256,
                "b": 0.25882354378700256,
                "a": 1.0
            },
            "bodyColors": [
                {
                    "r": 0.9058823585510254,
                    "g": 0.7882353067398071,
                    "b": 0.7333333492279053,
                    "a": 1.0
                },
                {
                    "r": 0.3686274588108063,
                    "g": 0.4588235318660736,
                    "b": 0.3294117748737335,
                    "a": 1.0
                },
                {
                    "r": 0.33725491166114807,
                    "g": 0.3019607961177826,
                    "b": 0.09019608050584793,
                    "a": 1.0
                },
                {
                    "r": 0.729411780834198,
                    "g": 0.7372549176216125,
                    "b": 0.5921568870544434,
                    "a": 1.0
                }
            ],
            "CEADMLBENDH": 10010
        },
        {
            "crowdTypeID": 301,
            "spawnPosition": {
                "x": -2027.0040283203125,
                "y": 201.389892578125,
                "z": 2446.781005859375
            },
            "spawnFaceFwd": {
                "x": 0.4756779372692108,
                "z": -0.8796194791793823
            },
            "hairColor": {
                "r": 0.32156863808631897,
                "g": 0.21568627655506134,
                "b": 0.18039216101169586,
                "a": 1.0
            },
            "bodyColors": [
                {
                    "r": 0.9058823585510254,
                    "g": 0.7882353067398071,
                    "b": 0.7333333492279053,
                    "a": 1.0
                },
                {
                    "r": 0.38823530077934265,
                    "g": 0.46666666865348816,
                    "b": 0.5490196347236633,
                    "a": 1.0
                },
                {
                    "r": 0.8117647171020508,
                    "g": 0.8078431487083435,
                    "b": 0.7960784435272217,
                    "a": 1.0
                },
                {
                    "r": 0.7098039388656616,
                    "g": 0.5686274766921997,
                    "b": 0.32549020648002625,
                    "a": 1.0
                }
            ],
            "CEADMLBENDH": 10011
        },
        {
            "crowdTypeID": 302,
            "spawnPosition": {
                "x": -1996.3470458984375,
                "y": 200.581298828125,
                "z": 2488.424072265625
            },
            "spawnFaceFwd": {
                "x": -0.4388602077960968,
                "z": 0.898555338382721
            },
            "hairColor": {
                "r": 0.25882354378700256,
                "g": 0.25882354378700256,
                "b": 0.25882354378700256,
                "a": 1.0
            },
            "bodyColors": [
                {
                    "r": 0.7921568751335144,
                    "g": 0.6549019813537598,
                    "b": 0.5843137502670288,
                    "a": 1.0
                },
                {
                    "r": 0.20392157137393951,
                    "g": 0.27450981736183167,
                    "b": 0.3921568691730499,
                    "a": 1.0
                },
                {
                    "r": 0.4901960790157318,
                    "g": 0.19607843458652496,
                    "b": 0.239215686917305,
                    "a": 1.0
                },
                {
                    "r": 0.8627451062202454,
                    "g": 0.8549019694328308,
                    "b": 0.8039215803146362,
                    "a": 1.0
                }
            ],
            "CEADMLBENDH": 10012
        },
        {
            "crowdTypeID": 262,
            "spawnPosition": {
                "x": -2003.91796875,
                "y": 201.39109802246094,
                "z": 2467.89306640625
            },
            "spawnFaceFwd": {
                "x": 0.5560852885246277,
                "z": 0.8311252593994141
            },
            "hairColor": {
                "r": 0.25882354378700256,
                "g": 0.25882354378700256,
                "b": 0.25882354378700256,
                "a": 1.0
            },
            "bodyColors": [
                {
                    "r": 0.7921568751335144,
                    "g": 0.6549019813537598,
                    "b": 0.5843137502670288,
                    "a": 1.0
                },
                {
                    "r": 0.7803921699523926,
                    "g": 0.7215686440467834,
                    "b": 0.6666666865348816,
                    "a": 1.0
                },
                {
                    "r": 0.3490196168422699,
                    "g": 0.25882354378700256,
                    "b": 0.20392157137393951,
                    "a": 1.0
                },
                {
                    "r": 0.572549045085907,
                    "g": 0.4000000059604645,
                    "b": 0.25882354378700256,
                    "a": 1.0
                }
            ],
            "CEADMLBENDH": 10013
        },
        {
            "crowdTypeID": 255,
            "animConfigID": 2,
            "spawnPosition": {
                "x": -2003.1099853515625,
                "y": 201.39109802246094,
                "z": 2468.948974609375
            },
            "spawnFaceFwd": {
                "x": -0.5685389637947083,
                "z": -0.8226562738418579
            },
            "hairColor": {
                "r": 0.32156863808631897,
                "g": 0.21568627655506134,
                "b": 0.18039216101169586,
                "a": 1.0
            },
            "bodyColors": [
                {
                    "r": 0.7921568751335144,
                    "g": 0.6549019813537598,
                    "b": 0.5843137502670288,
                    "a": 1.0
                },
                {
                    "r": 0.22745098173618317,
                    "g": 0.2862745225429535,
                    "b": 0.3137255012989044,
                    "a": 1.0
                },
                {
                    "r": 0.6196078658103943,
                    "g": 0.5568627715110779,
                    "b": 0.42352941632270813,
                    "a": 1.0
                },
                {
                    "r": 0.8313725590705872,
                    "g": 0.8235294222831726,
                    "b": 0.8078431487083435,
                    "a": 1.0
                }
            ],
            "CEADMLBENDH": 10014
        },
        {
            "crowdTypeID": 306,
            "spawnPosition": {
                "x": -2038.237060546875,
                "y": 201.25450134277344,
                "z": 2425.05810546875
            },
            "spawnFaceFwd": {
                "x": -0.7833420038223267,
                "z": -0.6215909719467163
            },
            "hairColor": {
                "r": 0.25882354378700256,
                "g": 0.25882354378700256,
                "b": 0.25882354378700256,
                "a": 1.0
            },
            "bodyColors": [
                {
                    "r": 1.0,
                    "g": 1.0,
                    "b": 1.0,
                    "a": 1.0
                },
                {
                    "r": 1.0,
                    "g": 1.0,
                    "b": 1.0,
                    "a": 1.0
                },
                {
                    "r": 1.0,
                    "g": 1.0,
                    "b": 1.0,
                    "a": 1.0
                },
                {
                    "r": 1.0,
                    "g": 1.0,
                    "b": 1.0,
                    "a": 1.0
                }
            ],
            "CEADMLBENDH": 10017
        },
        {
            "crowdTypeID": 284,
            "spawnPosition": {
                "x": -2037.9859619140625,
                "y": 201.25450134277344,
                "z": 2423.76611328125
            },
            "spawnFaceFwd": {
                "x": -0.9823121428489685,
                "z": -0.18725073337554932
            },
            "hairColor": {
                "r": 0.32156863808631897,
                "g": 0.21568627655506134,
                "b": 0.18039216101169586,
                "a": 1.0
            },
            "bodyColors": [
                {
                    "r": 1.0,
                    "g": 1.0,
                    "b": 1.0,
                    "a": 1.0
                },
                {
                    "r": 1.0,
                    "g": 1.0,
                    "b": 1.0,
                    "a": 1.0
                },
                {
                    "r": 1.0,
                    "g": 1.0,
                    "b": 1.0,
                    "a": 1.0
                },
                {
                    "r": 1.0,
                    "g": 1.0,
                    "b": 1.0,
                    "a": 1.0
                }
            ],
            "CEADMLBENDH": 10018
        },
        {
            "crowdTypeID": 307,
            "spawnPosition": {
                "x": -2018.7430419921875,
                "y": 203.8450927734375,
                "z": 2382.9140625
            },
            "spawnFaceFwd": {
                "x": -0.7296003699302673,
                "z": 0.6838737726211548
            },
            "hairColor": {
                "r": 0.3960784375667572,
                "g": 0.27843138575553894,
                "b": 0.1882352977991104,
                "a": 1.0
            },
            "bodyColors": [
                {
                    "r": 1.0,
                    "g": 1.0,
                    "b": 1.0,
                    "a": 1.0
                },
                {
                    "r": 1.0,
                    "g": 1.0,
                    "b": 1.0,
                    "a": 1.0
                },
                {
                    "r": 1.0,
                    "g": 1.0,
                    "b": 1.0,
                    "a": 1.0
                },
                {
                    "r": 1.0,
                    "g": 1.0,
                    "b": 1.0,
                    "a": 1.0
                }
            ],
            "CEADMLBENDH": 10019
        },
        {
            "crowdTypeID": 280,
            "spawnPosition": {
                "x": -2019.7860107421875,
                "y": 203.85220336914062,
                "z": 2383.907958984375
            },
            "spawnFaceFwd": {
                "x": 0.7628083825111389,
                "z": -0.6466245651245117
            },
            "hairColor": {
                "r": 0.25882354378700256,
                "g": 0.25882354378700256,
                "b": 0.25882354378700256,
                "a": 1.0
            },
            "bodyColors": [
                {
                    "r": 0.7921568751335144,
                    "g": 0.6549019813537598,
                    "b": 0.5843137502670288,
                    "a": 1.0
                },
                {
                    "r": 0.38823530077934265,
                    "g": 0.46666666865348816,
                    "b": 0.5490196347236633,
                    "a": 1.0
                },
                {
                    "r": 0.8117647171020508,
                    "g": 0.8078431487083435,
                    "b": 0.7960784435272217,
                    "a": 1.0
                },
                {
                    "r": 0.7098039388656616,
                    "g": 0.5686274766921997,
                    "b": 0.32549020648002625,
                    "a": 1.0
                }
            ],
            "CEADMLBENDH": 10020
        }
    ]
}