{
    "crowdSpawnInfos": [
        {
            "crowdTypeID": 177,
            "spawnPosition": {
                "x": -161.37010192871094,
                "y": 248.1475067138672,
                "z": 3649.89111328125
            },
            "spawnFaceFwd": {
                "x": -0.9424163103103638,
                "z": 0.3344419598579407
            },
            "bodyColors": [
                {
                    "r": 1.0,
                    "g": 1.0,
                    "b": 1.0,
                    "a": 1.0
                },
                {
                    "r": 0.8705882430076599,
                    "g": 0.9098039269447327,
                    "b": 0.6235294342041016,
                    "a": 1.0
                },
                {
                    "r": 0.6392157077789307,
                    "g": 0.8235294222831726,
                    "b": 0.30588236451148987,
                    "a": 1.0
                },
                {
                    "r": 0.9764705896377563,
                    "g": 0.9803921580314636,
                    "b": 0.9254902005195618,
                    "a": 1.0
                }
            ],
            "HLGEOOLNOEM": [
                {
                    "r": 0.43529412150382996,
                    "g": 0.6705882549285889,
                    "b": 0.29019609093666077,
                    "a": 1.0
                },
                {
                    "r": 0.6392157077789307,
                    "g": 0.8235294222831726,
                    "b": 0.30588236451148987,
                    "a": 1.0
                },
                {
                    "r": 0.615686297416687,
                    "g": 0.7529411911964417,
                    "b": 0.4000000059604645,
                    "a": 1.0
                }
            ],
            "FDCINDDPABB": [
                {
                    "r": 0.24313725531101227,
                    "g": 0.4627451002597809,
                    "b": 0.3137255012989044,
                    "a": 1.0
                },
                {
                    "r": 0.24313725531101227,
                    "g": 0.4627451002597809,
                    "b": 0.3137255012989044,
                    "a": 1.0
                },
                {
                    "r": 1.0,
                    "g": 1.0,
                    "b": 1.0,
                    "a": 1.0
                }
            ],
            "CEADMLBENDH": 20001
        }
    ]
}