{
    "crowdSpawnInfos": [
        {
            "crowdTypeID": 68,
            "animConfigID": 5,
            "spawnPosition": {
                "x": 1534.8509521484375,
                "y": 236.99459838867188,
                "z": 490.88409423828125
            },
            "spawnFaceFwd": {
                "x": -0.9915130734443665,
                "z": -0.13000738620758057
            },
            "hairColor": {
                "r": 0.29019609093666077,
                "g": 0.3176470696926117,
                "b": 0.3529411852359772,
                "a": 1.0
            },
            "bodyColors": [
                {
                    "r": 0.9058823585510254,
                    "g": 0.7882353067398071,
                    "b": 0.7333333492279053,
                    "a": 1.0
                },
                {
                    "r": 0.41960784792900085,
                    "g": 0.41960784792900085,
                    "b": 0.4117647111415863,
                    "a": 1.0
                },
                {
                    "r": 0.3764705955982208,
                    "g": 0.2823529541492462,
                    "b": 0.2823529541492462,
                    "a": 1.0
                },
                {
                    "r": 0.2549019753932953,
                    "g": 0.26274511218070984,
                    "b": 0.2705882489681244,
                    "a": 1.0
                }
            ],
            "CEADMLBENDH": 10001
        },
        {
            "crowdTypeID": 112,
            "spawnPosition": {
                "x": 1567.8819580078125,
                "y": 245.58290100097656,
                "z": 456.8858947753906
            },
            "spawnFaceFwd": {
                "x": -0.2325967252254486,
                "z": -0.9725732803344727
            },
            "hairColor": {
                "r": 0.25882354378700256,
                "g": 0.25882354378700256,
                "b": 0.25882354378700256,
                "a": 1.0
            },
            "bodyColors": [
                {
                    "r": 0.7921568751335144,
                    "g": 0.6549019813537598,
                    "b": 0.5843137502670288,
                    "a": 1.0
                },
                {
                    "r": 0.772549033164978,
                    "g": 0.7607843279838562,
                    "b": 0.7450980544090271,
                    "a": 1.0
                },
                {
                    "r": 0.5882353186607361,
                    "g": 0.4156862795352936,
                    "b": 0.4156862795352936,
                    "a": 1.0
                },
                {
                    "r": 0.2862745225429535,
                    "g": 0.21568627655506134,
                    "b": 0.21568627655506134,
                    "a": 1.0
                }
            ],
            "CEADMLBENDH": 10002
        },
        {
            "crowdTypeID": 75,
            "animConfigID": 2,
            "spawnPosition": {
                "x": 1567.248046875,
                "y": 245.91050720214844,
                "z": 456.1163024902344
            },
            "spawnFaceFwd": {
                "x": 0.4083304703235626,
                "z": 0.9128341674804688
            },
            "hairColor": {
                "r": 0.32156863808631897,
                "g": 0.21568627655506134,
                "b": 0.18039216101169586,
                "a": 1.0
            },
            "bodyColors": [
                {
                    "r": 0.9058823585510254,
                    "g": 0.7882353067398071,
                    "b": 0.7333333492279053,
                    "a": 1.0
                },
                {
                    "r": 0.41960784792900085,
                    "g": 0.41960784792900085,
                    "b": 0.4117647111415863,
                    "a": 1.0
                },
                {
                    "r": 0.3764705955982208,
                    "g": 0.2823529541492462,
                    "b": 0.2823529541492462,
                    "a": 1.0
                },
                {
                    "r": 0.2549019753932953,
                    "g": 0.26274511218070984,
                    "b": 0.2705882489681244,
                    "a": 1.0
                }
            ],
            "CEADMLBENDH": 10003
        },
        {
            "crowdTypeID": 116,
            "animConfigID": 2,
            "spawnPosition": {
                "x": 1546.990966796875,
                "y": 236.71470642089844,
                "z": 496.4446105957031
            },
            "spawnFaceFwd": {
                "x": 0.5986042618751526,
                "z": 0.8010449409484863
            },
            "hairColor": {
                "r": 0.25882354378700256,
                "g": 0.25882354378700256,
                "b": 0.25882354378700256,
                "a": 1.0
            },
            "bodyColors": [
                {
                    "r": 0.9058823585510254,
                    "g": 0.7882353067398071,
                    "b": 0.7333333492279053,
                    "a": 1.0
                },
                {
                    "r": 0.3333333432674408,
                    "g": 0.364705890417099,
                    "b": 0.43529412150382996,
                    "a": 1.0
                },
                {
                    "r": 0.6352941393852234,
                    "g": 0.6196078658103943,
                    "b": 0.6549019813537598,
                    "a": 1.0
                },
                {
                    "r": 0.22745098173618317,
                    "g": 0.2549019753932953,
                    "b": 0.33725491166114807,
                    "a": 1.0
                }
            ],
            "CEADMLBENDH": 10004
        },
        {
            "crowdTypeID": 75,
            "animConfigID": 3,
            "spawnPosition": {
                "x": 1548.6529541015625,
                "y": 237.34019470214844,
                "z": 499.12249755859375
            },
            "spawnFaceFwd": {
                "x": -0.20022310316562653,
                "z": -0.979750394821167
            },
            "hairColor": {
                "r": 0.25882354378700256,
                "g": 0.25882354378700256,
                "b": 0.25882354378700256,
                "a": 1.0
            },
            "bodyColors": [
                {
                    "r": 0.9058823585510254,
                    "g": 0.7882353067398071,
                    "b": 0.7333333492279053,
                    "a": 1.0
                },
                {
                    "r": 0.3333333432674408,
                    "g": 0.364705890417099,
                    "b": 0.43529412150382996,
                    "a": 1.0
                },
                {
                    "r": 0.6352941393852234,
                    "g": 0.6196078658103943,
                    "b": 0.6549019813537598,
                    "a": 1.0
                },
                {
                    "r": 0.22745098173618317,
                    "g": 0.2549019753932953,
                    "b": 0.33725491166114807,
                    "a": 1.0
                }
            ],
            "CEADMLBENDH": 10005
        },
        {
            "crowdTypeID": 75,
            "animConfigID": 11,
            "spawnPosition": {
                "x": 1577.02099609375,
                "y": 249.7550048828125,
                "z": 435.9460144042969
            },
            "spawnFaceFwd": {
                "x": -0.20022310316562653,
                "z": -0.979750394821167
            },
            "hairColor": {
                "r": 0.25882354378700256,
                "g": 0.25882354378700256,
                "b": 0.25882354378700256,
                "a": 1.0
            },
            "bodyColors": [
                {
                    "r": 0.9058823585510254,
                    "g": 0.7882353067398071,
                    "b": 0.7333333492279053,
                    "a": 1.0
                },
                {
                    "r": 0.3333333432674408,
                    "g": 0.364705890417099,
                    "b": 0.43529412150382996,
                    "a": 1.0
                },
                {
                    "r": 0.6352941393852234,
                    "g": 0.6196078658103943,
                    "b": 0.6549019813537598,
                    "a": 1.0
                },
                {
                    "r": 0.22745098173618317,
                    "g": 0.2549019753932953,
                    "b": 0.33725491166114807,
                    "a": 1.0
                }
            ],
            "CEADMLBENDH": 10006
        },
        {
            "crowdTypeID": 82,
            "animConfigID": 9,
            "spawnPosition": {
                "x": 1582.1519775390625,
                "y": 247.860107421875,
                "z": 457.9833984375
            },
            "spawnFaceFwd": {
                "x": -0.7205510139465332,
                "z": 0.6934018731117249
            },
            "hairColor": {
                "r": 0.25882354378700256,
                "g": 0.25882354378700256,
                "b": 0.25882354378700256,
                "a": 1.0
            },
            "bodyColors": [
                {
                    "r": 0.9058823585510254,
                    "g": 0.7882353067398071,
                    "b": 0.7333333492279053,
                    "a": 1.0
                },
                {
                    "r": 0.4431372582912445,
                    "g": 0.3960784375667572,
                    "b": 0.4941176474094391,
                    "a": 1.0
                },
                {
                    "r": 0.8235294222831726,
                    "g": 0.8235294222831726,
                    "b": 0.8235294222831726,
                    "a": 1.0
                },
                {
                    "r": 0.3686274588108063,
                    "g": 0.24313725531101227,
                    "b": 0.24313725531101227,
                    "a": 1.0
                }
            ],
            "CEADMLBENDH": 10007
        }
    ]
}