{
    "crowdSpawnInfos": [
        {
            "crowdTypeID": 76,
            "animConfigID": 1,
            "spawnPosition": {
                "x": -676.6229858398438,
                "y": 219.69200134277344,
                "z": 224.54600524902344
            },
            "spawnFaceFwd": {
                "x": -0.36587122082710266,
                "z": 0.9306654930114746
            },
            "hairColor": {
                "r": 0.32156863808631897,
                "g": 0.21568627655506134,
                "b": 0.18039216101169586,
                "a": 1.0
            },
            "bodyColors": [
                {
                    "r": 0.9333333373069763,
                    "g": 0.8666666746139526,
                    "b": 0.843137264251709,
                    "a": 1.0
                },
                {
                    "r": 0.239215686917305,
                    "g": 0.2666666805744171,
                    "b": 0.29411765933036804,
                    "a": 1.0
                },
                {
                    "r": 0.7568627595901489,
                    "g": 0.7568627595901489,
                    "b": 0.7254902124404907,
                    "a": 1.0
                },
                {
                    "r": 0.47843137383461,
                    "g": 0.4470588266849518,
                    "b": 0.3960784375667572,
                    "a": 1.0
                }
            ],
            "CEADMLBENDH": 270001
        },
        {
            "crowdTypeID": 64,
            "animConfigID": 4,
            "spawnPosition": {
                "x": -677.5255126953125,
                "y": 219.69200134277344,
                "z": 225.83489990234375
            },
            "spawnFaceFwd": {
                "x": 0.9708383679389954,
                "z": 0.23973506689071655
            },
            "hairColor": {
                "r": 0.25882354378700256,
                "g": 0.25882354378700256,
                "b": 0.25882354378700256,
                "a": 1.0
            },
            "bodyColors": [
                {
                    "r": 0.9058823585510254,
                    "g": 0.7882353067398071,
                    "b": 0.7333333492279053,
                    "a": 1.0
                },
                {
                    "r": 0.239215686917305,
                    "g": 0.2666666805744171,
                    "b": 0.29411765933036804,
                    "a": 1.0
                },
                {
                    "r": 0.7568627595901489,
                    "g": 0.7568627595901489,
                    "b": 0.7254902124404907,
                    "a": 1.0
                },
                {
                    "r": 0.47843137383461,
                    "g": 0.4470588266849518,
                    "b": 0.3960784375667572,
                    "a": 1.0
                }
            ],
            "CEADMLBENDH": 270002
        }
    ]
}