{
    "crowdSpawnInfos": [
        {
            "crowdTypeID": 125,
            "spawnPosition": {
                "x": -384.80841064453125,
                "y": 215.30999755859375,
                "z": -1159.3990478515625
            },
            "spawnFaceFwd": {
                "x": 0.38648077845573425,
                "z": -0.9222973585128784
            },
            "hairColor": {
                "r": 0.25882354378700256,
                "g": 0.25882354378700256,
                "b": 0.25882354378700256,
                "a": 1.0
            },
            "bodyColors": [
                {
                    "r": 0.9058823585510254,
                    "g": 0.7882353067398071,
                    "b": 0.7333333492279053,
                    "a": 1.0
                },
                {
                    "r": 0.4117647111415863,
                    "g": 0.35686275362968445,
                    "b": 0.3960784375667572,
                    "a": 1.0
                },
                {
                    "r": 0.5647059082984924,
                    "g": 0.5490196347236633,
                    "b": 0.5607843399047852,
                    "a": 1.0
                },
                {
                    "r": 0.2666666805744171,
                    "g": 0.2078431397676468,
                    "b": 0.23529411852359772,
                    "a": 1.0
                }
            ],
            "CEADMLBENDH": 30004
        },
        {
            "crowdTypeID": 59,
            "spawnPosition": {
                "x": -381.5421142578125,
                "y": 212.0843048095703,
                "z": -1141.824951171875
            },
            "spawnFaceFwd": {
                "x": 0.9408062696456909,
                "z": -0.33894479274749756
            },
            "hairColor": {
                "r": 0.25882354378700256,
                "g": 0.25882354378700256,
                "b": 0.25882354378700256,
                "a": 1.0
            },
            "bodyColors": [
                {
                    "r": 0.7921568751335144,
                    "g": 0.6549019813537598,
                    "b": 0.5843137502670288,
                    "a": 1.0
                },
                {
                    "r": 0.6470588445663452,
                    "g": 0.6470588445663452,
                    "b": 0.6470588445663452,
                    "a": 1.0
                },
                {
                    "r": 0.2666666805744171,
                    "g": 0.29411765933036804,
                    "b": 0.3019607961177826,
                    "a": 1.0
                },
                {
                    "r": 0.4941176474094391,
                    "g": 0.2980392277240753,
                    "b": 0.2980392277240753,
                    "a": 1.0
                }
            ],
            "CEADMLBENDH": 30005
        },
        {
            "crowdTypeID": 63,
            "animConfigID": 9,
            "spawnPosition": {
                "x": -382.3634033203125,
                "y": 212.0843048095703,
                "z": -1140.137939453125
            },
            "spawnFaceFwd": {
                "x": -0.5957035422325134,
                "z": -0.8032045364379883
            },
            "hairColor": {
                "r": 0.29019609093666077,
                "g": 0.3176470696926117,
                "b": 0.3529411852359772,
                "a": 1.0
            },
            "bodyColors": [
                {
                    "r": 0.7921568751335144,
                    "g": 0.6549019813537598,
                    "b": 0.5843137502670288,
                    "a": 1.0
                },
                {
                    "r": 0.6470588445663452,
                    "g": 0.6470588445663452,
                    "b": 0.6470588445663452,
                    "a": 1.0
                },
                {
                    "r": 0.2666666805744171,
                    "g": 0.29411765933036804,
                    "b": 0.3019607961177826,
                    "a": 1.0
                },
                {
                    "r": 0.4941176474094391,
                    "g": 0.2980392277240753,
                    "b": 0.2980392277240753,
                    "a": 1.0
                }
            ],
            "CEADMLBENDH": 30006
        },
        {
            "crowdTypeID": 75,
            "animConfigID": 7,
            "spawnPosition": {
                "x": -386.07611083984375,
                "y": 212.0843048095703,
                "z": -1144.1190185546875
            },
            "spawnFaceFwd": {
                "x": 0.6422700881958008,
                "z": -0.766478419303894
            },
            "hairColor": {
                "r": 0.32156863808631897,
                "g": 0.21568627655506134,
                "b": 0.18039216101169586,
                "a": 1.0
            },
            "bodyColors": [
                {
                    "r": 0.9058823585510254,
                    "g": 0.7882353067398071,
                    "b": 0.7333333492279053,
                    "a": 1.0
                },
                {
                    "r": 0.6470588445663452,
                    "g": 0.6470588445663452,
                    "b": 0.6470588445663452,
                    "a": 1.0
                },
                {
                    "r": 0.2666666805744171,
                    "g": 0.29411765933036804,
                    "b": 0.3019607961177826,
                    "a": 1.0
                },
                {
                    "r": 0.4941176474094391,
                    "g": 0.2980392277240753,
                    "b": 0.2980392277240753,
                    "a": 1.0
                }
            ],
            "CEADMLBENDH": 30007
        }
    ]
}