{
    "crowdSpawnInfos": [
        {
            "crowdTypeID": 134,
            "spawnPosition": {
                "x": -2523.35302734375,
                "y": 202.0211944580078,
                "z": -3638.5419921875
            },
            "spawnFaceFwd": {
                "x": 0.4574674069881439,
                "z": -0.8892264366149902
            },
            "hairColor": {
                "r": 0.25882354378700256,
                "g": 0.25882354378700256,
                "b": 0.25882354378700256,
                "a": 1.0
            },
            "bodyColors": [
                {
                    "r": 1.0,
                    "g": 1.0,
                    "b": 1.0,
                    "a": 1.0
                },
                {
                    "r": 1.0,
                    "g": 1.0,
                    "b": 1.0,
                    "a": 1.0
                },
                {
                    "r": 1.0,
                    "g": 1.0,
                    "b": 1.0,
                    "a": 1.0
                },
                {
                    "r": 1.0,
                    "g": 1.0,
                    "b": 1.0,
                    "a": 1.0
                }
            ],
            "CEADMLBENDH": 20001
        },
        {
            "crowdTypeID": 164,
            "spawnPosition": {
                "x": -2568.64501953125,
                "y": 200.81829833984375,
                "z": -3695.594970703125
            },
            "spawnFaceFwd": {
                "x": 0.9956287741661072,
                "z": -0.09339940547943115
            },
            "hairColor": {
                "r": 0.29019609093666077,
                "g": 0.3176470696926117,
                "b": 0.3529411852359772,
                "a": 1.0
            },
            "bodyColors": [
                {
                    "r": 1.0,
                    "g": 1.0,
                    "b": 1.0,
                    "a": 1.0
                },
                {
                    "r": 1.0,
                    "g": 1.0,
                    "b": 1.0,
                    "a": 1.0
                },
                {
                    "r": 1.0,
                    "g": 1.0,
                    "b": 1.0,
                    "a": 1.0
                },
                {
                    "r": 1.0,
                    "g": 1.0,
                    "b": 1.0,
                    "a": 1.0
                }
            ],
            "CEADMLBENDH": 20002
        },
        {
            "crowdTypeID": 134,
            "spawnPosition": {
                "x": -2560.343994140625,
                "y": 201.96270751953125,
                "z": -3741.556884765625
            },
            "spawnFaceFwd": {
                "x": -0.8537053465843201,
                "z": 0.5207563638687134
            },
            "hairColor": {
                "r": 0.25882354378700256,
                "g": 0.25882354378700256,
                "b": 0.25882354378700256,
                "a": 1.0
            },
            "bodyColors": [
                {
                    "r": 1.0,
                    "g": 1.0,
                    "b": 1.0,
                    "a": 1.0
                },
                {
                    "r": 1.0,
                    "g": 1.0,
                    "b": 1.0,
                    "a": 1.0
                },
                {
                    "r": 1.0,
                    "g": 1.0,
                    "b": 1.0,
                    "a": 1.0
                },
                {
                    "r": 1.0,
                    "g": 1.0,
                    "b": 1.0,
                    "a": 1.0
                }
            ],
            "CEADMLBENDH": 20003
        },
        {
            "crowdTypeID": 164,
            "spawnPosition": {
                "x": -2574.409912109375,
                "y": 202.00289916992188,
                "z": -3731.762939453125
            },
            "spawnFaceFwd": {
                "x": 0.6587997674942017,
                "z": 0.7523183226585388
            },
            "hairColor": {
                "r": 0.32156863808631897,
                "g": 0.21568627655506134,
                "b": 0.18039216101169586,
                "a": 1.0
            },
            "bodyColors": [
                {
                    "r": 1.0,
                    "g": 1.0,
                    "b": 1.0,
                    "a": 1.0
                },
                {
                    "r": 1.0,
                    "g": 1.0,
                    "b": 1.0,
                    "a": 1.0
                },
                {
                    "r": 1.0,
                    "g": 1.0,
                    "b": 1.0,
                    "a": 1.0
                },
                {
                    "r": 1.0,
                    "g": 1.0,
                    "b": 1.0,
                    "a": 1.0
                }
            ],
            "CEADMLBENDH": 20004
        },
        {
            "crowdTypeID": 164,
            "spawnPosition": {
                "x": -2537.056884765625,
                "y": 225.3928985595703,
                "z": -3888.75390625
            },
            "spawnFaceFwd": {
                "x": -0.43246549367904663,
                "z": 0.9016504883766174
            },
            "hairColor": {
                "r": 0.29019609093666077,
                "g": 0.3176470696926117,
                "b": 0.3529411852359772,
                "a": 1.0
            },
            "bodyColors": [
                {
                    "r": 1.0,
                    "g": 1.0,
                    "b": 1.0,
                    "a": 1.0
                },
                {
                    "r": 1.0,
                    "g": 1.0,
                    "b": 1.0,
                    "a": 1.0
                },
                {
                    "r": 1.0,
                    "g": 1.0,
                    "b": 1.0,
                    "a": 1.0
                },
                {
                    "r": 1.0,
                    "g": 1.0,
                    "b": 1.0,
                    "a": 1.0
                }
            ],
            "CEADMLBENDH": 20007
        },
        {
            "crowdTypeID": 134,
            "spawnPosition": {
                "x": -2525.218994140625,
                "y": 229.2725067138672,
                "z": -3884.238037109375
            },
            "spawnFaceFwd": {
                "x": -0.9977037310600281,
                "z": -0.06773006916046143
            },
            "hairColor": {
                "r": 0.32156863808631897,
                "g": 0.21568627655506134,
                "b": 0.18039216101169586,
                "a": 1.0
            },
            "bodyColors": [
                {
                    "r": 1.0,
                    "g": 1.0,
                    "b": 1.0,
                    "a": 1.0
                },
                {
                    "r": 1.0,
                    "g": 1.0,
                    "b": 1.0,
                    "a": 1.0
                },
                {
                    "r": 1.0,
                    "g": 1.0,
                    "b": 1.0,
                    "a": 1.0
                },
                {
                    "r": 1.0,
                    "g": 1.0,
                    "b": 1.0,
                    "a": 1.0
                }
            ],
            "CEADMLBENDH": 20008
        },
        {
            "crowdTypeID": 134,
            "spawnPosition": {
                "x": -2558.97998046875,
                "y": 214.2126007080078,
                "z": -3841.81396484375
            },
            "spawnFaceFwd": {
                "x": -0.8380110263824463,
                "z": -0.545653223991394
            },
            "hairColor": {
                "r": 0.25882354378700256,
                "g": 0.25882354378700256,
                "b": 0.25882354378700256,
                "a": 1.0
            },
            "bodyColors": [
                {
                    "r": 1.0,
                    "g": 1.0,
                    "b": 1.0,
                    "a": 1.0
                },
                {
                    "r": 1.0,
                    "g": 1.0,
                    "b": 1.0,
                    "a": 1.0
                },
                {
                    "r": 1.0,
                    "g": 1.0,
                    "b": 1.0,
                    "a": 1.0
                },
                {
                    "r": 1.0,
                    "g": 1.0,
                    "b": 1.0,
                    "a": 1.0
                }
            ],
            "CEADMLBENDH": 20009
        },
        {
            "crowdTypeID": 153,
            "spawnPosition": {
                "x": -2563.925048828125,
                "y": 201.75660705566406,
                "z": -3677.10888671875
            },
            "spawnFaceFwd": {
                "z": 1.0
            },
            "hairColor": {
                "r": 0.32156863808631897,
                "g": 0.21568627655506134,
                "b": 0.18039216101169586,
                "a": 1.0
            },
            "bodyColors": [
                {
                    "r": 0.7921568751335144,
                    "g": 0.6549019813537598,
                    "b": 0.5843137502670288,
                    "a": 1.0
                },
                {
                    "r": 0.45098039507865906,
                    "g": 0.3843137323856354,
                    "b": 0.34117648005485535,
                    "a": 1.0
                },
                {
                    "r": 0.239215686917305,
                    "g": 0.2549019753932953,
                    "b": 0.3294117748737335,
                    "a": 1.0
                },
                {
                    "r": 0.4117647111415863,
                    "g": 0.40392157435417175,
                    "b": 0.4274509847164154,
                    "a": 1.0
                }
            ],
            "CEADMLBENDH": 20010
        },
        {
            "crowdTypeID": 150,
            "animConfigID": 6,
            "spawnPosition": {
                "x": -2563.806884765625,
                "y": 201.7825927734375,
                "z": -3675.6220703125
            },
            "spawnFaceFwd": {
                "x": 0.04188614711165428,
                "z": -0.9991225004196167
            },
            "hairColor": {
                "r": 0.29019609093666077,
                "g": 0.3176470696926117,
                "b": 0.3529411852359772,
                "a": 1.0
            },
            "bodyColors": [
                {
                    "r": 0.7921568751335144,
                    "g": 0.6549019813537598,
                    "b": 0.5843137502670288,
                    "a": 1.0
                },
                {
                    "r": 0.7450980544090271,
                    "g": 0.6941176652908325,
                    "b": 0.6431372761726379,
                    "a": 1.0
                },
                {
                    "r": 0.34117648005485535,
                    "g": 0.2666666805744171,
                    "b": 0.24705882370471954,
                    "a": 1.0
                },
                {
                    "r": 0.48627451062202454,
                    "g": 0.38823530077934265,
                    "b": 0.3019607961177826,
                    "a": 1.0
                }
            ],
            "CEADMLBENDH": 20011
        },
        {
            "crowdTypeID": 128,
            "animConfigID": 1,
            "spawnPosition": {
                "x": -2563.91796875,
                "y": 206.35870361328125,
                "z": -3771.632080078125
            },
            "spawnFaceFwd": {
                "z": 1.0
            },
            "hairColor": {
                "r": 0.29019609093666077,
                "g": 0.3176470696926117,
                "b": 0.3529411852359772,
                "a": 1.0
            },
            "bodyColors": [
                {
                    "r": 0.9333333373069763,
                    "g": 0.8666666746139526,
                    "b": 0.843137264251709,
                    "a": 1.0
                },
                {
                    "r": 0.41960784792900085,
                    "g": 0.43529412150382996,
                    "b": 0.4941176474094391,
                    "a": 1.0
                },
                {
                    "r": 0.5372549295425415,
                    "g": 0.364705890417099,
                    "b": 0.34117648005485535,
                    "a": 1.0
                },
                {
                    "r": 0.26274511218070984,
                    "g": 0.2078431397676468,
                    "b": 0.18039216101169586,
                    "a": 1.0
                }
            ],
            "CEADMLBENDH": 20012
        },
        {
            "crowdTypeID": 141,
            "animConfigID": 1,
            "spawnPosition": {
                "x": -2563.868896484375,
                "y": 206.34030151367188,
                "z": -3770.18798828125
            },
            "spawnFaceFwd": {
                "x": -0.4006287157535553,
                "z": -0.9162405729293823
            },
            "hairColor": {
                "r": 0.25882354378700256,
                "g": 0.25882354378700256,
                "b": 0.25882354378700256,
                "a": 1.0
            },
            "bodyColors": [
                {
                    "r": 0.9333333373069763,
                    "g": 0.8666666746139526,
                    "b": 0.843137264251709,
                    "a": 1.0
                },
                {
                    "r": 0.5372549295425415,
                    "g": 0.364705890417099,
                    "b": 0.34117648005485535,
                    "a": 1.0
                },
                {
                    "r": 0.26274511218070984,
                    "g": 0.2078431397676468,
                    "b": 0.18039216101169586,
                    "a": 1.0
                },
                {
                    "r": 0.41960784792900085,
                    "g": 0.43529412150382996,
                    "b": 0.4941176474094391,
                    "a": 1.0
                }
            ],
            "CEADMLBENDH": 20013
        },
        {
            "crowdTypeID": 161,
            "spawnPosition": {
                "x": -2507.955078125,
                "y": 231.03280639648438,
                "z": -3879.423095703125
            },
            "spawnFaceFwd": {
                "x": 0.7718398571014404,
                "z": -0.6358170509338379
            },
            "hairColor": {
                "r": 0.25882354378700256,
                "g": 0.25882354378700256,
                "b": 0.25882354378700256,
                "a": 1.0
            },
            "bodyColors": [
                {
                    "r": 0.9333333373069763,
                    "g": 0.8666666746139526,
                    "b": 0.843137264251709,
                    "a": 1.0
                },
                {
                    "r": 0.5372549295425415,
                    "g": 0.364705890417099,
                    "b": 0.34117648005485535,
                    "a": 1.0
                },
                {
                    "r": 0.26274511218070984,
                    "g": 0.2078431397676468,
                    "b": 0.18039216101169586,
                    "a": 1.0
                },
                {
                    "r": 0.41960784792900085,
                    "g": 0.43529412150382996,
                    "b": 0.4941176474094391,
                    "a": 1.0
                }
            ],
            "CEADMLBENDH": 20017
        },
        {
            "crowdTypeID": 139,
            "animConfigID": 7,
            "spawnPosition": {
                "x": -2505.10498046875,
                "y": 231.02349853515625,
                "z": -3882.27099609375
            },
            "spawnFaceFwd": {
                "x": 0.9573462009429932,
                "z": -0.2889432907104492
            },
            "hairColor": {
                "r": 0.3960784375667572,
                "g": 0.27843138575553894,
                "b": 0.1882352977991104,
                "a": 1.0
            },
            "bodyColors": [
                {
                    "r": 0.9333333373069763,
                    "g": 0.8666666746139526,
                    "b": 0.843137264251709,
                    "a": 1.0
                },
                {
                    "r": 0.5372549295425415,
                    "g": 0.364705890417099,
                    "b": 0.34117648005485535,
                    "a": 1.0
                },
                {
                    "r": 0.26274511218070984,
                    "g": 0.2078431397676468,
                    "b": 0.18039216101169586,
                    "a": 1.0
                },
                {
                    "r": 0.41960784792900085,
                    "g": 0.43529412150382996,
                    "b": 0.4941176474094391,
                    "a": 1.0
                }
            ],
            "CEADMLBENDH": 20018
        },
        {
            "crowdTypeID": 132,
            "animConfigID": 3,
            "spawnPosition": {
                "x": -2578.33203125,
                "y": 200.39300537109375,
                "z": -3692.987060546875
            },
            "spawnFaceFwd": {
                "x": -0.2973065972328186,
                "z": -0.9547821283340454
            },
            "hairColor": {
                "r": 0.29019609093666077,
                "g": 0.3176470696926117,
                "b": 0.3529411852359772,
                "a": 1.0
            },
            "bodyColors": [
                {
                    "r": 0.7921568751335144,
                    "g": 0.6549019813537598,
                    "b": 0.5843137502670288,
                    "a": 1.0
                },
                {
                    "r": 0.2549019753932953,
                    "g": 0.30980393290519714,
                    "b": 0.3921568691730499,
                    "a": 1.0
                },
                {
                    "r": 0.6313725709915161,
                    "g": 0.6274510025978088,
                    "b": 0.658823549747467,
                    "a": 1.0
                },
                {
                    "r": 0.34117648005485535,
                    "g": 0.3529411852359772,
                    "b": 0.4000000059604645,
                    "a": 1.0
                }
            ],
            "CEADMLBENDH": 20019
        },
        {
            "crowdTypeID": 139,
            "spawnPosition": {
                "x": -2578.658935546875,
                "y": 200.91360473632812,
                "z": -3694.794921875
            },
            "spawnFaceFwd": {
                "x": 0.3736515939235687,
                "z": 0.9275691509246826
            },
            "hairColor": {
                "r": 0.32156863808631897,
                "g": 0.21568627655506134,
                "b": 0.18039216101169586,
                "a": 1.0
            },
            "bodyColors": [
                {
                    "r": 0.9058823585510254,
                    "g": 0.7882353067398071,
                    "b": 0.7333333492279053,
                    "a": 1.0
                },
                {
                    "r": 0.5803921818733215,
                    "g": 0.5803921818733215,
                    "b": 0.48627451062202454,
                    "a": 1.0
                },
                {
                    "r": 0.35686275362968445,
                    "g": 0.29411765933036804,
                    "b": 0.239215686917305,
                    "a": 1.0
                },
                {
                    "r": 0.2980392277240753,
                    "g": 0.2823529541492462,
                    "b": 0.27843138575553894,
                    "a": 1.0
                }
            ],
            "CEADMLBENDH": 20020
        },
        {
            "crowdTypeID": 107,
            "animConfigID": 1,
            "spawnPosition": {
                "x": -2556.133056640625,
                "y": 212.3939971923828,
                "z": -3819.472900390625
            },
            "spawnFaceFwd": {
                "x": -0.8195293545722961,
                "z": -0.5730371475219727
            },
            "hairColor": {
                "r": 0.5215686559677124,
                "g": 0.40392157435417175,
                "b": 0.2549019753932953,
                "a": 1.0
            },
            "bodyColors": [
                {
                    "r": 0.9333333373069763,
                    "g": 0.8666666746139526,
                    "b": 0.843137264251709,
                    "a": 1.0
                },
                {
                    "r": 0.772549033164978,
                    "g": 0.7607843279838562,
                    "b": 0.7450980544090271,
                    "a": 1.0
                },
                {
                    "r": 0.5882353186607361,
                    "g": 0.4156862795352936,
                    "b": 0.4156862795352936,
                    "a": 1.0
                },
                {
                    "r": 0.2862745225429535,
                    "g": 0.21568627655506134,
                    "b": 0.21568627655506134,
                    "a": 1.0
                }
            ],
            "CEADMLBENDH": 20023
        },
        {
            "crowdTypeID": 151,
            "spawnPosition": {
                "x": -2557.44091796875,
                "y": 212.3939971923828,
                "z": -3820.95703125
            },
            "spawnFaceFwd": {
                "x": 0.3286639153957367,
                "z": 0.9444469213485718
            },
            "hairColor": {
                "r": 0.32156863808631897,
                "g": 0.21568627655506134,
                "b": 0.18039216101169586,
                "a": 1.0
            },
            "bodyColors": [
                {
                    "r": 0.9058823585510254,
                    "g": 0.7882353067398071,
                    "b": 0.7333333492279053,
                    "a": 1.0
                },
                {
                    "r": 0.7450980544090271,
                    "g": 0.6941176652908325,
                    "b": 0.6431372761726379,
                    "a": 1.0
                },
                {
                    "r": 0.34117648005485535,
                    "g": 0.2666666805744171,
                    "b": 0.24705882370471954,
                    "a": 1.0
                },
                {
                    "r": 0.48627451062202454,
                    "g": 0.38823530077934265,
                    "b": 0.3019607961177826,
                    "a": 1.0
                }
            ],
            "CEADMLBENDH": 20024
        },
        {
            "crowdTypeID": 85,
            "spawnPosition": {
                "x": -2556.98095703125,
                "y": 212.3939971923828,
                "z": -3819.087890625
            },
            "spawnFaceFwd": {
                "x": 0.031796254217624664,
                "z": -0.9994943141937256
            },
            "hairColor": {
                "r": 0.25882354378700256,
                "g": 0.25882354378700256,
                "b": 0.25882354378700256,
                "a": 1.0
            },
            "bodyColors": [
                {
                    "r": 0.9333333373069763,
                    "g": 0.8666666746139526,
                    "b": 0.843137264251709,
                    "a": 1.0
                },
                {
                    "r": 0.2235294133424759,
                    "g": 0.2705882489681244,
                    "b": 0.3607843220233917,
                    "a": 1.0
                },
                {
                    "r": 0.5686274766921997,
                    "g": 0.572549045085907,
                    "b": 0.6117647290229797,
                    "a": 1.0
                },
                {
                    "r": 0.3137255012989044,
                    "g": 0.38823530077934265,
                    "b": 0.47843137383461,
                    "a": 1.0
                }
            ],
            "CEADMLBENDH": 20025
        },
        {
            "crowdTypeID": 72,
            "spawnPosition": {
                "x": -2565.33203125,
                "y": 201.68069458007812,
                "z": -3742.717041015625
            },
            "spawnFaceFwd": {
                "x": -0.8924118876457214,
                "z": -0.4512218236923218
            },
            "hairColor": {
                "r": 0.25882354378700256,
                "g": 0.25882354378700256,
                "b": 0.25882354378700256,
                "a": 1.0
            },
            "bodyColors": [
                {
                    "r": 0.9333333373069763,
                    "g": 0.8666666746139526,
                    "b": 0.843137264251709,
                    "a": 1.0
                },
                {
                    "r": 0.42352941632270813,
                    "g": 0.4627451002597809,
                    "b": 0.5647059082984924,
                    "a": 1.0
                },
                {
                    "r": 0.6745098233222961,
                    "g": 0.6666666865348816,
                    "b": 0.6549019813537598,
                    "a": 1.0
                },
                {
                    "r": 0.2980392277240753,
                    "g": 0.27843138575553894,
                    "b": 0.3176470696926117,
                    "a": 1.0
                }
            ],
            "CEADMLBENDH": 20026
        },
        {
            "crowdTypeID": 68,
            "spawnPosition": {
                "x": -2566.18798828125,
                "y": 201.68069458007812,
                "z": -3743.3369140625
            },
            "spawnFaceFwd": {
                "x": 0.7767932415008545,
                "z": 0.6297556757926941
            },
            "hairColor": {
                "r": 0.25882354378700256,
                "g": 0.25882354378700256,
                "b": 0.25882354378700256,
                "a": 1.0
            },
            "bodyColors": [
                {
                    "r": 0.9058823585510254,
                    "g": 0.7882353067398071,
                    "b": 0.7333333492279053,
                    "a": 1.0
                },
                {
                    "r": 0.41960784792900085,
                    "g": 0.41960784792900085,
                    "b": 0.4117647111415863,
                    "a": 1.0
                },
                {
                    "r": 0.3764705955982208,
                    "g": 0.2823529541492462,
                    "b": 0.2823529541492462,
                    "a": 1.0
                },
                {
                    "r": 0.2549019753932953,
                    "g": 0.26274511218070984,
                    "b": 0.2705882489681244,
                    "a": 1.0
                }
            ],
            "CEADMLBENDH": 20027
        },
        {
            "crowdTypeID": 114,
            "spawnPosition": {
                "x": -2572.864990234375,
                "y": 202.00289916992188,
                "z": -3730.594970703125
            },
            "spawnFaceFwd": {
                "x": -0.6525493860244751,
                "z": -0.7577461004257202
            },
            "hairColor": {
                "r": 0.5215686559677124,
                "g": 0.40392157435417175,
                "b": 0.2549019753932953,
                "a": 1.0
            },
            "bodyColors": [
                {
                    "r": 0.9058823585510254,
                    "g": 0.7882353067398071,
                    "b": 0.7333333492279053,
                    "a": 1.0
                },
                {
                    "r": 0.772549033164978,
                    "g": 0.7607843279838562,
                    "b": 0.7450980544090271,
                    "a": 1.0
                },
                {
                    "r": 0.5882353186607361,
                    "g": 0.4156862795352936,
                    "b": 0.4156862795352936,
                    "a": 1.0
                },
                {
                    "r": 0.2862745225429535,
                    "g": 0.21568627655506134,
                    "b": 0.21568627655506134,
                    "a": 1.0
                }
            ],
            "CEADMLBENDH": 20028
        },
        {
            "crowdTypeID": 112,
            "spawnPosition": {
                "x": -2573.822998046875,
                "y": 202.0030059814453,
                "z": -3729.928955078125
            },
            "spawnFaceFwd": {
                "x": -0.12395305186510086,
                "z": -0.9922881126403809
            },
            "hairColor": {
                "r": 0.4274509847164154,
                "g": 0.37254902720451355,
                "b": 0.3019607961177826,
                "a": 1.0
            },
            "bodyColors": [
                {
                    "r": 0.9058823585510254,
                    "g": 0.7882353067398071,
                    "b": 0.7333333492279053,
                    "a": 1.0
                },
                {
                    "r": 0.22745098173618317,
                    "g": 0.2549019753932953,
                    "b": 0.33725491166114807,
                    "a": 1.0
                },
                {
                    "r": 0.3333333432674408,
                    "g": 0.364705890417099,
                    "b": 0.43529412150382996,
                    "a": 1.0
                },
                {
                    "r": 0.6352941393852234,
                    "g": 0.6196078658103943,
                    "b": 0.6549019813537598,
                    "a": 1.0
                }
            ],
            "CEADMLBENDH": 20029
        },
        {
            "crowdTypeID": 133,
            "animConfigID": 1,
            "spawnPosition": {
                "x": -2550.919921875,
                "y": 202.00950622558594,
                "z": -3743.406005859375
            },
            "spawnFaceFwd": {
                "x": 0.6272727847099304,
                "z": 0.7787995934486389
            },
            "hairColor": {
                "r": 0.25882354378700256,
                "g": 0.25882354378700256,
                "b": 0.25882354378700256,
                "a": 1.0
            },
            "bodyColors": [
                {
                    "r": 0.7921568751335144,
                    "g": 0.6549019813537598,
                    "b": 0.5843137502670288,
                    "a": 1.0
                },
                {
                    "r": 0.4156862795352936,
                    "g": 0.45490196347236633,
                    "b": 0.4745098054409027,
                    "a": 1.0
                },
                {
                    "r": 0.6352941393852234,
                    "g": 0.6117647290229797,
                    "b": 0.5921568870544434,
                    "a": 1.0
                },
                {
                    "r": 0.2980392277240753,
                    "g": 0.27450981736183167,
                    "b": 0.25882354378700256,
                    "a": 1.0
                }
            ],
            "CEADMLBENDH": 20030
        },
        {
            "crowdTypeID": 148,
            "spawnPosition": {
                "x": -2549.568115234375,
                "y": 202.02420043945312,
                "z": -3742.952880859375
            },
            "spawnFaceFwd": {
                "x": -0.9731538891792297,
                "z": 0.23015540838241577
            },
            "hairColor": {
                "r": 0.29019609093666077,
                "g": 0.3176470696926117,
                "b": 0.3529411852359772,
                "a": 1.0
            },
            "bodyColors": [
                {
                    "r": 0.7921568751335144,
                    "g": 0.6549019813537598,
                    "b": 0.5843137502670288,
                    "a": 1.0
                },
                {
                    "r": 0.7450980544090271,
                    "g": 0.6941176652908325,
                    "b": 0.6431372761726379,
                    "a": 1.0
                },
                {
                    "r": 0.34117648005485535,
                    "g": 0.2666666805744171,
                    "b": 0.24705882370471954,
                    "a": 1.0
                },
                {
                    "r": 0.48627451062202454,
                    "g": 0.38823530077934265,
                    "b": 0.3019607961177826,
                    "a": 1.0
                }
            ],
            "CEADMLBENDH": 20031
        },
        {
            "crowdTypeID": 150,
            "spawnPosition": {
                "x": -2549.81591796875,
                "y": 202.0095977783203,
                "z": -3741.72900390625
            },
            "spawnFaceFwd": {
                "x": -0.41024452447891235,
                "z": -0.9119755029678345
            },
            "hairColor": {
                "r": 0.29019609093666077,
                "g": 0.3176470696926117,
                "b": 0.3529411852359772,
                "a": 1.0
            },
            "bodyColors": [
                {
                    "r": 0.7921568751335144,
                    "g": 0.6549019813537598,
                    "b": 0.5843137502670288,
                    "a": 1.0
                },
                {
                    "r": 0.5803921818733215,
                    "g": 0.5803921818733215,
                    "b": 0.48627451062202454,
                    "a": 1.0
                },
                {
                    "r": 0.35686275362968445,
                    "g": 0.29411765933036804,
                    "b": 0.239215686917305,
                    "a": 1.0
                },
                {
                    "r": 0.2980392277240753,
                    "g": 0.2823529541492462,
                    "b": 0.27843138575553894,
                    "a": 1.0
                }
            ],
            "CEADMLBENDH": 20032
        },
        {
            "crowdTypeID": 160,
            "spawnPosition": {
                "x": -2577.47412109375,
                "y": 201.68069458007812,
                "z": -3755.18603515625
            },
            "spawnFaceFwd": {
                "x": 0.7874279618263245,
                "z": -0.6164066791534424
            },
            "hairColor": {
                "r": 0.3960784375667572,
                "g": 0.27843138575553894,
                "b": 0.1882352977991104,
                "a": 1.0
            },
            "bodyColors": [
                {
                    "r": 0.9058823585510254,
                    "g": 0.7882353067398071,
                    "b": 0.7333333492279053,
                    "a": 1.0
                },
                {
                    "r": 0.4156862795352936,
                    "g": 0.45490196347236633,
                    "b": 0.4745098054409027,
                    "a": 1.0
                },
                {
                    "r": 0.6352941393852234,
                    "g": 0.6117647290229797,
                    "b": 0.5921568870544434,
                    "a": 1.0
                },
                {
                    "r": 0.2980392277240753,
                    "g": 0.27450981736183167,
                    "b": 0.25882354378700256,
                    "a": 1.0
                }
            ],
            "CEADMLBENDH": 20035
        },
        {
            "crowdTypeID": 133,
            "animConfigID": 1,
            "spawnPosition": {
                "x": -2577.340087890625,
                "y": 201.68069458007812,
                "z": -3753.4619140625
            },
            "spawnFaceFwd": {
                "x": 0.005759596358984709,
                "z": -0.9999833106994629
            },
            "hairColor": {
                "r": 0.25882354378700256,
                "g": 0.25882354378700256,
                "b": 0.25882354378700256,
                "a": 1.0
            },
            "bodyColors": [
                {
                    "r": 0.9058823585510254,
                    "g": 0.7882353067398071,
                    "b": 0.7333333492279053,
                    "a": 1.0
                },
                {
                    "r": 0.7450980544090271,
                    "g": 0.6941176652908325,
                    "b": 0.6431372761726379,
                    "a": 1.0
                },
                {
                    "r": 0.34117648005485535,
                    "g": 0.2666666805744171,
                    "b": 0.24705882370471954,
                    "a": 1.0
                },
                {
                    "r": 0.48627451062202454,
                    "g": 0.38823530077934265,
                    "b": 0.3019607961177826,
                    "a": 1.0
                }
            ],
            "CEADMLBENDH": 20036
        },
        {
            "crowdTypeID": 139,
            "animConfigID": 7,
            "spawnPosition": {
                "x": -2587.89111328125,
                "y": 214.30270385742188,
                "z": -3825.81689453125
            },
            "spawnFaceFwd": {
                "x": 4.9026803026208654e-05,
                "z": -1.0
            },
            "hairColor": {
                "r": 0.25882354378700256,
                "g": 0.25882354378700256,
                "b": 0.25882354378700256,
                "a": 1.0
            },
            "bodyColors": [
                {
                    "r": 0.9333333373069763,
                    "g": 0.8666666746139526,
                    "b": 0.843137264251709,
                    "a": 1.0
                },
                {
                    "r": 0.5803921818733215,
                    "g": 0.5803921818733215,
                    "b": 0.48627451062202454,
                    "a": 1.0
                },
                {
                    "r": 0.35686275362968445,
                    "g": 0.29411765933036804,
                    "b": 0.239215686917305,
                    "a": 1.0
                },
                {
                    "r": 0.2980392277240753,
                    "g": 0.2823529541492462,
                    "b": 0.27843138575553894,
                    "a": 1.0
                }
            ],
            "CEADMLBENDH": 20043
        },
        {
            "crowdTypeID": 142,
            "animConfigID": 1,
            "spawnPosition": {
                "x": -2585.493896484375,
                "y": 214.30270385742188,
                "z": -3823.991943359375
            },
            "spawnFaceFwd": {
                "x": -0.8010332584381104,
                "z": -0.5986199378967285
            },
            "hairColor": {
                "r": 0.29019609093666077,
                "g": 0.3176470696926117,
                "b": 0.3529411852359772,
                "a": 1.0
            },
            "bodyColors": [
                {
                    "r": 0.9333333373069763,
                    "g": 0.8666666746139526,
                    "b": 0.843137264251709,
                    "a": 1.0
                },
                {
                    "r": 0.4156862795352936,
                    "g": 0.45490196347236633,
                    "b": 0.4745098054409027,
                    "a": 1.0
                },
                {
                    "r": 0.6352941393852234,
                    "g": 0.6117647290229797,
                    "b": 0.5921568870544434,
                    "a": 1.0
                },
                {
                    "r": 0.2980392277240753,
                    "g": 0.27450981736183167,
                    "b": 0.25882354378700256,
                    "a": 1.0
                }
            ],
            "CEADMLBENDH": 20044
        },
        {
            "crowdTypeID": 133,
            "animConfigID": 1,
            "spawnPosition": {
                "x": -2633.205078125,
                "y": 201.952392578125,
                "z": -3768.7119140625
            },
            "spawnFaceFwd": {
                "z": 1.0
            },
            "hairColor": {
                "r": 0.29019609093666077,
                "g": 0.3176470696926117,
                "b": 0.3529411852359772,
                "a": 1.0
            },
            "bodyColors": [
                {
                    "r": 0.9058823585510254,
                    "g": 0.7882353067398071,
                    "b": 0.7333333492279053,
                    "a": 1.0
                },
                {
                    "r": 0.4156862795352936,
                    "g": 0.45490196347236633,
                    "b": 0.4745098054409027,
                    "a": 1.0
                },
                {
                    "r": 0.6352941393852234,
                    "g": 0.6117647290229797,
                    "b": 0.5921568870544434,
                    "a": 1.0
                },
                {
                    "r": 0.2980392277240753,
                    "g": 0.27450981736183167,
                    "b": 0.25882354378700256,
                    "a": 1.0
                }
            ],
            "CEADMLBENDH": 20048
        },
        {
            "crowdTypeID": 150,
            "spawnPosition": {
                "x": -2632.929931640625,
                "y": 201.95399475097656,
                "z": -3767.427978515625
            },
            "spawnFaceFwd": {
                "x": -0.11743169277906418,
                "z": -0.9930808544158936
            },
            "hairColor": {
                "r": 0.25882354378700256,
                "g": 0.25882354378700256,
                "b": 0.25882354378700256,
                "a": 1.0
            },
            "bodyColors": [
                {
                    "r": 0.9058823585510254,
                    "g": 0.7882353067398071,
                    "b": 0.7333333492279053,
                    "a": 1.0
                },
                {
                    "r": 0.45098039507865906,
                    "g": 0.3843137323856354,
                    "b": 0.34117648005485535,
                    "a": 1.0
                },
                {
                    "r": 0.239215686917305,
                    "g": 0.2549019753932953,
                    "b": 0.3294117748737335,
                    "a": 1.0
                },
                {
                    "r": 0.4117647111415863,
                    "g": 0.40392157435417175,
                    "b": 0.4274509847164154,
                    "a": 1.0
                }
            ],
            "CEADMLBENDH": 20049
        },
        {
            "crowdTypeID": 161,
            "spawnPosition": {
                "x": -2582.7490234375,
                "y": 206.3258056640625,
                "z": -3761.653076171875
            },
            "spawnFaceFwd": {
                "x": -0.8146596550941467,
                "z": 0.5799393653869629
            },
            "hairColor": {
                "r": 0.3960784375667572,
                "g": 0.27843138575553894,
                "b": 0.1882352977991104,
                "a": 1.0
            },
            "bodyColors": [
                {
                    "r": 0.9333333373069763,
                    "g": 0.8666666746139526,
                    "b": 0.843137264251709,
                    "a": 1.0
                },
                {
                    "r": 0.5803921818733215,
                    "g": 0.5803921818733215,
                    "b": 0.48627451062202454,
                    "a": 1.0
                },
                {
                    "r": 0.35686275362968445,
                    "g": 0.29411765933036804,
                    "b": 0.239215686917305,
                    "a": 1.0
                },
                {
                    "r": 0.2980392277240753,
                    "g": 0.2823529541492462,
                    "b": 0.27843138575553894,
                    "a": 1.0
                }
            ],
            "CEADMLBENDH": 20050
        },
        {
            "crowdTypeID": 131,
            "spawnPosition": {
                "x": -2520.0458984375,
                "y": 201.38900756835938,
                "z": -3780.14794921875
            },
            "spawnFaceFwd": {
                "x": -0.996673047542572,
                "z": -0.08150351047515869
            },
            "hairColor": {
                "r": 0.25882354378700256,
                "g": 0.25882354378700256,
                "b": 0.25882354378700256,
                "a": 1.0
            },
            "bodyColors": [
                {
                    "r": 0.7921568751335144,
                    "g": 0.6549019813537598,
                    "b": 0.5843137502670288,
                    "a": 1.0
                },
                {
                    "r": 0.3176470696926117,
                    "g": 0.2666666805744171,
                    "b": 0.23137255012989044,
                    "a": 1.0
                },
                {
                    "r": 0.7411764860153198,
                    "g": 0.686274528503418,
                    "b": 0.615686297416687,
                    "a": 1.0
                },
                {
                    "r": 0.545098066329956,
                    "g": 0.3529411852359772,
                    "b": 0.37254902720451355,
                    "a": 1.0
                }
            ],
            "CEADMLBENDH": 20051
        },
        {
            "crowdTypeID": 132,
            "animConfigID": 1,
            "spawnPosition": {
                "x": -2521.2529296875,
                "y": 201.43719482421875,
                "z": -3780.23291015625
            },
            "spawnFaceFwd": {
                "x": 0.9946616291999817,
                "z": 0.10319006443023682
            },
            "hairColor": {
                "r": 0.29019609093666077,
                "g": 0.3176470696926117,
                "b": 0.3529411852359772,
                "a": 1.0
            },
            "bodyColors": [
                {
                    "r": 0.7921568751335144,
                    "g": 0.6549019813537598,
                    "b": 0.5843137502670288,
                    "a": 1.0
                },
                {
                    "r": 0.5803921818733215,
                    "g": 0.5803921818733215,
                    "b": 0.48627451062202454,
                    "a": 1.0
                },
                {
                    "r": 0.35686275362968445,
                    "g": 0.29411765933036804,
                    "b": 0.239215686917305,
                    "a": 1.0
                },
                {
                    "r": 0.2980392277240753,
                    "g": 0.2823529541492462,
                    "b": 0.27843138575553894,
                    "a": 1.0
                }
            ],
            "CEADMLBENDH": 20052
        },
        {
            "crowdTypeID": 148,
            "spawnPosition": {
                "x": -2546.679931640625,
                "y": 201.99830627441406,
                "z": -3770.514892578125
            },
            "spawnFaceFwd": {
                "x": 0.22969813644886017,
                "z": 0.9732618927955627
            },
            "hairColor": {
                "r": 0.4274509847164154,
                "g": 0.37254902720451355,
                "b": 0.3019607961177826,
                "a": 1.0
            },
            "bodyColors": [
                {
                    "r": 0.7921568751335144,
                    "g": 0.6549019813537598,
                    "b": 0.5843137502670288,
                    "a": 1.0
                },
                {
                    "r": 0.7450980544090271,
                    "g": 0.6941176652908325,
                    "b": 0.6431372761726379,
                    "a": 1.0
                },
                {
                    "r": 0.34117648005485535,
                    "g": 0.2666666805744171,
                    "b": 0.24705882370471954,
                    "a": 1.0
                },
                {
                    "r": 0.48627451062202454,
                    "g": 0.38823530077934265,
                    "b": 0.3019607961177826,
                    "a": 1.0
                }
            ],
            "CEADMLBENDH": 20053
        },
        {
            "crowdTypeID": 133,
            "spawnPosition": {
                "x": -2546.375,
                "y": 201.99839782714844,
                "z": -3768.805908203125
            },
            "spawnFaceFwd": {
                "x": -0.24025698006153107,
                "z": -0.9707093238830566
            },
            "hairColor": {
                "r": 0.29019609093666077,
                "g": 0.3176470696926117,
                "b": 0.3529411852359772,
                "a": 1.0
            },
            "bodyColors": [
                {
                    "r": 0.7921568751335144,
                    "g": 0.6549019813537598,
                    "b": 0.5843137502670288,
                    "a": 1.0
                },
                {
                    "r": 0.2549019753932953,
                    "g": 0.30980393290519714,
                    "b": 0.3921568691730499,
                    "a": 1.0
                },
                {
                    "r": 0.6313725709915161,
                    "g": 0.6274510025978088,
                    "b": 0.658823549747467,
                    "a": 1.0
                },
                {
                    "r": 0.34117648005485535,
                    "g": 0.3529411852359772,
                    "b": 0.4000000059604645,
                    "a": 1.0
                }
            ],
            "CEADMLBENDH": 20054
        }
    ]
}