{
    "crowdSpawnInfos": [
        {
            "crowdTypeID": 277,
            "spawnPosition": {
                "x": -444.8369140625,
                "y": 240.2904052734375,
                "z": 2713.944091796875
            },
            "spawnFaceFwd": {
                "x": 0.8708967566490173,
                "z": -0.49146604537963867
            },
            "hairColor": {
                "r": 0.8392156958580017,
                "g": 0.8392156958580017,
                "b": 0.8392156958580017,
                "a": 1.0
            },
            "bodyColors": [
                {
                    "r": 0.7921568751335144,
                    "g": 0.6549019813537598,
                    "b": 0.5843137502670288,
                    "a": 1.0
                },
                {
                    "r": 0.3686274588108063,
                    "g": 0.4588235318660736,
                    "b": 0.3294117748737335,
                    "a": 1.0
                },
                {
                    "r": 0.33725491166114807,
                    "g": 0.3019607961177826,
                    "b": 0.09019608050584793,
                    "a": 1.0
                },
                {
                    "r": 0.729411780834198,
                    "g": 0.7372549176216125,
                    "b": 0.5921568870544434,
                    "a": 1.0
                }
            ],
            "CEADMLBENDH": 80001
        },
        {
            "crowdTypeID": 301,
            "spawnPosition": {
                "x": -443.94158935546875,
                "y": 240.2904052734375,
                "z": 2713.25390625
            },
            "spawnFaceFwd": {
                "x": -0.8086671829223633,
                "z": 0.5882664322853088
            },
            "hairColor": {
                "r": 0.3960784375667572,
                "g": 0.27843138575553894,
                "b": 0.1882352977991104,
                "a": 1.0
            },
            "bodyColors": [
                {
                    "r": 0.9058823585510254,
                    "g": 0.7882353067398071,
                    "b": 0.7333333492279053,
                    "a": 1.0
                },
                {
                    "r": 0.7803921699523926,
                    "g": 0.7215686440467834,
                    "b": 0.6666666865348816,
                    "a": 1.0
                },
                {
                    "r": 0.3490196168422699,
                    "g": 0.25882354378700256,
                    "b": 0.20392157137393951,
                    "a": 1.0
                },
                {
                    "r": 0.572549045085907,
                    "g": 0.4000000059604645,
                    "b": 0.25882354378700256,
                    "a": 1.0
                }
            ],
            "CEADMLBENDH": 80002
        },
        {
            "crowdTypeID": 283,
            "spawnPosition": {
                "x": -456.7539978027344,
                "y": 240.26730346679688,
                "z": 2710.492919921875
            },
            "spawnFaceFwd": {
                "x": 0.907958984375,
                "z": 0.41905903816223145
            },
            "hairColor": {
                "r": 0.3960784375667572,
                "g": 0.27843138575553894,
                "b": 0.1882352977991104,
                "a": 1.0
            },
            "bodyColors": [
                {
                    "r": 1.0,
                    "g": 1.0,
                    "b": 1.0,
                    "a": 1.0
                },
                {
                    "r": 1.0,
                    "g": 1.0,
                    "b": 1.0,
                    "a": 1.0
                },
                {
                    "r": 1.0,
                    "g": 1.0,
                    "b": 1.0,
                    "a": 1.0
                },
                {
                    "r": 1.0,
                    "g": 1.0,
                    "b": 1.0,
                    "a": 1.0
                }
            ],
            "CEADMLBENDH": 80003
        },
        {
            "crowdTypeID": 307,
            "spawnPosition": {
                "x": -455.70831298828125,
                "y": 240.26820373535156,
                "z": 2710.97509765625
            },
            "spawnFaceFwd": {
                "x": -0.8821006417274475,
                "z": -0.471061110496521
            },
            "hairColor": {
                "r": 0.5,
                "g": 0.5,
                "b": 0.5,
                "a": 1.0
            },
            "bodyColors": [
                {
                    "r": 1.0,
                    "g": 1.0,
                    "b": 1.0,
                    "a": 1.0
                },
                {
                    "r": 1.0,
                    "g": 1.0,
                    "b": 1.0,
                    "a": 1.0
                },
                {
                    "r": 1.0,
                    "g": 1.0,
                    "b": 1.0,
                    "a": 1.0
                },
                {
                    "r": 1.0,
                    "g": 1.0,
                    "b": 1.0,
                    "a": 1.0
                }
            ],
            "CEADMLBENDH": 80004
        },
        {
            "crowdTypeID": 323,
            "spawnPosition": {
                "x": -438.1495056152344,
                "y": 239.54330444335938,
                "z": 2726.345947265625
            },
            "spawnFaceFwd": {
                "x": -0.943394660949707,
                "z": 0.3316722512245178
            },
            "hairColor": {
                "r": 0.4274509847164154,
                "g": 0.37254902720451355,
                "b": 0.3019607961177826,
                "a": 1.0
            },
            "bodyColors": [
                {
                    "r": 1.0,
                    "g": 1.0,
                    "b": 1.0,
                    "a": 1.0
                },
                {
                    "r": 1.0,
                    "g": 1.0,
                    "b": 1.0,
                    "a": 1.0
                },
                {
                    "r": 1.0,
                    "g": 1.0,
                    "b": 1.0,
                    "a": 1.0
                },
                {
                    "r": 1.0,
                    "g": 1.0,
                    "b": 1.0,
                    "a": 1.0
                }
            ],
            "CEADMLBENDH": 80005
        }
    ]
}