{
    "normal": {
        "type": "VIDEO",
        "videoConfig": {
            "heroDiff": true,
            "videoName": "Cs_LiYue_LQ10310301_BreakThroughSpace_Boy.usm",
            "videoNameOther": "Cs_LiYue_LQ10310301_BreakThroughSpace_Girl.usm",
            "subtitleId": 300078,
            "subtitleIdOther": 300079,
            "MDFOLCOOJAH": true,
            "bgColor": {
                "a": 1.0
            },
            "fadeInDuration": 0.5,
            "fadeOutDuration": 0.5
        }
    }
}