{
    "normal": {
        "type": "VIDEO",
        "videoConfig": {
            "heroDiff": true,
            "videoName": "Cs_Sumeru_AQ_30280901_SKP_Boy.usm",
            "videoNameOther": "Cs_Sumeru_AQ_30280901_SKP_Girl.usm",
            "subtitleId": 300111,
            "subtitleIdOther": 300112,
            "CCJMEIEELAL": true,
            "bgColor": {
                "a": 1.0
            },
            "fadeInDuration": 1.5,
            "fadeOutDuration": 1.5
        }
    }
}