{
    "PEGAEKCDCPP": "",
    "startBlackKeepTime": 0.5,
    "GNKDILIOOFF": "",
    "disableNpcLod": true,
    "KNAEEINCCBG": true,
    "startFade": {
        "startFadeInDuration": 0.5,
        "startFadeOutDuration": 0.5
    },
    "endFade": {
        "startFadeOutDuration": 0.0
    },
    "actors": [
        {
            "alias": "Avatar",
            "visible": true,
            "bornPointName": "",
            "relativePosNpcAlias": ""
        },
        {
            "configID": 20657,
            "alias": "20657",
            "visible": true,
            "bornPointName": "",
            "relativePosNpcAlias": ""
        },
        {
            "configID": 20658,
            "alias": "20658",
            "visible": true,
            "bornPointName": "",
            "relativePosNpcAlias": ""
        }
    ],
    "group": [
        [
            {
                "$type": "ConfigTimeProtectAction",
                "type": "TIME_PROTECT",
                "duration": 0.10000000149011612
            }
        ],
        [
            {
                "$type": "ConfigDialogInterAction",
                "type": "DIALOG",
                "aliasList": [
                    "20657"
                ],
                "dialogID": 710980601,
                "protectTime": 0.5
            }
        ],
        [
            {
                "$type": "ConfigDialogInterAction",
                "type": "DIALOG",
                "aliasList": [
                    "20657"
                ],
                "dialogID": 710980602,
                "protectTime": 0.5
            }
        ],
        [
            {
                "$type": "ConfigDialogInterAction",
                "type": "DIALOG",
                "aliasList": [
                    "20657"
                ],
                "dialogID": 710980603,
                "protectTime": 0.5
            }
        ],
        [
            {
                "$type": "ConfigDialogInterAction",
                "type": "DIALOG",
                "aliasList": [
                    "20657"
                ],
                "dialogID": 710980604,
                "protectTime": 0.5
            }
        ],
        [
            {
                "$type": "ConfigDialogInterAction",
                "type": "DIALOG",
                "aliasList": [
                    "20657"
                ],
                "dialogID": 710980605,
                "protectTime": 0.5
            }
        ],
        [
            {
                "$type": "ConfigDialogInterAction",
                "type": "DIALOG",
                "aliasList": [
                    "20657"
                ],
                "dialogID": 710980606,
                "protectTime": 0.5
            }
        ],
        [
            {
                "$type": "ConfigDialogInterAction",
                "type": "DIALOG",
                "aliasList": [
                    "20657"
                ],
                "dialogID": 710980607,
                "protectTime": 0.5
            }
        ],
        [
            {
                "$type": "ConfigDialogInterAction",
                "type": "DIALOG",
                "aliasList": [
                    "20657"
                ],
                "dialogID": 710980608,
                "protectTime": 0.5
            }
        ],
        [
            {
                "$type": "ConfigDialogInterAction",
                "type": "DIALOG",
                "aliasList": [
                    "20657"
                ],
                "dialogID": 710980609,
                "protectTime": 0.5
            }
        ],
        [
            {
                "$type": "ConfigDialogInterAction",
                "type": "DIALOG",
                "aliasList": [
                    "20657"
                ],
                "dialogID": 710980610,
                "protectTime": 0.5
            }
        ],
        [
            {
                "$type": "ConfigTimeProtectAction",
                "type": "TIME_PROTECT",
                "duration": 0.10000000149011612
            },
            {
                "$type": "ConfigSimpleBlackScreenAction",
                "type": "SIMPLE_BLACK_SCREEN",
                "durationToBlack": 0.5,
                "durationKeepBlack": 1.0,
                "durationFromBlack": 0.5,
                "textMapID": ""
            },
            {
                "$type": "ConfigTimeProtectAction",
                "type": "TIME_PROTECT",
                "duration": 0.699999988079071
            }
        ]
    ],
    "groupId": [
        {
            "grpId": 63796612,
            "nextGrpId": 63796613
        },
        {
            "index": 1,
            "grpId": 63796613,
            "nextGrpId": 63796614
        },
        {
            "index": 2,
            "grpId": 63796614,
            "nextGrpId": 63796615
        },
        {
            "index": 3,
            "grpId": 63796615,
            "nextGrpId": 63796616
        },
        {
            "index": 4,
            "grpId": 63796616,
            "nextGrpId": 63796617
        },
        {
            "index": 5,
            "grpId": 63796617,
            "nextGrpId": 63796618
        },
        {
            "index": 6,
            "grpId": 63796618,
            "nextGrpId": 63796619
        },
        {
            "index": 7,
            "grpId": 63796619,
            "nextGrpId": 63796620
        },
        {
            "index": 8,
            "grpId": 63796620,
            "nextGrpId": 1977695020
        },
        {
            "index": 9,
            "grpId": 1977695020,
            "nextGrpId": 1977695021
        },
        {
            "index": 10,
            "grpId": 1977695021,
            "nextGrpId": 1977695022
        },
        {
            "index": 11,
            "grpId": 1977695022,
            "nextGrpId": 1977695023
        }
    ],
    "freeStyleDic": {
        "20657": [],
        "20658": []
    }
}