{
    "PEGAEKCDCPP": "",
    "isSimpleTalk": true,
    "GNKDILIOOFF": "",
    "disableNpcLod": true,
    "startFade": {
        "startFadeOutDuration": 0.0
    },
    "endFade": {
        "startFadeOutDuration": 0.0
    },
    "actors": [
        {
            "alias": "Avatar",
            "visible": true,
            "bornPointName": "",
            "relativePosNpcAlias": ""
        },
        {
            "configID": 20447,
            "alias": "20447",
            "visible": true,
            "bornPointName": "",
            "relativePosNpcAlias": ""
        },
        {
            "configID": 20446,
            "alias": "20446",
            "visible": true,
            "bornPointName": "",
            "relativePosNpcAlias": ""
        }
    ],
    "group": [
        [
            {
                "$type": "ConfigTimeProtectAction",
                "type": "TIME_PROTECT",
                "duration": 0.10000000149011612
            },
            {
                "$type": "ConfigCameraMoveInterAction",
                "type": "CAMERA_FOCUS",
                "duration": 0.10000000149011612,
                "targetNpcAlias": ""
            }
        ],
        [
            {
                "$type": "ConfigDialogInterAction",
                "type": "DIALOG",
                "aliasList": [
                    "20447"
                ],
                "dialogID": 721663201,
                "protectTime": 0.5
            }
        ],
        [
            {
                "$type": "ConfigDialogInterAction",
                "type": "DIALOG",
                "aliasList": [
                    "20446"
                ],
                "dialogID": 721663202,
                "protectTime": 0.5
            }
        ],
        [
            {
                "$type": "ConfigDialogInterAction",
                "type": "DIALOG",
                "aliasList": [
                    "20446"
                ],
                "dialogID": 721663203,
                "protectTime": 0.5
            }
        ],
        [
            {
                "$type": "ConfigDialogInterAction",
                "type": "DIALOG",
                "aliasList": [
                    "20447"
                ],
                "dialogID": 721663204,
                "protectTime": 0.5
            }
        ],
        [
            {
                "$type": "ConfigDialogInterAction",
                "type": "DIALOG",
                "aliasList": [
                    "20447"
                ],
                "dialogID": 721663205,
                "protectTime": 0.5
            }
        ],
        [
            {
                "$type": "ConfigDialogInterAction",
                "type": "DIALOG",
                "aliasList": [
                    "20447"
                ],
                "dialogID": 721663206,
                "protectTime": 0.5
            }
        ],
        [
            {
                "$type": "ConfigDialogInterAction",
                "type": "DIALOG",
                "aliasList": [
                    "20446"
                ],
                "dialogID": 721663207,
                "protectTime": 0.5
            }
        ],
        [
            {
                "$type": "ConfigTimeProtectAction",
                "type": "TIME_PROTECT",
                "duration": 0.10000000149011612
            }
        ]
    ],
    "groupId": [
        {
            "grpId": 2606461662,
            "nextGrpId": 2606461663
        },
        {
            "index": 1,
            "grpId": 2606461663,
            "nextGrpId": 2606461664
        },
        {
            "index": 2,
            "grpId": 2606461664,
            "nextGrpId": 2606461665
        },
        {
            "index": 3,
            "grpId": 2606461665,
            "nextGrpId": 2606461666
        },
        {
            "index": 4,
            "grpId": 2606461666,
            "nextGrpId": 2606461667
        },
        {
            "index": 5,
            "grpId": 2606461667,
            "nextGrpId": 2606461668
        },
        {
            "index": 6,
            "grpId": 2606461668,
            "nextGrpId": 2606461669
        },
        {
            "index": 7,
            "grpId": 2606461669,
            "nextGrpId": 2606461670
        },
        {
            "index": 8,
            "grpId": 2606461670,
            "nextGrpId": 3490900242
        }
    ],
    "freeStyleDic": {
        "20447": [],
        "20446": []
    }
}