{
    "PEGAEKCDCPP": "",
    "startBlackKeepTime": 0.5,
    "GNKDILIOOFF": "",
    "disableNpcLod": true,
    "startFade": {
        "startFadeInDuration": 0.5,
        "startFadeOutDuration": 0.5
    },
    "endFade": {
        "startFadeOutDuration": 0.0
    },
    "actors": [
        {
            "alias": "Avatar",
            "visible": true,
            "bornPointName": "",
            "relativePosNpcAlias": ""
        },
        {
            "configID": 20527,
            "alias": "20527",
            "visible": true,
            "bornPointName": "",
            "relativePosNpcAlias": ""
        },
        {
            "configID": 1005,
            "alias": "1005",
            "visible": true,
            "bornPointName": "",
            "useRelativePos": true,
            "relativePos": {
                "x": -0.5,
                "z": 0.5
            },
            "removeActorType": "REMOVE_WITH_DISAPPEAR",
            "relativePosNpcAlias": ""
        }
    ],
    "group": [
        [
            {
                "$type": "ConfigTimeProtectAction",
                "type": "TIME_PROTECT",
                "duration": 0.10000000149011612
            }
        ],
        [
            {
                "$type": "ConfigDialogInterAction",
                "type": "DIALOG",
                "aliasList": [
                    "20527"
                ],
                "dialogID": 710540101,
                "protectTime": 0.5
            }
        ],
        [
            {
                "$type": "ConfigDialogInterAction",
                "type": "DIALOG",
                "aliasList": [
                    "1005"
                ],
                "dialogID": 710540102,
                "protectTime": 0.5
            }
        ],
        [
            {
                "$type": "ConfigDialogInterAction",
                "type": "DIALOG",
                "aliasList": [
                    "20527"
                ],
                "dialogID": 710540103,
                "protectTime": 0.5
            }
        ],
        [
            {
                "$type": "ConfigDialogInterAction",
                "type": "DIALOG",
                "aliasList": [
                    "20527"
                ],
                "dialogID": 710540104,
                "protectTime": 0.5
            }
        ],
        [
            {
                "$type": "ConfigDialogInterAction",
                "type": "DIALOG",
                "aliasList": [
                    "1005"
                ],
                "dialogID": 710540105,
                "protectTime": 0.5
            }
        ],
        [
            {
                "$type": "ConfigDialogInterAction",
                "type": "DIALOG",
                "aliasList": [
                    "20527"
                ],
                "dialogID": 710540106,
                "protectTime": 0.5
            },
            {
                "$type": "ConfigDialogSelectAction",
                "type": "DIALOG_SELECT",
                "delayTime": 0.4000000059604645,
                "aliasList": [
                    "Avatar"
                ],
                "dialogIDList": [
                    710540107,
                    710540109
                ],
                "grpIDList": [
                    4240548422,
                    4240548423
                ],
                "useGrpId": true
            }
        ],
        [
            {
                "$type": "ConfigDialogInterAction",
                "type": "DIALOG",
                "aliasList": [
                    "20527"
                ],
                "dialogID": 710540108,
                "protectTime": 0.5
            }
        ],
        [
            {
                "$type": "ConfigDialogInterAction",
                "type": "DIALOG",
                "aliasList": [
                    "20527"
                ],
                "dialogID": 710540110,
                "protectTime": 0.5
            }
        ],
        [
            {
                "$type": "ConfigDialogInterAction",
                "type": "DIALOG",
                "aliasList": [
                    "1005"
                ],
                "dialogID": 710540111,
                "protectTime": 0.5
            }
        ],
        [
            {
                "$type": "ConfigDialogInterAction",
                "type": "DIALOG",
                "aliasList": [
                    "20527"
                ],
                "dialogID": 710540112,
                "protectTime": 0.5
            }
        ],
        [
            {
                "$type": "ConfigDialogInterAction",
                "type": "DIALOG",
                "aliasList": [
                    "20527"
                ],
                "dialogID": 710540113,
                "protectTime": 0.5
            }
        ],
        [
            {
                "$type": "ConfigDialogInterAction",
                "type": "DIALOG",
                "aliasList": [
                    "20527"
                ],
                "dialogID": 710540114,
                "protectTime": 0.5
            },
            {
                "$type": "ConfigDialogSelectAction",
                "type": "DIALOG_SELECT",
                "delayTime": 0.4000000059604645,
                "aliasList": [
                    "Avatar"
                ],
                "dialogIDList": [
                    710540115
                ],
                "grpIDList": [
                    2607982037
                ],
                "useGrpId": true
            }
        ],
        [
            {
                "$type": "ConfigDialogInterAction",
                "type": "DIALOG",
                "aliasList": [
                    "20527"
                ],
                "dialogID": 710540116,
                "protectTime": 0.5
            }
        ],
        [
            {
                "$type": "ConfigDialogInterAction",
                "type": "DIALOG",
                "aliasList": [
                    "1005"
                ],
                "dialogID": 710540117,
                "protectTime": 0.5
            }
        ],
        [
            {
                "$type": "ConfigDialogInterAction",
                "type": "DIALOG",
                "aliasList": [
                    "20527"
                ],
                "dialogID": 710540118,
                "protectTime": 0.5
            }
        ],
        [
            {
                "$type": "ConfigDialogInterAction",
                "type": "DIALOG",
                "aliasList": [
                    "20527"
                ],
                "dialogID": 710540119,
                "protectTime": 0.5
            }
        ],
        [
            {
                "$type": "ConfigDialogInterAction",
                "type": "DIALOG",
                "aliasList": [
                    "20527"
                ],
                "dialogID": 710540120,
                "protectTime": 0.5
            },
            {
                "$type": "ConfigDialogSelectAction",
                "type": "DIALOG_SELECT",
                "delayTime": 0.4000000059604645,
                "aliasList": [
                    "Avatar"
                ],
                "dialogIDList": [
                    710540121,
                    710540124
                ],
                "grpIDList": [
                    2607982042,
                    2607982065
                ],
                "useGrpId": true
            }
        ],
        [
            {
                "$type": "ConfigDialogInterAction",
                "type": "DIALOG",
                "aliasList": [
                    "20527"
                ],
                "dialogID": 710540122,
                "protectTime": 0.5
            }
        ],
        [
            {
                "$type": "ConfigDialogInterAction",
                "type": "DIALOG",
                "aliasList": [
                    "20527"
                ],
                "dialogID": 710540123,
                "protectTime": 0.5
            }
        ],
        [
            {
                "$type": "ConfigDialogInterAction",
                "type": "DIALOG",
                "aliasList": [
                    "20527"
                ],
                "dialogID": 710540125,
                "protectTime": 0.5
            }
        ],
        [
            {
                "$type": "ConfigDialogInterAction",
                "type": "DIALOG",
                "aliasList": [
                    "20527"
                ],
                "dialogID": 710540126,
                "protectTime": 0.5
            }
        ],
        [
            {
                "$type": "ConfigDialogInterAction",
                "type": "DIALOG",
                "aliasList": [
                    "1005"
                ],
                "dialogID": 710540127,
                "protectTime": 0.5
            }
        ],
        [
            {
                "$type": "ConfigDialogInterAction",
                "type": "DIALOG",
                "aliasList": [
                    "20527"
                ],
                "dialogID": 710540128,
                "protectTime": 0.5
            }
        ],
        [
            {
                "$type": "ConfigDialogInterAction",
                "type": "DIALOG",
                "aliasList": [
                    "20527"
                ],
                "dialogID": 710540129,
                "protectTime": 0.5
            },
            {
                "$type": "ConfigDialogSelectAction",
                "type": "DIALOG_SELECT",
                "delayTime": 0.4000000059604645,
                "aliasList": [
                    "Avatar"
                ],
                "dialogIDList": [
                    710540130,
                    710540132
                ],
                "grpIDList": [
                    2607982070,
                    2607982071
                ],
                "useGrpId": true
            }
        ],
        [
            {
                "$type": "ConfigDialogInterAction",
                "type": "DIALOG",
                "aliasList": [
                    "20527"
                ],
                "dialogID": 710540131,
                "protectTime": 0.5
            }
        ],
        [
            {
                "$type": "ConfigDialogInterAction",
                "type": "DIALOG",
                "aliasList": [
                    "20527"
                ],
                "dialogID": 710540133,
                "protectTime": 0.5
            }
        ],
        [
            {
                "$type": "ConfigDialogInterAction",
                "type": "DIALOG",
                "aliasList": [
                    "1005"
                ],
                "dialogID": 710540134,
                "protectTime": 0.5
            }
        ],
        [
            {
                "$type": "ConfigDialogInterAction",
                "type": "DIALOG",
                "aliasList": [
                    "20527"
                ],
                "dialogID": 710540135,
                "protectTime": 0.5
            }
        ],
        [
            {
                "$type": "ConfigDialogInterAction",
                "type": "DIALOG",
                "aliasList": [
                    "1005"
                ],
                "dialogID": 710540136,
                "protectTime": 0.5
            },
            {
                "$type": "ConfigDialogSelectAction",
                "type": "DIALOG_SELECT",
                "delayTime": 0.4000000059604645,
                "aliasList": [
                    "Avatar"
                ],
                "dialogIDList": [
                    710540137,
                    710540138
                ],
                "grpIDList": [
                    2607982096,
                    2607982096
                ],
                "useGrpId": true
            }
        ],
        [
            {
                "$type": "ConfigDialogInterAction",
                "type": "DIALOG",
                "aliasList": [
                    "20527"
                ],
                "dialogID": 710540139,
                "protectTime": 0.5
            }
        ],
        [
            {
                "$type": "ConfigDialogInterAction",
                "type": "DIALOG",
                "aliasList": [
                    "20527"
                ],
                "dialogID": 710540140,
                "protectTime": 0.5
            }
        ],
        [
            {
                "$type": "ConfigDialogInterAction",
                "type": "DIALOG",
                "aliasList": [
                    "1005"
                ],
                "dialogID": 710540141,
                "protectTime": 0.5
            },
            {
                "$type": "ConfigDialogSelectAction",
                "type": "DIALOG_SELECT",
                "delayTime": 0.4000000059604645,
                "aliasList": [
                    "Avatar"
                ],
                "dialogIDList": [
                    710540142,
                    710540144
                ],
                "grpIDList": [
                    2607982099,
                    2607982100
                ],
                "useGrpId": true
            }
        ],
        [
            {
                "$type": "ConfigDialogInterAction",
                "type": "DIALOG",
                "aliasList": [
                    "1005"
                ],
                "dialogID": 710540143,
                "protectTime": 0.5
            }
        ],
        [
            {
                "$type": "ConfigDialogInterAction",
                "type": "DIALOG",
                "aliasList": [
                    "1005"
                ],
                "dialogID": 710540145,
                "protectTime": 0.5
            }
        ],
        [
            {
                "$type": "ConfigDialogInterAction",
                "type": "DIALOG",
                "aliasList": [
                    "20527"
                ],
                "dialogID": 710540146,
                "protectTime": 0.5
            }
        ],
        [
            {
                "$type": "ConfigDialogInterAction",
                "type": "DIALOG",
                "aliasList": [
                    "20527"
                ],
                "dialogID": 710540147,
                "protectTime": 0.5
            }
        ],
        [
            {
                "$type": "ConfigDialogInterAction",
                "type": "DIALOG",
                "aliasList": [
                    "20527"
                ],
                "dialogID": 710540148,
                "protectTime": 0.5
            },
            {
                "$type": "ConfigDialogSelectAction",
                "type": "DIALOG_SELECT",
                "delayTime": 0.4000000059604645,
                "aliasList": [
                    "Avatar"
                ],
                "dialogIDList": [
                    710540149
                ],
                "grpIDList": [
                    2607982104
                ],
                "useGrpId": true
            }
        ],
        [
            {
                "$type": "ConfigDialogInterAction",
                "type": "DIALOG",
                "aliasList": [
                    "20527"
                ],
                "dialogID": 710540150,
                "protectTime": 0.5
            }
        ],
        [
            {
                "$type": "ConfigDialogInterAction",
                "type": "DIALOG",
                "aliasList": [
                    "20527"
                ],
                "dialogID": 710540151,
                "protectTime": 0.5
            }
        ],
        [
            {
                "$type": "ConfigDialogInterAction",
                "type": "DIALOG",
                "aliasList": [
                    "1005"
                ],
                "dialogID": 710540152,
                "protectTime": 0.5
            }
        ],
        [
            {
                "$type": "ConfigDialogInterAction",
                "type": "DIALOG",
                "aliasList": [
                    "20527"
                ],
                "dialogID": 710540153,
                "protectTime": 0.5
            }
        ],
        [
            {
                "$type": "ConfigDialogInterAction",
                "type": "DIALOG",
                "aliasList": [
                    "1005"
                ],
                "dialogID": 710540154,
                "protectTime": 0.5
            },
            {
                "$type": "ConfigDialogSelectAction",
                "type": "DIALOG_SELECT",
                "delayTime": 0.4000000059604645,
                "aliasList": [
                    "Avatar"
                ],
                "dialogIDList": [
                    710540155,
                    710540156
                ],
                "grpIDList": [
                    2607982130,
                    2607982130
                ],
                "useGrpId": true
            }
        ],
        [
            {
                "$type": "ConfigDialogInterAction",
                "type": "DIALOG",
                "aliasList": [
                    "20527"
                ],
                "dialogID": 710540157,
                "protectTime": 0.5
            }
        ],
        [
            {
                "$type": "ConfigDialogInterAction",
                "type": "DIALOG",
                "aliasList": [
                    "1005"
                ],
                "dialogID": 710540158,
                "protectTime": 0.5
            },
            {
                "$type": "ConfigDialogSelectAction",
                "type": "DIALOG_SELECT",
                "delayTime": 0.4000000059604645,
                "aliasList": [
                    "Avatar"
                ],
                "dialogIDList": [
                    710540159
                ],
                "grpIDList": [
                    2607982132
                ],
                "useGrpId": true
            }
        ],
        [
            {
                "$type": "ConfigDialogInterAction",
                "type": "DIALOG",
                "aliasList": [
                    "1005"
                ],
                "dialogID": 710540160,
                "protectTime": 0.5
            }
        ],
        [
            {
                "$type": "ConfigTimeProtectAction",
                "type": "TIME_PROTECT",
                "duration": 0.699999988079071
            },
            {
                "$type": "ConfigSimpleBlackScreenAction",
                "type": "SIMPLE_BLACK_SCREEN",
                "durationToBlack": 0.5,
                "durationKeepBlack": 1.0,
                "durationFromBlack": 0.5,
                "textMapID": ""
            },
            {
                "$type": "ConfigTimeProtectAction",
                "type": "TIME_PROTECT",
                "duration": 0.10000000149011612
            }
        ]
    ],
    "groupId": [
        {
            "grpId": 4240548415,
            "nextGrpId": 4240548416
        },
        {
            "index": 1,
            "grpId": 4240548416,
            "nextGrpId": 4240548417
        },
        {
            "index": 2,
            "grpId": 4240548417,
            "nextGrpId": 4240548418
        },
        {
            "index": 3,
            "grpId": 4240548418,
            "nextGrpId": 4240548419
        },
        {
            "index": 4,
            "grpId": 4240548419,
            "nextGrpId": 4240548420
        },
        {
            "index": 5,
            "grpId": 4240548420,
            "nextGrpId": 4240548421
        },
        {
            "index": 6,
            "grpId": 4240548421,
            "nextGrpId": 4240548422
        },
        {
            "index": 7,
            "grpId": 4240548422,
            "nextGrpId": 2607982034
        },
        {
            "index": 8,
            "grpId": 4240548423,
            "nextGrpId": 2607982033
        },
        {
            "index": 9,
            "grpId": 2607982033,
            "nextGrpId": 2607982034
        },
        {
            "index": 10,
            "grpId": 2607982034,
            "nextGrpId": 2607982035
        },
        {
            "index": 11,
            "grpId": 2607982035,
            "nextGrpId": 2607982036
        },
        {
            "index": 12,
            "grpId": 2607982036,
            "nextGrpId": 2607982037
        },
        {
            "index": 13,
            "grpId": 2607982037,
            "nextGrpId": 2607982038
        },
        {
            "index": 14,
            "grpId": 2607982038,
            "nextGrpId": 2607982039
        },
        {
            "index": 15,
            "grpId": 2607982039,
            "nextGrpId": 2607982040
        },
        {
            "index": 16,
            "grpId": 2607982040,
            "nextGrpId": 2607982041
        },
        {
            "index": 17,
            "grpId": 2607982041,
            "nextGrpId": 2607982042
        },
        {
            "index": 18,
            "grpId": 2607982042,
            "nextGrpId": 2607982064
        },
        {
            "index": 19,
            "grpId": 2607982064,
            "nextGrpId": 2607982066
        },
        {
            "index": 20,
            "grpId": 2607982065,
            "nextGrpId": 2607982066
        },
        {
            "index": 21,
            "grpId": 2607982066,
            "nextGrpId": 2607982067
        },
        {
            "index": 22,
            "grpId": 2607982067,
            "nextGrpId": 2607982068
        },
        {
            "index": 23,
            "grpId": 2607982068,
            "nextGrpId": 2607982069
        },
        {
            "index": 24,
            "grpId": 2607982069,
            "nextGrpId": 2607982070
        },
        {
            "index": 25,
            "grpId": 2607982070,
            "nextGrpId": 2607982072
        },
        {
            "index": 26,
            "grpId": 2607982071,
            "nextGrpId": 2607982072
        },
        {
            "index": 27,
            "grpId": 2607982072,
            "nextGrpId": 2607982073
        },
        {
            "index": 28,
            "grpId": 2607982073,
            "nextGrpId": 2607982095
        },
        {
            "index": 29,
            "grpId": 2607982095,
            "nextGrpId": 2607982096
        },
        {
            "index": 30,
            "grpId": 2607982096,
            "nextGrpId": 2607982097
        },
        {
            "index": 31,
            "grpId": 2607982097,
            "nextGrpId": 2607982098
        },
        {
            "index": 32,
            "grpId": 2607982098,
            "nextGrpId": 2607982099
        },
        {
            "index": 33,
            "grpId": 2607982099,
            "nextGrpId": 2607982101
        },
        {
            "index": 34,
            "grpId": 2607982100,
            "nextGrpId": 2607982101
        },
        {
            "index": 35,
            "grpId": 2607982101,
            "nextGrpId": 2607982102
        },
        {
            "index": 36,
            "grpId": 2607982102,
            "nextGrpId": 2607982103
        },
        {
            "index": 37,
            "grpId": 2607982103,
            "nextGrpId": 2607982104
        },
        {
            "index": 38,
            "grpId": 2607982104,
            "nextGrpId": 2607982126
        },
        {
            "index": 39,
            "grpId": 2607982126,
            "nextGrpId": 2607982127
        },
        {
            "index": 40,
            "grpId": 2607982127,
            "nextGrpId": 2607982128
        },
        {
            "index": 41,
            "grpId": 2607982128,
            "nextGrpId": 2607982129
        },
        {
            "index": 42,
            "grpId": 2607982129,
            "nextGrpId": 2607982130
        },
        {
            "index": 43,
            "grpId": 2607982130,
            "nextGrpId": 2607982131
        },
        {
            "index": 44,
            "grpId": 2607982131,
            "nextGrpId": 2607982132
        },
        {
            "index": 45,
            "grpId": 2607982132,
            "nextGrpId": 2607982133
        },
        {
            "index": 46,
            "grpId": 2607982133,
            "nextGrpId": 2607982134
        }
    ],
    "freeStyleDic": {
        "20527": []
    }
}